{
    "changelog": [
        {
            "comments": [
                "Submitted"
            ],
            "contributors": [
                "EMERALD"
            ],
            "version": "3.0"
        }
    ],
    "cluster": {
        "biosyn_class": {
            "Polyketide": 7,
            "NRP": 1
        },
        "compounds": [
            {
                "compound": "Trichothecene",
                "chem_acts": [
                    "Mycotoxin",
                    "Virulence",
                    "mycotoxin",
                    "mycotoxins",
                    "pigment",
                    "self-fertility",
                    "toxin",
                    "toxins",
                    "virulence"
                ],
                "chem_acts_mibig": [],
                "chem_struct": "CC1[C@H]2CC[C@@]1([C@]3(CCC(=C[C@H]3O2)C)C)C",
                "database_id": {
                    "pubchem": "104763"
                },
                "mol_mass": "220.350",
                "molecular_formula": "C15H24O",
                "synonym": "Trichothecene"
            }
        ],
        "loci": {
            "accession": "AY102590.1",
            "completeness": "Unknown",
            "title": "Fusarium asiaticum strain NRRL 28720 trichothecene gene cluster, partial sequence"
        },
        "mibig_accession": "",
        "minimal": "true",
        "ncbi_tax_id": 282267,
        "organism_name": "Fusarium asiaticum",
        "publications": [
            "PMC3713025"
        ]
    }
}