{
    "changelog": [
        {
            "comments": [
                "Submitted"
            ],
            "contributors": [
                "EMERALD"
            ],
            "version": "3.0"
        }
    ],
    "cluster": {
        "biosyn_class": {},
        "compounds": [
            {
                "compound": "cy",
                "chem_acts": [
                    "Cytotoxic",
                    "Cytotoxicity",
                    "cytotoxic",
                    "cytotoxicity"
                ],
                "chem_acts_mibig": [
                    "Cytotoxic"
                ],
                "chem_struct": "CO/N=C/1\\C2=C(C=CC(=C2)[N+](=O)[O-])N3C1=NC4=C(C3=O)C=CC=N4",
                "database_id": {
                    "pubchem": "132004505"
                },
                "mol_mass": "323.260",
                "molecular_formula": "C15H9N5O4",
                "synonym": "US10669273, Compound CY-1-25"
            }
        ],
        "loci": {
            "accession": "GU233672.1",
            "completeness": "Unknown",
            "title": "Streptomyces vietnamensis strain GIMV4.0001 granaticin biosynthetic gene cluster, complete sequence"
        },
        "mibig_accession": "",
        "minimal": "true",
        "ncbi_tax_id": 362257,
        "organism_name": "Streptomyces vietnamensis",
        "publications": [
            "PMC5741568"
        ]
    }
}