{
    "changelog": [
        {
            "comments": [
                "Submitted"
            ],
            "contributors": [
                "EMERALD"
            ],
            "version": "3.0"
        }
    ],
    "cluster": {
        "biosyn_class": {
            "Alkaloid": 2
        },
        "compounds": [
            {
                "compound": "chanoclavine",
                "chem_acts": [],
                "chem_acts_mibig": [],
                "chem_struct": "C/C(=C\\[C@H]1[C@@H](CC2=CNC3=CC=CC1=C23)NC)/CO",
                "database_id": {
                    "pubchem": "5281381"
                },
                "mol_mass": "256.340",
                "molecular_formula": "C16H20N2O",
                "synonym": "chanoclavine"
            }
        ],
        "loci": {
            "accession": "JN182230.1",
            "completeness": "Unknown",
            "title": "Epichloe typhina strain E5819 lysergyl peptide synthetase subunit 2 LPS2 (lpsB), chanoclavine-I- synthase oxidoreductase protein (easE), dimethylallyltryptophan N-methyltransferase (easF), agroclavine dehydrogenase (easG), chanoclavine-I aldehyde oxidoreductase (easA), and putative oxygenase (easH) genes, complete cds"
        },
        "mibig_accession": "",
        "minimal": "true",
        "ncbi_tax_id": 5113,
        "organism_name": "Epichloe typhina",
        "publications": [
            "PMC4280535"
        ]
    }
}