{
    "changelog": [
        {
            "comments": [
                "Submitted"
            ],
            "contributors": [
                "EMERALD"
            ],
            "version": "3.0"
        }
    ],
    "cluster": {
        "biosyn_class": {
            "Alkaloid": 2
        },
        "compounds": [
            {
                "compound": "ergot",
                "chem_acts": [],
                "chem_acts_mibig": [],
                "chem_struct": "CC(CO)NC(=O)C1CN(C2CC3=CNC4=CC=CC(=C34)C2=C1)C.C(=C\\C(=O)O)\\C(=O)O",
                "database_id": {
                    "pubchem": "5380392"
                },
                "mol_mass": "441.500",
                "molecular_formula": "C23H27N3O6",
                "synonym": "ergot"
            }
        ],
        "loci": {
            "accession": "JX072969.2",
            "completeness": "Unknown",
            "title": "Neotyphodium gansuense var. inebrians isolate E818 ergot alkaloid biosynthetic gene cluster, complete sequence"
        },
        "mibig_accession": "",
        "minimal": "true",
        "ncbi_tax_id": 2591900,
        "organism_name": "Epichloe inebrians",
        "publications": [
            "PMC5748660"
        ]
    }
}