{
    "changelog": [
        {
            "comments": [
                "Submitted"
            ],
            "contributors": [
                "EMERALD"
            ],
            "version": "3.0"
        }
    ],
    "cluster": {
        "biosyn_class": {
            "NRP": 1
        },
        "compounds": [
            {
                "compound": "Echinocandin",
                "chem_acts": [
                    "Anticandidal",
                    "antibiotic",
                    "anticandidal",
                    "antifungal",
                    "fungicidal",
                    "fungistatic",
                    "toxicity"
                ],
                "chem_acts_mibig": [
                    "Antibacterial"
                ],
                "chem_struct": "CCCCC/C=C\\C/C=C\\CCCCCCCC(=O)N[C@H]1C[C@H]([C@H](NC(=O)[C@@H]2[C@H]([C@H](CN2C(=O)[C@@H](NC(=O)[C@@H](NC(=O)[C@@H]3C[C@H](CN3C(=O)[C@@H](NC1=O)[C@@H](C)O)O)[C@@H]([C@H](C4=CC=C(C=C4)O)O)O)[C@@H](C)O)C)O)O)O",
                "database_id": {
                    "pubchem": "9898144"
                },
                "mol_mass": "1060.200",
                "molecular_formula": "C52H81N7O16",
                "synonym": "Echinocandin B"
            }
        ],
        "loci": {
            "accession": "JX421684.1",
            "completeness": "Unknown",
            "title": "Emericella rugulosa strain NRRL 11440 hypothetical protein genes, complete cds; echinocandin B biosynthetic gene cluster, complete sequence; and hypothetical protein genes, complete cds"
        },
        "mibig_accession": "",
        "minimal": "true",
        "ncbi_tax_id": 41736,
        "organism_name": "Aspergillus rugulosus",
        "publications": [
            "PMC3628723"
        ]
    }
}