{
    "changelog": [
        {
            "comments": [
                "Submitted"
            ],
            "contributors": [
                "EMERALD"
            ],
            "version": "3.0"
        }
    ],
    "cluster": {
        "biosyn_class": {},
        "compounds": [
            {
                "compound": "cuevaene A",
                "chem_acts": [
                    "inhibitory"
                ],
                "chem_acts_mibig": [
                    "Inhibitor"
                ],
                "chem_struct": "C/C(=C\\C1CCCC2=C1C3=C(O2)C=CC(=C3)O)/C=C(/C=C/C(=O)O)\\OC",
                "database_id": {
                    "pubchem": "71728450"
                },
                "mol_mass": "354.400",
                "molecular_formula": "C21H22O5",
                "synonym": "cuevaene A"
            }
        ],
        "loci": {
            "accession": "KF017602.1",
            "completeness": "Unknown",
            "title": "Streptomyces sp. LZ35 cuevaene A biosynthetic gene cluster, complete sequence"
        },
        "mibig_accession": "",
        "minimal": "true",
        "ncbi_tax_id": 1245024,
        "organism_name": "Streptomyces sp. LZ35",
        "publications": [
            "PMC3999817"
        ]
    }
}