{
    "changelog": [
        {
            "comments": [
                "Submitted"
            ],
            "contributors": [
                "EMERALD"
            ],
            "version": "3.0"
        }
    ],
    "cluster": {
        "biosyn_class": {
            "Polyketide": 2
        },
        "compounds": [
            {
                "compound": "Myxopyronins",
                "chem_acts": [
                    "antibacterial",
                    "antibiotics",
                    "cross-resistance",
                    "inhibitor",
                    "inhibitors"
                ],
                "chem_acts_mibig": [
                    "Antibacterial",
                    "Inhibitor"
                ]
            },
            {
                "compound": "myxopyronins",
                "chem_acts": [
                    "antibacterial",
                    "antibiotics",
                    "cross-resistance",
                    "inhibitor",
                    "inhibitors"
                ],
                "chem_acts_mibig": [
                    "Antibacterial",
                    "Inhibitor"
                ]
            }
        ],
        "loci": {
            "accession": "KF356280.1",
            "completeness": "Unknown",
            "title": "Myxococcus fulvus strain Mx f50 acyltransferase-enoylreductase (mxnA), ketosynthase (mxnB), acyl carrier protein (mxnC), ketosynthase (mxnD), hydroxymethylglutaryl-CoA synthase (mxnE), enoyl-CoA hydratase/isomerase (mxnF), enoyl-CoA hydratase/isomerase (mxnG), carboxyl-methyltransferase (mxnH), hybrid polyketide synthase/nonribosomal peptide synthetase (mxnI), polyketide synthase (mxnJ), polyketide synthase (mxnK), hypothetical protein (mxnL), and acyltransferase (mxnM) genes, complete cds"
        },
        "mibig_accession": "",
        "minimal": "true",
        "ncbi_tax_id": 33,
        "organism_name": "Myxococcus fulvus",
        "publications": [
            "PMC5724707"
        ]
    }
}