{
    "changelog": [
        {
            "comments": [
                "Submitted"
            ],
            "contributors": [
                "EMERALD"
            ],
            "version": "3.0"
        }
    ],
    "cluster": {
        "biosyn_class": {
            "Polyketide": 2
        },
        "compounds": [
            {
                "compound": "hypocrellin A",
                "chem_acts": [
                    "mycotoxins"
                ],
                "chem_acts_mibig": [],
                "chem_struct": "CC(=O)[C@H]1C2=C3C4=C(C[C@@]1(C)O)C(=C(C5=C4C(=C6C3=C(C(=O)C=C6OC)C(=C2OC)O)C(=CC5=O)OC)O)OC",
                "database_id": {
                    "pubchem": "119305"
                },
                "mol_mass": "546.500",
                "molecular_formula": "C30H26O10",
                "synonym": "hypocrellin A"
            }
        ],
        "loci": {
            "accession": "KM434884.1",
            "completeness": "Unknown",
            "title": "Shiraia sp. slf14 hypocrellin A biosynthesis gene cluster, complete sequence"
        },
        "mibig_accession": "",
        "minimal": "true",
        "ncbi_tax_id": 665115,
        "organism_name": "Shiraia sp. slf14",
        "publications": [
            "PMC5129747"
        ]
    }
}