{
    "changelog": [
        {
            "comments": [
                "Submitted"
            ],
            "contributors": [
                "EMERALD"
            ],
            "version": "3.0"
        }
    ],
    "cluster": {
        "biosyn_class": {
            "NRP": 5,
            "Polyketide": 8
        },
        "compounds": [
            {
                "compound": "fusarisetin A",
                "chem_acts": [
                    "pigments"
                ],
                "chem_acts_mibig": [],
                "chem_struct": "C[C@@H]1CC[C@@H]2[C@@H](C1)C=C[C@@H]3[C@]2(C(=O)[C@@]45[C@H]3[C@@H](O[C@]4([C@@H](N(C5=O)C)CO)O)C)C",
                "database_id": {
                    "pubchem": "102342987"
                },
                "mol_mass": "389.500",
                "molecular_formula": "C22H31NO5",
                "synonym": "fusarisetin A"
            }
        ],
        "loci": {
            "accession": "LC025956.1",
            "completeness": "Unknown",
            "title": "Fusarium sp. FN080326 DNA, fusarisetin A biosynthetic gene cluster"
        },
        "mibig_accession": "",
        "minimal": "true",
        "ncbi_tax_id": 1608308,
        "organism_name": "Fusarium sp. FN080326",
        "publications": [
            "PMC6299560"
        ]
    }
}