{
    "changelog": [
        {
            "comments": [
                "Submitted"
            ],
            "contributors": [
                "EMERALD"
            ],
            "version": "3.0"
        }
    ],
    "cluster": {
        "biosyn_class": {
            "NRP": 3,
            "Polyketide": 3,
            "Saccharide": 1,
            "Terpene": 1
        },
        "compounds": [
            {
                "compound": "u-68204",
                "chem_acts": [
                    "antibiotic",
                    "antibiotics",
                    "bacteriocin"
                ],
                "chem_acts_mibig": [
                    "Antibacterial"
                ],
                "chem_struct": "CCC1(C(=C(C(=O)S1)CC(=O)N)O)/C=C(\\C)/C=C",
                "database_id": {
                    "pubchem": "135505752"
                },
                "mol_mass": "267.350",
                "molecular_formula": "C13H17NO3S",
                "synonym": "u-68204"
            }
        ],
        "loci": {
            "accession": "LN879416.1",
            "completeness": "Unknown",
            "title": "Streptomyces sp. MG11, U-68204 biosynthetic gene cluster sequence, strain MG11"
        },
        "mibig_accession": "",
        "minimal": "true",
        "ncbi_tax_id": 1460674,
        "organism_name": "Streptomyces sp. MG11",
        "publications": [
            "PMC6351551"
        ]
    }
}