{
    "changelog": [
        {
            "comments": [
                "Submitted"
            ],
            "contributors": [
                "EMERALD"
            ],
            "version": "3.0"
        }
    ],
    "cluster": {
        "biosyn_class": {
            "Saccharide": 6
        },
        "compounds": [
            {
                "compound": "O35",
                "chem_acts": [
                    "antigen",
                    "antigens",
                    "virulent"
                ],
                "chem_acts_mibig": [],
                "chem_struct": "CC1=CC(=CC(=C1)NC(=O)CC2=C(C=C(C=N2)OC3=C4C=CC(=CC4=NC=C3)OC)OC)CN(C)C",
                "database_id": {
                    "pubchem": "146037621"
                },
                "mol_mass": "486.600",
                "molecular_formula": "C28H30N4O4",
                "synonym": "O35"
            }
        ],
        "loci": {
            "accession": "MH449685.1",
            "completeness": "Unknown",
            "title": "Aeromonas hydrophila O35 antigen biosynthesis gene cluster, complete sequence"
        },
        "mibig_accession": "",
        "minimal": "true",
        "ncbi_tax_id": 644,
        "organism_name": "Aeromonas hydrophila",
        "publications": [
            "PMC6124807"
        ]
    }
}