{
    "changelog": [
        {
            "comments": [
                "Submitted"
            ],
            "contributors": [
                "EMERALD"
            ],
            "version": "3.0"
        }
    ],
    "cluster": {
        "biosyn_class": {
            "Saccharide": 6
        },
        "compounds": [
            {
                "compound": "O44",
                "chem_acts": [
                    "antigen",
                    "antigens",
                    "virulent"
                ],
                "chem_acts_mibig": [],
                "chem_struct": "CCCCC/C=C\\C/C=C\\CCCCCCCCCCCCOC[C@H](COP(=O)([O-])OCC[N+](C)(C)C)OC(=O)CCCCCCCCCCC/C=C\\C/C=C\\CCCCC",
                "database_id": {
                    "pubchem": "53481765"
                },
                "mol_mass": "880.300",
                "molecular_formula": "C52H98NO7P",
                "synonym": "PC(o44:4)"
            }
        ],
        "loci": {
            "accession": "MH449686.1",
            "completeness": "Unknown",
            "title": "Aeromonas hydrophila O44 antigen biosynthesis gene cluster, complete sequence"
        },
        "mibig_accession": "",
        "minimal": "true",
        "ncbi_tax_id": 644,
        "organism_name": "Aeromonas hydrophila",
        "publications": [
            "PMC6124807"
        ]
    }
}