{
    "changelog": [
        {
            "comments": [
                "Submitted"
            ],
            "contributors": [
                "EMERALD"
            ],
            "version": "3.0"
        }
    ],
    "cluster": {
        "biosyn_class": {
            "Saccharide": 6
        },
        "compounds": [
            {
                "compound": "O9",
                "chem_acts": [
                    "antigen",
                    "antigens",
                    "virulent"
                ],
                "chem_acts_mibig": [],
                "chem_struct": "COC1C=C2CCN3C2C(C1O)C4=CC(=C(C=C4C3)OC)OC",
                "database_id": {
                    "pubchem": "97315"
                },
                "mol_mass": "317.400",
                "molecular_formula": "C18H23NO4",
                "synonym": "9, 3,3a-didehydro-2.beta.-methoxy-O9-methyl-"
            }
        ],
        "loci": {
            "accession": "MH449674.1",
            "completeness": "Unknown",
            "title": "Aeromonas hydrophila O9 antigen biosynthesis gene cluster, complete sequence"
        },
        "mibig_accession": "",
        "minimal": "true",
        "ncbi_tax_id": 644,
        "organism_name": "Aeromonas hydrophila",
        "publications": [
            "PMC6124807"
        ]
    }
}