{
    "changelog": [
        {
            "comments": [
                "Submitted"
            ],
            "contributors": [
                "EMERALD"
            ],
            "version": "3.0"
        }
    ],
    "cluster": {
        "biosyn_class": {},
        "compounds": [
            {
                "compound": "Kyamicin",
                "chem_acts": [
                    "antibacterial",
                    "antibiotic",
                    "antibiotic-resistant",
                    "antibiotics",
                    "antimicrobial resistance",
                    "immunity",
                    "inhibition",
                    "resistance/regulatory"
                ],
                "chem_acts_mibig": [
                    "Antibacterial",
                    "Inhibitor"
                ]
            }
        ],
        "loci": {
            "accession": "MK251552.1",
            "completeness": "Unknown",
            "title": "Saccharopolyspora sp. strain KY7 kyamicin biosynthetic gene cluster, complete sequence"
        },
        "mibig_accession": "",
        "minimal": "true",
        "ncbi_tax_id": 33915,
        "organism_name": "Saccharopolyspora sp.",
        "publications": [
            "PMC6974636"
        ]
    }
}