{
    "changelog": [
        {
            "comments": [
                "Submitted"
            ],
            "contributors": [
                "EMERALD"
            ],
            "version": "3.0"
        }
    ],
    "cluster": {
        "biosyn_class": {
            "Polyketide": 2
        },
        "compounds": [
            {
                "compound": "bombyxamycin",
                "chem_acts": [
                    "antibiotic",
                    "growth inhibition",
                    "inhibition",
                    "inhibitory",
                    "virulent"
                ],
                "chem_acts_mibig": [
                    "Antibacterial",
                    "Inhibitor"
                ],
                "chem_struct": "C[C@H]/1CNC(=O)/C=C\\C=C/C=C/[C@@]2([C@H]([C@@H](/C(=C/C(=O)/C=C/C=C\\C=C/C=C/C=C1)/O2)O)O)C",
                "database_id": {
                    "pubchem": "146683175"
                },
                "mol_mass": "449.500",
                "molecular_formula": "C27H31NO5",
                "synonym": "Bombyxamycin B"
            }
        ],
        "loci": {
            "accession": "MK433001.1",
            "completeness": "Unknown",
            "title": "Streptomyces sp. strain SD53 bombyxamycin gene cluster, complete sequence"
        },
        "mibig_accession": "",
        "minimal": "true",
        "ncbi_tax_id": 1931,
        "organism_name": "Streptomyces sp.",
        "publications": [
            "PMC7889971"
        ]
    }
}