{
    "changelog": [
        {
            "comments": [
                "Submitted"
            ],
            "contributors": [
                "EMERALD"
            ],
            "version": "3.0"
        }
    ],
    "cluster": {
        "biosyn_class": {
            "NRP": 4,
            "Polyketide": 2
        },
        "compounds": [
            {
                "compound": "nanangelenin B",
                "chem_acts": [],
                "chem_acts_mibig": []
            }
        ],
        "loci": {
            "accession": "MT024570.1",
            "completeness": "Unknown",
            "title": "Aspergillus sp. CLG-2019 strain MST-FP2251 BGC nanangelenin biosynthetic gene cluster, complete sequence"
        },
        "mibig_accession": "",
        "minimal": "true",
        "ncbi_tax_id": 2582783,
        "organism_name": "Aspergillus nanangensis",
        "publications": [
            "PMC7448278"
        ]
    }
}