{
    "changelog": [
        {
            "comments": [
                "Submitted"
            ],
            "contributors": [
                "EMERALD"
            ],
            "version": "3.0"
        }
    ],
    "cluster": {
        "biosyn_class": {},
        "compounds": [
            {
                "compound": "KaiB",
                "chem_acts": [
                    "antibiotic",
                    "attenuator",
                    "cytotoxicity",
                    "defense",
                    "resistance",
                    "resistant",
                    "toxic",
                    "virulence"
                ],
                "chem_acts_mibig": [
                    "Antibacterial",
                    "Cytotoxic"
                ]
            }
        ],
        "loci": {
            "accession": "AB071375.1",
            "completeness": "Unknown",
            "title": "Synechococcus elongatus circadian clock gene cluster (kaiA, kaiB, kaiC), partial and complete cds"
        },
        "mibig_accession": "",
        "minimal": "true",
        "ncbi_tax_id": 32046,
        "organism_name": "Synechococcus elongatus",
        "publications": [
            "PMC4113418"
        ]
    }
}