{
    "changelog": [
        {
            "comments": [
                "Submitted"
            ],
            "contributors": [
                "EMERALD"
            ],
            "version": "3.0"
        }
    ],
    "cluster": {
        "biosyn_class": {},
        "compounds": [
            {
                "compound": "Vanillin",
                "chem_acts": [
                    "inhibition"
                ],
                "chem_acts_mibig": [
                    "Inhibitor"
                ],
                "chem_struct": "COC1=C(C=CC(=C1)C=O)O",
                "database_id": {
                    "pubchem": "1183"
                },
                "mol_mass": "152.150",
                "molecular_formula": "C8H8O3",
                "synonym": "Vanillin"
            }
        ],
        "loci": {
            "accession": "AB287332.1",
            "completeness": "Unknown",
            "title": "Sphingomonas paucimobilis orf3, orf2, ligV, orf1 genes for hypothetical protein, hypothetical protein, vanillin dehydrogenase, putative signal transduction histidine kinase, partial and complete cds"
        },
        "mibig_accession": "",
        "minimal": "true",
        "ncbi_tax_id": 13689,
        "organism_name": "Sphingomonas paucimobilis",
        "publications": [
            "PMC5566326"
        ]
    }
}