{
    "changelog": [
        {
            "comments": [
                "Submitted"
            ],
            "contributors": [
                "EMERALD"
            ],
            "version": "3.0"
        }
    ],
    "cluster": {
        "biosyn_class": {},
        "compounds": [
            {
                "compound": "fibronectin-binding",
                "chem_acts": [],
                "chem_acts_mibig": []
            }
        ],
        "loci": {
            "accession": "AB295437.1",
            "completeness": "Unknown",
            "title": "Campylobacter lari rpsI, cadF, CLA0749, CLA0750 genes for ribosomal protein S9, fibronectin-binding protein, putative hydrolase, pyruvate ferredoxin/flavodoxin oxidoreductase family protein, partial and complete cds, strain: A2"
        },
        "mibig_accession": "",
        "minimal": "true",
        "ncbi_tax_id": 201,
        "organism_name": "Campylobacter lari",
        "publications": [
            "PMC2751783"
        ]
    }
}