{
    "changelog": [
        {
            "comments": [
                "Submitted"
            ],
            "contributors": [
                "EMERALD"
            ],
            "version": "3.0"
        }
    ],
    "cluster": {
        "biosyn_class": {},
        "compounds": [
            {
                "compound": "BC",
                "chem_acts": [],
                "chem_acts_mibig": [],
                "chem_struct": "C[C@@]1(CCCC2(C1C=C3C4=C(CCO3)C=C(C=C42)OC)C)C(=O)OC",
                "database_id": {
                    "pubchem": "101048612"
                },
                "mol_mass": "342.400",
                "molecular_formula": "C21H26O4",
                "synonym": "(8S)-2-Methoxy-8,11a-dimethyl-4,5,7a,8,9,10,11,11a-octahydrophenanthro[10,1-bc]pyran-8-carboxylic acid methyl ester"
            }
        ],
        "loci": {
            "accession": "AB491259.1",
            "completeness": "Unknown",
            "title": "Enterobacter sp. CJF-002 cellulose synthase gene cluster (yhjQ, bcsA, bcsB, bcsZ, bcsC, yhjK), complete cds"
        },
        "mibig_accession": "",
        "minimal": "true",
        "ncbi_tax_id": 627196,
        "organism_name": "Enterobacter sp. CJF-002",
        "publications": [
            "PMC5638805"
        ]
    }
}