{
    "changelog": [
        {
            "comments": [
                "Submitted"
            ],
            "contributors": [
                "EMERALD"
            ],
            "version": "3.0"
        }
    ],
    "cluster": {
        "biosyn_class": {},
        "compounds": [
            {
                "compound": "OEP-locus",
                "chem_acts": [
                    "toxin-producing"
                ],
                "chem_acts_mibig": []
            }
        ],
        "loci": {
            "accession": "AB920394.1",
            "completeness": "Unknown",
            "title": "Escherichia coli O128:H2 subA, subB genes for subtilase cytotoxin SubA, subtilase cytotoxin SubB, complete cds, strain: EC18"
        },
        "mibig_accession": "",
        "minimal": "true",
        "ncbi_tax_id": 244317,
        "organism_name": "Escherichia coli O128:H2",
        "publications": [
            "PMC3852854"
        ]
    }
}