{
    "changelog": [
        {
            "comments": [
                "Submitted"
            ],
            "contributors": [
                "EMERALD"
            ],
            "version": "3.0"
        }
    ],
    "cluster": {
        "biosyn_class": {
            "Saccharide": 3
        },
        "compounds": [
            {
                "compound": "Asialofetuin",
                "chem_acts": [
                    "adhesive",
                    "anti-parallel",
                    "resistant",
                    "self-association"
                ],
                "chem_acts_mibig": []
            },
            {
                "compound": "BC",
                "chem_acts": [
                    "adhesive",
                    "anti-parallel",
                    "resistant",
                    "self-association"
                ],
                "chem_acts_mibig": [],
                "chem_struct": "C[C@@]1(CCCC2(C1C=C3C4=C(CCO3)C=C(C=C42)OC)C)C(=O)OC",
                "database_id": {
                    "pubchem": "101048612"
                },
                "mol_mass": "342.400",
                "molecular_formula": "C21H26O4",
                "synonym": "(8S)-2-Methoxy-8,11a-dimethyl-4,5,7a,8,9,10,11,11a-octahydrophenanthro[10,1-bc]pyran-8-carboxylic acid methyl ester"
            },
            {
                "compound": "CWS",
                "chem_acts": [
                    "adhesive",
                    "anti-parallel",
                    "resistant",
                    "self-association"
                ],
                "chem_acts_mibig": [],
                "chem_struct": "CC1=CC2=C(C=C1)N=CN=C2N",
                "database_id": {
                    "pubchem": "12362244"
                },
                "mol_mass": "159.190",
                "molecular_formula": "C9H9N3",
                "synonym": "CWS"
            },
            {
                "compound": "OC1",
                "chem_acts": [
                    "adhesive",
                    "anti-parallel",
                    "resistant",
                    "self-association"
                ],
                "chem_acts_mibig": [],
                "chem_struct": "CCOC(=O)C1=CNN(C1=O)C2=NC(=CC=C2)Cl",
                "database_id": {
                    "pubchem": "89992694"
                },
                "mol_mass": "267.670",
                "molecular_formula": "C11H10ClN3O3",
                "synonym": "OC1=C(C(=O)OCC)C=NN1C1=CC=CC(Cl)=N1"
            },
            {
                "compound": "asialofetuin",
                "chem_acts": [
                    "adhesive",
                    "anti-parallel",
                    "resistant",
                    "self-association"
                ],
                "chem_acts_mibig": []
            },
            {
                "compound": "fimbrillin",
                "chem_acts": [
                    "adhesive",
                    "anti-parallel",
                    "resistant",
                    "self-association"
                ],
                "chem_acts_mibig": []
            }
        ],
        "loci": {
            "accession": "AF019629.1",
            "completeness": "Unknown",
            "title": "Actinomyces naeslundii fimbrial structural subunit (fimA) and putative fimbria-associated protein genes, complete cds"
        },
        "mibig_accession": "",
        "minimal": "true",
        "ncbi_tax_id": 1655,
        "organism_name": "Actinomyces naeslundii",
        "publications": [
            "PMC3177855"
        ]
    }
}