{
    "changelog": [
        {
            "comments": [
                "Submitted"
            ],
            "contributors": [
                "EMERALD"
            ],
            "version": "3.0"
        }
    ],
    "cluster": {
        "biosyn_class": {},
        "compounds": [
            {
                "compound": "gentisate",
                "chem_acts": [],
                "chem_acts_mibig": [],
                "chem_struct": "C1=CC(=C(C=C1O)C(=O)O)O",
                "database_id": {
                    "pubchem": "3469"
                },
                "mol_mass": "154.120",
                "molecular_formula": "C7H6O4",
                "synonym": "gentisate"
            }
        ],
        "loci": {
            "accession": "AF036940.2",
            "completeness": "Unknown",
            "title": "Ralstonia sp. U2 plasmid pWWU2 putative chemotaxis protein gene, partial cds; LysR-like regular protein (nagR), ferredoxin reductase (nagAa), salicylate-5-hydroxylase large oxygenase component (nagG), salicylate-5-hydroxylase small oxygenase component (nagH), ferredoxin (nagAb), naphthalene 1,2 dioxygenase large oxygenase component (nagAc), naphthalene 1,2 dioxygenase small oxygenase component (nagAd), cis-naphthalene dihydrodiol dehydrogenase (nagB), salicylaldehyde dehydrogenase (nagF), 1,2-dihydroxynaphthalene dioxygenase (nagC), putative aldolase (nagQ), trans-o-hydroxybenzylidenepyruvate hydratase-aldolase (nagE), 2-hydroxychromene carboxylate isomerase (nagD), glutathione-S-transferase-like protein (nagJ), gentisate 1,2-dioxygenase (nagI), fumarylpyruvate hydrolase (nagK), maleylpyruvate isomerase (nagL), NagM (nagM), and NagN (NagN) genes, complete cds; and putative transposase gene, partial cds"
        },
        "mibig_accession": "",
        "minimal": "true",
        "ncbi_tax_id": 70356,
        "organism_name": "Ralstonia sp. U2",
        "publications": [
            "PMC6856394"
        ]
    }
}