{
    "changelog": [
        {
            "comments": [
                "Submitted"
            ],
            "contributors": [
                "EMERALD"
            ],
            "version": "3.0"
        }
    ],
    "cluster": {
        "biosyn_class": {},
        "compounds": [
            {
                "compound": "kanamycine",
                "chem_acts": [],
                "chem_acts_mibig": [],
                "chem_struct": "C1[C@H]([C@@H]([C@H]([C@@H]([C@H]1N)O[C@@H]2[C@@H]([C@H]([C@@H]([C@H](O2)CN)O)O)O)O)O[C@@H]3[C@@H]([C@H]([C@@H]([C@H](O3)CO)O)N)O)N",
                "database_id": {
                    "pubchem": "6032"
                },
                "mol_mass": "484.500",
                "molecular_formula": "C18H36N4O11",
                "synonym": "kanamycine"
            },
            {
                "compound": "stambomycin",
                "chem_acts": [],
                "chem_acts_mibig": [],
                "chem_struct": "CCCCCCC1/C=C(\\C(CC(CCCC(C(C(C/C=C\\C=C(/C(C(C2CC(C(C(O2)(CC(=O)OC(/C=C\\C(CC(CCCC(C(C(CCC(C(CC(CC(CCC(C1O)O)O)O)O)C)O)C)O)O)O)C)O)C)O[C@H]3[C@@H]([C@H]([C@@H]([C@H](O3)C)O)N(C)C)O)C)O)\\C)O)C)O)O)O)/C",
                "database_id": {
                    "pubchem": "102365384"
                },
                "mol_mass": "1362.800",
                "molecular_formula": "C72H131NO22",
                "synonym": "Stambomycin D"
            }
        ],
        "loci": {
            "accession": "AF050150.3",
            "completeness": "Unknown",
            "title": "Streptomyces ambofaciens ArsR (arsR), PrsR (prsR), HasR (hasR), and OrfB genes, complete cds"
        },
        "mibig_accession": "",
        "minimal": "true",
        "ncbi_tax_id": 1889,
        "organism_name": "Streptomyces ambofaciens",
        "publications": [
            "PMC5869714"
        ]
    }
}