{
    "changelog": [
        {
            "comments": [
                "Submitted"
            ],
            "contributors": [
                "EMERALD"
            ],
            "version": "3.0"
        }
    ],
    "cluster": {
        "biosyn_class": {},
        "compounds": [
            {
                "compound": "A0248",
                "chem_acts": [
                    "defence",
                    "pathogenic"
                ],
                "chem_acts_mibig": [],
                "chem_struct": "C(C#N)N.OS(=O)(=O)O",
                "database_id": {
                    "pubchem": "196971"
                },
                "mol_mass": "154.150",
                "molecular_formula": "C2H6N2O4S",
                "synonym": "A0248"
            }
        ],
        "loci": {
            "accession": "AF076437.1",
            "completeness": "Unknown",
            "title": "Rickettsia prowazekii strain Breinl RNA polymerase beta subunit (rpoB) gene, complete cds; and RNA polymerase beta' subunit (rpoC) gene, partial cds"
        },
        "mibig_accession": "",
        "minimal": "true",
        "ncbi_tax_id": 782,
        "organism_name": "Rickettsia prowazekii",
        "publications": [
            "PMC4265047"
        ]
    }
}