{
    "changelog": [
        {
            "comments": [
                "Submitted"
            ],
            "contributors": [
                "EMERALD"
            ],
            "version": "3.0"
        }
    ],
    "cluster": {
        "biosyn_class": {},
        "compounds": [
            {
                "compound": "Arsenic",
                "chem_acts": [
                    "anoxic",
                    "bioremediation"
                ],
                "chem_acts_mibig": [],
                "chem_struct": "C[As](C)CCO",
                "database_id": {
                    "pubchem": "12956697"
                },
                "mol_mass": "150.050",
                "molecular_formula": "C4H11AsO",
                "synonym": "Dimethyl(2-hydroxyethyl) arsenic"
            },
            {
                "compound": "lead",
                "chem_acts": [
                    "anoxic",
                    "bioremediation"
                ],
                "chem_acts_mibig": [],
                "chem_struct": "CC[CH2].CC[CH2].CC[CH2].[F-].[Pb]",
                "database_id": {
                    "pubchem": "101117565"
                },
                "mol_mass": "355.000",
                "molecular_formula": "C9H21FPb-",
                "synonym": "Tris(propyl) lead(IV) fluoride"
            }
        ],
        "loci": {
            "accession": "AF074396.1",
            "completeness": "Unknown",
            "title": "Desulfotomaculum thermocisternum UDP-acetylglucosamine 1-carboxyvinyltransferase (murA) gene, partial cds; yydA, ferredoxin (fdx), dissimilatory sulfite reductase subunit A (dsrA), dissimilatory sulfite reductase subunit B (dsrB), and dsrD genes, complete cds; and unknown gene"
        },
        "mibig_accession": "",
        "minimal": "true",
        "ncbi_tax_id": 1121430,
        "organism_name": "Desulfofundulus thermocisternus DSM 10259",
        "publications": [
            "PMC6198496"
        ]
    }
}