{
    "changelog": [
        {
            "comments": [
                "Submitted"
            ],
            "contributors": [
                "EMERALD"
            ],
            "version": "3.0"
        }
    ],
    "cluster": {
        "biosyn_class": {
            "Polyketide": 5,
            "Saccharide": 1
        },
        "compounds": [
            {
                "compound": "nitrite",
                "chem_acts": [
                    "antibiotic",
                    "antibiotics",
                    "antimicrobial",
                    "cytotoxin",
                    "photoprotection",
                    "photoprotective",
                    "pigments",
                    "protective pigments",
                    "resistance",
                    "self-immolation",
                    "toxin"
                ],
                "chem_acts_mibig": [
                    "Antibacterial",
                    "Cytotoxic"
                ],
                "chem_struct": "N(=O)[O-].N(=O)[O-].[Mg+2]",
                "database_id": {
                    "pubchem": "10197667"
                },
                "mol_mass": "116.320",
                "molecular_formula": "MgN2O4",
                "synonym": "Magnesium nitrite"
            }
        ],
        "loci": {
            "accession": "AF195068.1",
            "completeness": "Unknown",
            "title": "Synechococcus sp. PCC 7002 Synechococcus PCC7002 ThiG (thiG) gene, partial cds; nitrite reductase (nirA) gene, complete cds; and coproporphyrinogen III oxidase (hemF) gene, partial cds"
        },
        "mibig_accession": "",
        "minimal": "true",
        "ncbi_tax_id": 32049,
        "organism_name": "Synechococcus sp. PCC 7002",
        "publications": [
            "PMC3858816"
        ]
    }
}