{
    "changelog": [
        {
            "comments": [
                "Submitted"
            ],
            "contributors": [
                "EMERALD"
            ],
            "version": "3.0"
        }
    ],
    "cluster": {
        "biosyn_class": {},
        "compounds": [
            {
                "compound": "Rubrerythrin",
                "chem_acts": [
                    "chemotactic",
                    "chemotaxis-related"
                ],
                "chem_acts_mibig": []
            }
        ],
        "loci": {
            "accession": "AF202316.2",
            "completeness": "Unknown",
            "title": "Moorella thermoacetica rubredoxin Rd (rub), NAD+/- rubredoxin oxidoreductase Rbo (rbo), rubrerythrin (rbr), type a flavoprotein (fprA), and high molecular weight rubredoxin (hrb) genes, complete cds"
        },
        "mibig_accession": "",
        "minimal": "true",
        "ncbi_tax_id": 1525,
        "organism_name": "Moorella thermoacetica",
        "publications": [
            "PMC5924567"
        ]
    }
}