{
    "changelog": [
        {
            "comments": [
                "Submitted"
            ],
            "contributors": [
                "EMERALD"
            ],
            "version": "3.0"
        }
    ],
    "cluster": {
        "biosyn_class": {
            "Saccharide": 2
        },
        "compounds": [
            {
                "compound": "Betaine",
                "chem_acts": [
                    "toxic"
                ],
                "chem_acts_mibig": [],
                "chem_struct": "C=CCCCCC(C[N+](CCCC(=O)O)(CCO)CC(CCCCC=C)O)O",
                "database_id": {
                    "pubchem": "101276078"
                },
                "mol_mass": "400.600",
                "molecular_formula": "C22H42NO5+",
                "synonym": "N,N-Bis(2-hydroxy-7-octenyl)-N-(2-hydroxyethyl)-N-(3-carboxypropyl)ammonium betaine"
            },
            {
                "compound": "Choline sulfate",
                "chem_acts": [
                    "toxic"
                ],
                "chem_acts_mibig": [],
                "chem_struct": "C[N+](C)(C)CCOS(=O)(=O)[O-]",
                "database_id": {
                    "pubchem": "485"
                },
                "mol_mass": "183.230",
                "molecular_formula": "C5H13NO4S",
                "synonym": "Choline sulfate"
            },
            {
                "compound": "D-glycerate",
                "chem_acts": [
                    "toxic"
                ],
                "chem_acts_mibig": [],
                "chem_struct": "C([C@H](C(=O)[O-])O)O",
                "database_id": {
                    "pubchem": "5460358"
                },
                "mol_mass": "105.070",
                "molecular_formula": "C3H5O4-",
                "synonym": "D-glycerate"
            },
            {
                "compound": "MDH",
                "chem_acts": [
                    "toxic"
                ],
                "chem_acts_mibig": [],
                "chem_struct": "CCCCCNS(=O)(=O)C1=CC=CC2=C1C=CC=C2N(C)C",
                "database_id": {
                    "pubchem": "14008929"
                },
                "mol_mass": "320.500",
                "molecular_formula": "C17H24N2O2S",
                "synonym": "MDH"
            },
            {
                "compound": "megabins",
                "chem_acts": [
                    "toxic"
                ],
                "chem_acts_mibig": []
            }
        ],
        "loci": {
            "accession": "AF250389.1",
            "completeness": "Unknown",
            "title": "Carsonella ruddii elongation factor Tu (tufA) gene, partial cds; ribosomal protein S10 (rps10), ribosomal protein L3 (rpl3), ribosomal protein L4 (rpl4), ribosomal protein L2 (rpl2), ribosomal protein S19 (rps19), and ribosomal protein L22 (rpl22) genes, complete cds; and ribosomal protein S3 (rps3) gene, partial cds"
        },
        "mibig_accession": "",
        "minimal": "true",
        "ncbi_tax_id": 114186,
        "organism_name": "Candidatus Carsonella ruddii",
        "publications": [
            "PMC5103831"
        ]
    }
}