{
    "changelog": [
        {
            "comments": [
                "Submitted"
            ],
            "contributors": [
                "EMERALD"
            ],
            "version": "3.0"
        }
    ],
    "cluster": {
        "biosyn_class": {},
        "compounds": [
            {
                "compound": "phosphonates",
                "chem_acts": [
                    "Assessment of Lung",
                    "antigens",
                    "defense",
                    "immunodulation",
                    "pathogenesis",
                    "resistance",
                    "virulence",
                    "virulence factors",
                    "virulence-associated"
                ],
                "chem_acts_mibig": [],
                "chem_struct": "OP([O-])[O-]",
                "database_id": {
                    "pubchem": "177605"
                },
                "mol_mass": "79.980",
                "molecular_formula": "HO3P-2",
                "synonym": "Organophosphonates"
            }
        ],
        "loci": {
            "accession": "AF396969.1",
            "completeness": "Unknown",
            "title": "Mycoplasma bovis strain PG-45 isolate 8 VspE (vspE), VspO (vspO), VspN (vspN), VspM (vspM), VspA (vspA), VspF (vspF), IS30-like protein, VspJ (vspJ), VspB (vspB), VspK (vspK), and VspL (vspL) genes, complete cds; and unknown genes"
        },
        "mibig_accession": "",
        "minimal": "true",
        "ncbi_tax_id": 28903,
        "organism_name": "Mycoplasmopsis bovis",
        "publications": [
            "PMC3365025"
        ]
    }
}