{
    "changelog": [
        {
            "comments": [
                "Submitted"
            ],
            "contributors": [
                "EMERALD"
            ],
            "version": "3.0"
        }
    ],
    "cluster": {
        "biosyn_class": {
            "Saccharide": 1
        },
        "compounds": [
            {
                "compound": "APF",
                "chem_acts": [
                    "Antimicrobial",
                    "antagonistic",
                    "antibiotics",
                    "antimicrobial",
                    "antimicrobials",
                    "bacterized",
                    "disinfectants",
                    "inhibit the growth",
                    "inhibition"
                ],
                "chem_acts_mibig": [
                    "Antibacterial",
                    "Inhibitor"
                ],
                "chem_struct": "C1=CC=C(C(=C1)C2=C3C=CC(=O)C=C3OC4=C2C=CC(=C4)OC5=CC=C(C=C5)N)C(=O)O",
                "database_id": {
                    "pubchem": "11640420"
                },
                "mol_mass": "423.400",
                "molecular_formula": "C26H17NO5",
                "synonym": "APF"
            }
        ],
        "loci": {
            "accession": "AF492458.1",
            "completeness": "Unknown",
            "title": "Lactobacillus crispatus ABC transporter gene, partial cds; DEAD-box helicase, ammonium transporter, nitroreductase, acetyltransferase, phosphoesterase, truncated PTS EIIC-like protein, aggregation promoting factor (apf), insertion sequence IS1202-Lbc1 transposase, phosphoglycerate mutase, phosphoglycerate mutase, glycerophosphoryldiester phosphodiesterase, and insertion sequence IS30-like transposase genes, complete cds; and unknown genes"
        },
        "mibig_accession": "",
        "minimal": "true",
        "ncbi_tax_id": 47770,
        "organism_name": "Lactobacillus crispatus",
        "publications": [
            "PMC7093026"
        ]
    }
}