{
    "changelog": [
        {
            "comments": [
                "Submitted"
            ],
            "contributors": [
                "EMERALD"
            ],
            "version": "3.0"
        }
    ],
    "cluster": {
        "biosyn_class": {},
        "compounds": [
            {
                "compound": "BMAA",
                "chem_acts": [
                    "Resistance",
                    "Toxic",
                    "antibiotic",
                    "diazotrophic growth",
                    "inhibit the growth",
                    "inhibitory",
                    "protective",
                    "protector",
                    "resistance",
                    "toxic",
                    "toxicity"
                ],
                "chem_acts_mibig": [
                    "Antibacterial",
                    "Inhibitor"
                ],
                "chem_struct": "CNC[C@@H](C(=O)O)N",
                "database_id": {
                    "pubchem": "105089"
                },
                "mol_mass": "118.130",
                "molecular_formula": "C4H10N2O2",
                "synonym": "BMAA"
            }
        ],
        "loci": {
            "accession": "AJ133704.1",
            "completeness": "Unknown",
            "title": "Anabaena sp. natCA gene cluster encoding elements of the ABC-type, N-I transport system for neutral amino acids"
        },
        "mibig_accession": "",
        "minimal": "true",
        "ncbi_tax_id": 103690,
        "organism_name": "Nostoc sp. PCC 7120 = FACHB-418",
        "publications": [
            "PMC7472364"
        ]
    }
}