{
    "changelog": [
        {
            "comments": [
                "Submitted"
            ],
            "contributors": [
                "EMERALD"
            ],
            "version": "3.0"
        }
    ],
    "cluster": {
        "biosyn_class": {},
        "compounds": [
            {
                "compound": "cohesin-containing",
                "chem_acts": [
                    "fibrolytic"
                ],
                "chem_acts_mibig": []
            },
            {
                "compound": "cohesins",
                "chem_acts": [
                    "fibrolytic"
                ],
                "chem_acts_mibig": []
            },
            {
                "compound": "dockerins",
                "chem_acts": [
                    "fibrolytic"
                ],
                "chem_acts_mibig": []
            }
        ],
        "loci": {
            "accession": "AJ278969.4",
            "completeness": "Unknown",
            "title": "Ruminococcus flavefaciens cellulosomal scaffoldin gene cluster, strain 17"
        },
        "mibig_accession": "",
        "minimal": "true",
        "ncbi_tax_id": 1030842,
        "organism_name": "Ruminococcus flavefaciens 17",
        "publications": [
            "PMC4081043"
        ]
    }
}