{
    "changelog": [
        {
            "comments": [
                "Submitted"
            ],
            "contributors": [
                "EMERALD"
            ],
            "version": "3.0"
        }
    ],
    "cluster": {
        "biosyn_class": {
            "Saccharide": 1
        },
        "compounds": [
            {
                "compound": "5,6-dimethylbenzimidazole",
                "chem_acts": [],
                "chem_acts_mibig": [],
                "chem_struct": "CCOC1=CC(=C(C=C1)OCC)S(=O)(=O)N2C=NC3=C2C=C(C(=C3)C)C",
                "database_id": {
                    "pubchem": "1254651"
                },
                "mol_mass": "374.500",
                "molecular_formula": "C19H22N2O4S",
                "synonym": "1-(2,5-diethoxyphenyl)sulfonyl-5,6-dimethylbenzimidazole"
            },
            {
                "compound": "aliphatic sulphonates",
                "chem_acts": [],
                "chem_acts_mibig": []
            },
            {
                "compound": "corrinoid",
                "chem_acts": [],
                "chem_acts_mibig": [],
                "chem_struct": "C/C/1=C/2\\C(C(C([N-]2)C3(C(C(C(=N3)/C(=C\\4/C(C(C(=N4)/C=C\\5/C(C(C1=N5)CCC(=O)N)(C)C)CCC(=O)N)(C)CC(=O)N)/C)CCC(=O)N)(C)CC(=O)N)C)CC(=O)N)(C)CCC(=O)NCC(C)OP(=O)([O-])OC6C(OC(C6O)N7C=NC8=C7C=CC(=C8)O)CO.[C-]#N.[Co+3]",
                "database_id": {
                    "pubchem": "6449980"
                },
                "mol_mass": "1343.300",
                "molecular_formula": "C61H84CoN14O15P",
                "synonym": "Factor III, corrinoid"
            },
            {
                "compound": "uroporphyrinogen III",
                "chem_acts": [],
                "chem_acts_mibig": [],
                "chem_struct": "C1C2=C(C(=C(N2)CC3=C(C(=C(N3)CC4=C(C(=C(N4)CC5=C(C(=C1N5)CCC(=O)O)CC(=O)O)CC(=O)O)CCC(=O)O)CC(=O)O)CCC(=O)O)CC(=O)O)CCC(=O)O",
                "database_id": {
                    "pubchem": "1179"
                },
                "mol_mass": "836.800",
                "molecular_formula": "C40H44N4O16",
                "synonym": "uroporphyrinogen III"
            }
        ],
        "loci": {
            "accession": "AY055852.1",
            "completeness": "Unknown",
            "title": "Xanthobacter sp. Py2 sigma-54 dependent transcriptional activator (acxR), acetone carboxylase beta subunit (acxA), acetone carboxylase alpha subunit (acxB), and acetone carboxylase gamma subunit (acxC) genes, complete cds"
        },
        "mibig_accession": "",
        "minimal": "true",
        "ncbi_tax_id": 78245,
        "organism_name": "Xanthobacter autotrophicus Py2",
        "publications": [
            "PMC3621897"
        ]
    }
}