{
    "changelog": [
        {
            "comments": [
                "Submitted"
            ],
            "contributors": [
                "EMERALD"
            ],
            "version": "3.0"
        }
    ],
    "cluster": {
        "biosyn_class": {
            "Polyketide": 5,
            "Saccharide": 1
        },
        "compounds": [
            {
                "compound": "hyp",
                "chem_acts": [
                    "antibiotic",
                    "antibiotics",
                    "antimicrobial",
                    "cytotoxin",
                    "photoprotection",
                    "photoprotective",
                    "pigments",
                    "protective pigments",
                    "resistance",
                    "self-immolation",
                    "toxin"
                ],
                "chem_acts_mibig": [
                    "Antibacterial",
                    "Cytotoxic"
                ],
                "chem_struct": "C1C[C@H](N(C1)C(=O)[C@@H]2C[C@H](CN2C(=O)[C@H](CCCN=C(N)N)NC(=O)[C@@H](CCCN=C(N)N)N)O)C(=O)NCC(=O)N[C@@H](CC3=CC=CS3)C(=O)N[C@@H](CO)C(=O)N[C@H](CC4=CC=CC=C4)C(=O)N[C@@H](CC5=CC=CS5)C(=O)N[C@@H](CCCN=C(N)N)C(=O)O",
                "database_id": {
                    "pubchem": "128372"
                },
                "mol_mass": "1294.500",
                "molecular_formula": "C56H83N19O13S2",
                "synonym": "Bradykinin, arg-hyp(2)-(thi-ala)(5,8)-phe(7)-"
            }
        ],
        "loci": {
            "accession": "AY147401.1",
            "completeness": "Unknown",
            "title": "Anabaena variabilis HypD-like protein (hypD) gene, partial cds; and HypE-like protein (hypE), HypA-like protein (hypA), and HypB-like protein (hypB) genes, complete cds"
        },
        "mibig_accession": "",
        "minimal": "true",
        "ncbi_tax_id": 240292,
        "organism_name": "Trichormus variabilis ATCC 29413",
        "publications": [
            "PMC3858816"
        ]
    }
}