{
    "changelog": [
        {
            "comments": [
                "Submitted"
            ],
            "contributors": [
                "EMERALD"
            ],
            "version": "3.0"
        }
    ],
    "cluster": {
        "biosyn_class": {},
        "compounds": [
            {
                "compound": "O1",
                "chem_acts": [
                    "Hemolysis",
                    "Hemolytic",
                    "diarrheal",
                    "enterotoxin",
                    "hemolysis",
                    "hemolytic",
                    "lytic",
                    "toxin",
                    "toxin toxin",
                    "toxin-coregulated",
                    "toxins",
                    "virulence",
                    "virulence-associated"
                ],
                "chem_acts_mibig": [],
                "chem_struct": "COC(=O)NC(=S)OC",
                "database_id": {
                    "pubchem": "11344100"
                },
                "mol_mass": "149.170",
                "molecular_formula": "C4H7NO3S",
                "synonym": "Thioimidodicarbonic acid ((HO)C(O)NHC(S)(OH)), O1,O3-dimethyl ester"
            }
        ],
        "loci": {
            "accession": "AY248038.1",
            "completeness": "Unknown",
            "title": "Vibrio cholerae non-O1/non-O139 hypothetical proteins, carbenicillin-hydrolyzing beta-lactamase (carb9), and hypothetical protein genes, complete cds"
        },
        "mibig_accession": "",
        "minimal": "true",
        "ncbi_tax_id": 156539,
        "organism_name": "Vibrio cholerae non-O1/non-O139",
        "publications": [
            "PMC6474259"
        ]
    }
}