{
    "changelog": [
        {
            "comments": [
                "Submitted"
            ],
            "contributors": [
                "EMERALD"
            ],
            "version": "3.0"
        }
    ],
    "cluster": {
        "biosyn_class": {
            "Saccharide": 2
        },
        "compounds": [
            {
                "compound": "O-antigens",
                "chem_acts": [
                    "antibiotic",
                    "antibiotic-producing",
                    "antibiotics",
                    "antigen",
                    "antigens"
                ],
                "chem_acts_mibig": [
                    "Antibacterial"
                ]
            }
        ],
        "loci": {
            "accession": "AY422724.1",
            "completeness": "Unknown",
            "title": "Thermoanaerobacterium thermosaccharolyticum strain E207-71 S-layer glycan glycosylation (slg) gene cluster, partial sequence"
        },
        "mibig_accession": "",
        "minimal": "true",
        "ncbi_tax_id": 1517,
        "organism_name": "Thermoanaerobacterium thermosaccharolyticum",
        "publications": [
            "PMC4379490"
        ]
    }
}