{
    "changelog": [
        {
            "comments": [
                "Submitted"
            ],
            "contributors": [
                "EMERALD"
            ],
            "version": "3.0"
        }
    ],
    "cluster": {
        "biosyn_class": {},
        "compounds": [
            {
                "compound": "BTs-STs",
                "chem_acts": [
                    "bacteriocytes"
                ],
                "chem_acts_mibig": []
            },
            {
                "compound": "riboflavin-biosynthetic",
                "chem_acts": [
                    "bacteriocytes"
                ],
                "chem_acts_mibig": []
            },
            {
                "compound": "thiamin",
                "chem_acts": [
                    "bacteriocytes"
                ],
                "chem_acts_mibig": [],
                "chem_struct": "CC1=C(SC=[N+]1CC2=CN=C(N=C2N)C)CCO",
                "database_id": {
                    "pubchem": "1130"
                },
                "mol_mass": "265.360",
                "molecular_formula": "C12H17N4OS+",
                "synonym": "thiamin"
            }
        ],
        "loci": {
            "accession": "AY444795.1",
            "completeness": "Unknown",
            "title": "Buchnera aphidicola str. APS (Acyrthosiphon pisum) plasmid pTrp anthranilate synthase large subunit (trpE) and anthranilate synthase small subunit (trpG) genes, complete cds"
        },
        "mibig_accession": "",
        "minimal": "true",
        "ncbi_tax_id": 107806,
        "organism_name": "Buchnera aphidicola str. APS (Acyrthosiphon pisum)",
        "publications": [
            "PMC4898801"
        ]
    }
}