{
    "changelog": [
        {
            "comments": [
                "Submitted"
            ],
            "contributors": [
                "EMERALD"
            ],
            "version": "3.0"
        }
    ],
    "cluster": {
        "biosyn_class": {
            "Saccharide": 1
        },
        "compounds": [
            {
                "compound": "Arsenic",
                "chem_acts": [
                    "antibiotic",
                    "resistance",
                    "toxic",
                    "toxicity"
                ],
                "chem_acts_mibig": [
                    "Antibacterial"
                ],
                "chem_struct": "C[As](C)CCO",
                "database_id": {
                    "pubchem": "12956697"
                },
                "mol_mass": "150.050",
                "molecular_formula": "C4H11AsO",
                "synonym": "Dimethyl(2-hydroxyethyl) arsenic"
            }
        ],
        "loci": {
            "accession": "AY728034.1",
            "completeness": "Unknown",
            "title": "Herminiimonas arsenicoxydans clone M30 putative Na+-dependent transporter gene, complete cds; and LspA gene, partial cds"
        },
        "mibig_accession": "",
        "minimal": "true",
        "ncbi_tax_id": 204773,
        "organism_name": "Herminiimonas arsenicoxydans",
        "publications": [
            "PMC5670224"
        ]
    }
}