{
    "changelog": [
        {
            "comments": [
                "Submitted"
            ],
            "contributors": [
                "EMERALD"
            ],
            "version": "3.0"
        }
    ],
    "cluster": {
        "biosyn_class": {},
        "compounds": [
            {
                "compound": "glycine",
                "chem_acts": [
                    "osmoprotectant"
                ],
                "chem_acts_mibig": [],
                "chem_struct": "C1=CC=C(C=C1)[C@H]2[C@@H]([C@@H]2C(=O)O)[C@H](C(=O)O)N",
                "database_id": {
                    "pubchem": "10059959"
                },
                "mol_mass": "235.240",
                "molecular_formula": "C12H13NO4",
                "synonym": "2-[(1S,2R,3S)-2-Carboxy-3-phenylcyclopropyl]-D-glycine"
            }
        ],
        "loci": {
            "accession": "AY876914.2",
            "completeness": "Unknown",
            "title": "Methanohalophilus portucalensis ATP-binding protein (btaA) and transmembrane protein (btaB) genes, complete cds; and glycine-betaine binding protein (btaC) gene, partial cds"
        },
        "mibig_accession": "",
        "minimal": "true",
        "ncbi_tax_id": 523843,
        "organism_name": "Methanohalophilus portucalensis FDF-1",
        "publications": [
            "PMC6048472"
        ]
    }
}