{
    "changelog": [
        {
            "comments": [
                "Submitted"
            ],
            "contributors": [
                "EMERALD"
            ],
            "version": "3.0"
        }
    ],
    "cluster": {
        "biosyn_class": {
            "Polyketide": 2
        },
        "compounds": [
            {
                "compound": "Azalomycin F-induced",
                "chem_acts": [
                    "antibacterial",
                    "antifungal",
                    "bacterial toxin",
                    "chemotactic",
                    "chemotactically",
                    "protection",
                    "protective",
                    "resistant",
                    "self-resistance",
                    "toxins"
                ],
                "chem_acts_mibig": [
                    "Antibacterial"
                ]
            },
            {
                "compound": "Azalomycin F-treated",
                "chem_acts": [
                    "antibacterial",
                    "antifungal",
                    "bacterial toxin",
                    "chemotactic",
                    "chemotactically",
                    "protection",
                    "protective",
                    "resistant",
                    "self-resistance",
                    "toxins"
                ],
                "chem_acts_mibig": [
                    "Antibacterial"
                ]
            },
            {
                "compound": "SYTOX Blue",
                "chem_acts": [
                    "antibacterial",
                    "antifungal",
                    "bacterial toxin",
                    "chemotactic",
                    "chemotactically",
                    "protection",
                    "protective",
                    "resistant",
                    "self-resistance",
                    "toxins"
                ],
                "chem_acts_mibig": [
                    "Antibacterial"
                ]
            },
            {
                "compound": "azalomycin F-deficient",
                "chem_acts": [
                    "antibacterial",
                    "antifungal",
                    "bacterial toxin",
                    "chemotactic",
                    "chemotactically",
                    "protection",
                    "protective",
                    "resistant",
                    "self-resistance",
                    "toxins"
                ],
                "chem_acts_mibig": [
                    "Antibacterial"
                ]
            },
            {
                "compound": "azalomycin F. Association",
                "chem_acts": [
                    "antibacterial",
                    "antifungal",
                    "bacterial toxin",
                    "chemotactic",
                    "chemotactically",
                    "protection",
                    "protective",
                    "resistant",
                    "self-resistance",
                    "toxins"
                ],
                "chem_acts_mibig": [
                    "Antibacterial"
                ]
            },
            {
                "compound": "azalomycin F. Recently",
                "chem_acts": [
                    "antibacterial",
                    "antifungal",
                    "bacterial toxin",
                    "chemotactic",
                    "chemotactically",
                    "protection",
                    "protective",
                    "resistant",
                    "self-resistance",
                    "toxins"
                ],
                "chem_acts_mibig": [
                    "Antibacterial"
                ]
            },
            {
                "compound": "azalomycin F. Size",
                "chem_acts": [
                    "antibacterial",
                    "antifungal",
                    "bacterial toxin",
                    "chemotactic",
                    "chemotactically",
                    "protection",
                    "protective",
                    "resistant",
                    "self-resistance",
                    "toxins"
                ],
                "chem_acts_mibig": [
                    "Antibacterial"
                ]
            },
            {
                "compound": "azalomycin F3a and F4a",
                "chem_acts": [
                    "antibacterial",
                    "antifungal",
                    "bacterial toxin",
                    "chemotactic",
                    "chemotactically",
                    "protection",
                    "protective",
                    "resistant",
                    "self-resistance",
                    "toxins"
                ],
                "chem_acts_mibig": [
                    "Antibacterial"
                ]
            },
            {
                "compound": "azalomycin F4a",
                "chem_acts": [
                    "antibacterial",
                    "antifungal",
                    "bacterial toxin",
                    "chemotactic",
                    "chemotactically",
                    "protection",
                    "protective",
                    "resistant",
                    "self-resistance",
                    "toxins"
                ],
                "chem_acts_mibig": [
                    "Antibacterial"
                ],
                "chem_struct": "C[C@H]1CC[C@H]([C@@H]([C@H](C[C@@H]([C@H](/C=C/C=C(/C(=O)O[C@H]([C@@H](/C=C/C=C(/[C@H](C[C@@H](C[C@H](C[C@@H](C[C@H]2C[C@H]([C@@H]([C@](O2)(C[C@@H]1O)O)O)O)OC(=O)CC(=O)O)O)O)O)\\C)C)[C@@H](C)CCC/C=C/CCCNC(=NC)N)\\C)C)O)O)C)O",
                "database_id": {
                    "pubchem": "76963406"
                },
                "mol_mass": "1082.400",
                "molecular_formula": "C56H95N3O17",
                "synonym": "azalomycin F4a"
            },
            {
                "compound": "azalomycin F5a",
                "chem_acts": [
                    "antibacterial",
                    "antifungal",
                    "bacterial toxin",
                    "chemotactic",
                    "chemotactically",
                    "protection",
                    "protective",
                    "resistant",
                    "self-resistance",
                    "toxins"
                ],
                "chem_acts_mibig": [
                    "Antibacterial"
                ],
                "chem_struct": "C[C@H]1CC[C@H]([C@@H]([C@H](C[C@@H]([C@H](/C=C/C=C(/C(=O)O[C@H]([C@@H](/C=C/C=C(/[C@H](C[C@@H](C[C@H](C[C@@H](C[C@H]2C[C@H]([C@@H]([C@](O2)(C[C@@H]1O)O)O)O)OC(=O)CC(=O)O)O)O)O)\\C)C)[C@@H](C)CCC/C=C/CCCNC(=NC)NC)\\C)C)O)O)C)O",
                "database_id": {
                    "pubchem": "73425500"
                },
                "mol_mass": "1096.400",
                "molecular_formula": "C57H97N3O17",
                "synonym": "azalomycin F5a"
            },
            {
                "compound": "azalomycin Fure",
                "chem_acts": [
                    "antibacterial",
                    "antifungal",
                    "bacterial toxin",
                    "chemotactic",
                    "chemotactically",
                    "protection",
                    "protective",
                    "resistant",
                    "self-resistance",
                    "toxins"
                ],
                "chem_acts_mibig": [
                    "Antibacterial"
                ],
                "chem_struct": "CC[C@@]1(C[C@H]([C@@]2(CC[C@H]([C@]3([C@H]2C(=O)CC3)[C@H]([C@@H]1O)C)C)C)OC(=O)CSC4=NNC(=N4)N)C",
                "database_id": {
                    "pubchem": "56843156"
                },
                "mol_mass": "478.600",
                "molecular_formula": "C24H38N4O4S",
                "synonym": "Azalomycin"
            },
            {
                "compound": "azalomycins F3a and F4a",
                "chem_acts": [
                    "antibacterial",
                    "antifungal",
                    "bacterial toxin",
                    "chemotactic",
                    "chemotactically",
                    "protection",
                    "protective",
                    "resistant",
                    "self-resistance",
                    "toxins"
                ],
                "chem_acts_mibig": [
                    "Antibacterial"
                ]
            },
            {
                "compound": "cardiolipin",
                "chem_acts": [
                    "antibacterial",
                    "antifungal",
                    "bacterial toxin",
                    "chemotactic",
                    "chemotactically",
                    "protection",
                    "protective",
                    "resistant",
                    "self-resistance",
                    "toxins"
                ],
                "chem_acts_mibig": [
                    "Antibacterial"
                ],
                "chem_struct": "CCCCCCCCCCCCCCCC(=O)O[C@H](COC(=O)CCCCCCC/C=C\\C/C=C\\CCCCC)COP(=O)(O)OCC(COP(=O)(O)OC[C@@H](COC(=O)CCC/C=C\\C/C=C\\C/C=C\\C/C=C\\CCCCC)OC(=O)CCC/C=C\\C/C=C\\C/C=C\\C/C=C\\CCCCC)O",
                "database_id": {
                    "pubchem": "53480410"
                },
                "mol_mass": "1473.900",
                "molecular_formula": "C83H142O17P2",
                "synonym": "Cardiolipin(20:4n6/20:4n6/18:2n6/18:2n6)"
            }
        ],
        "loci": {
            "accession": "D11467.1",
            "completeness": "Unknown",
            "title": "Pinus thunbergii chloroplast genes for tRNA-Gln, tRNA-Lys, tRNA-Ile, tRNA-His and photosystem II D1 protein, complete cds"
        },
        "mibig_accession": "",
        "minimal": "true",
        "ncbi_tax_id": 3350,
        "organism_name": "Japanese black pine",
        "publications": [
            "PMC7784976"
        ]
    }
}