{
    "changelog": [
        {
            "comments": [
                "Submitted"
            ],
            "contributors": [
                "EMERALD"
            ],
            "version": "3.0"
        }
    ],
    "cluster": {
        "biosyn_class": {},
        "compounds": [
            {
                "compound": "Arsenic",
                "chem_acts": [
                    "anthropogenic",
                    "antimonite",
                    "antimony",
                    "antimony resistance",
                    "resistance",
                    "toxicity"
                ],
                "chem_acts_mibig": [],
                "chem_struct": "C[As](C)CCO",
                "database_id": {
                    "pubchem": "12956697"
                },
                "mol_mass": "150.050",
                "molecular_formula": "C4H11AsO",
                "synonym": "Dimethyl(2-hydroxyethyl) arsenic"
            },
            {
                "compound": "As",
                "chem_acts": [
                    "anthropogenic",
                    "antimonite",
                    "antimony",
                    "antimony resistance",
                    "resistance",
                    "toxicity"
                ],
                "chem_acts_mibig": []
            }
        ],
        "loci": {
            "accession": "DQ490089.1",
            "completeness": "Unknown",
            "title": "Ochrobactrum tritici strain SCII24 ArsR1 (arsR1), ArsD (arsD), ArsA (arsA), CBS domain protein, and ArsB (arsB) genes, complete cds"
        },
        "mibig_accession": "",
        "minimal": "true",
        "ncbi_tax_id": 94626,
        "organism_name": "Brucella tritici",
        "publications": [
            "PMC2440759"
        ]
    }
}