{
    "changelog": [
        {
            "comments": [
                "Submitted"
            ],
            "contributors": [
                "EMERALD"
            ],
            "version": "3.0"
        }
    ],
    "cluster": {
        "biosyn_class": {},
        "compounds": [
            {
                "compound": "DBT",
                "chem_acts": [
                    "Defense",
                    "toxic"
                ],
                "chem_acts_mibig": [],
                "chem_struct": "CCCC[Sn+2]CCCC",
                "database_id": {
                    "pubchem": "9543249"
                },
                "mol_mass": "232.940",
                "molecular_formula": "C8H18Sn+2",
                "synonym": "Dibutyltin (DBT)"
            },
            {
                "compound": "Sulfur",
                "chem_acts": [
                    "Defense",
                    "toxic"
                ],
                "chem_acts_mibig": [],
                "chem_struct": "CCOC(=O)[C@H]([C@@H]\\1CCCCC/C1=C/S(=NC)(=O)C2=CC=CC=C2)NS(=O)(=O)C(C)(C)C",
                "database_id": {
                    "pubchem": "101263027"
                },
                "mol_mass": "484.700",
                "molecular_formula": "C23H36N2O5S2",
                "synonym": "Phenyl(methylimino)[[(Z,2R)-2alpha-[(S)-1-(tert-butylsulfonylamino)-2-oxo-2-ethoxyethyl]cycloheptylidene]methyl] sulfur(VI) oxide"
            }
        ],
        "loci": {
            "accession": "EF026089.1",
            "completeness": "Unknown",
            "title": "Gordonia amicalis dibenzothiophene-5-5'-dioxide monooxygenase (dszA) and 2-hydroxybiphenyl-2-sulfinate sulfinolyase (dszB) genes, complete cds; and dibenzothiophene monooxygenase (dszC) gene, partial cds"
        },
        "mibig_accession": "",
        "minimal": "true",
        "ncbi_tax_id": 89053,
        "organism_name": "Gordonia amicalis",
        "publications": [
            "PMC7823215"
        ]
    }
}