{
    "changelog": [
        {
            "comments": [
                "Submitted"
            ],
            "contributors": [
                "EMERALD"
            ],
            "version": "3.0"
        }
    ],
    "cluster": {
        "biosyn_class": {},
        "compounds": [
            {
                "compound": "Glycine betaine",
                "chem_acts": [
                    "cytotoxic",
                    "inhibits",
                    "resistance"
                ],
                "chem_acts_mibig": [
                    "Cytotoxic",
                    "Inhibitor"
                ],
                "chem_struct": "C[N+](C)(C)CC(=O)[O-]",
                "database_id": {
                    "pubchem": "247"
                },
                "mol_mass": "117.150",
                "molecular_formula": "C5H11NO2",
                "synonym": "Glycine betaine"
            }
        ],
        "loci": {
            "accession": "FJ238510.1",
            "completeness": "Unknown",
            "title": "Halobacillus dabanensis strain D-8 ABC-type transport system substrate-binding subunit (gbsT), putative transcriptional regulator (gbsI), glycine betaine aldehyde dehydrogenase (gbsA), and choline dehydrogenase (gbsB) genes, complete cds"
        },
        "mibig_accession": "",
        "minimal": "true",
        "ncbi_tax_id": 240302,
        "organism_name": "Halobacillus dabanensis",
        "publications": [
            "PMC6207618"
        ]
    }
}