{
    "changelog": [
        {
            "comments": [
                "Submitted"
            ],
            "contributors": [
                "EMERALD"
            ],
            "version": "3.0"
        }
    ],
    "cluster": {
        "biosyn_class": {},
        "compounds": [
            {
                "compound": "Lujo",
                "chem_acts": [
                    "hemorrhagic",
                    "pathogenic"
                ],
                "chem_acts_mibig": []
            }
        ],
        "loci": {
            "accession": "FJ952384.1",
            "completeness": "Unknown",
            "title": "Lujo virus segment S glycoprotein precursor and nucleocapsid protein genes, complete cds"
        },
        "mibig_accession": "",
        "minimal": "true",
        "ncbi_tax_id": 649188,
        "organism_name": "Lujo mammarenavirus",
        "publications": [
            "PMC2680969"
        ]
    }
}