{
    "changelog": [
        {
            "comments": [
                "Submitted"
            ],
            "contributors": [
                "EMERALD"
            ],
            "version": "3.0"
        }
    ],
    "cluster": {
        "biosyn_class": {},
        "compounds": [
            {
                "compound": "myo-inositol",
                "chem_acts": [
                    "defense"
                ],
                "chem_acts_mibig": [],
                "chem_struct": "C1(C(C(C(C(C1O)O)O)O)O)O",
                "database_id": {
                    "pubchem": "892"
                },
                "mol_mass": "180.160",
                "molecular_formula": "C6H12O6",
                "synonym": "myo-inositol"
            }
        ],
        "loci": {
            "accession": "FJ967836.1",
            "completeness": "Unknown",
            "title": "Lactobacillus casei strain XM7-1 aldo/keto reductase (yvgN) gene, partial cds; transposase and transcriptional repressor (iolR) genes, complete cds; myo-inositol catabolism operon, complete sequence; and transcriptional regulator gene, partial cds"
        },
        "mibig_accession": "",
        "minimal": "true",
        "ncbi_tax_id": 1582,
        "organism_name": "Lacticaseibacillus casei",
        "publications": [
            "PMC6218691"
        ]
    }
}