{
    "changelog": [
        {
            "comments": [
                "Submitted"
            ],
            "contributors": [
                "EMERALD"
            ],
            "version": "3.0"
        }
    ],
    "cluster": {
        "biosyn_class": {
            "Saccharide": 8
        },
        "compounds": [
            {
                "compound": "O-antigen-related",
                "chem_acts": [
                    "antigen",
                    "antigen-related",
                    "antigens",
                    "antimicrobial resistance",
                    "defense"
                ],
                "chem_acts_mibig": []
            },
            {
                "compound": "O-antigens",
                "chem_acts": [
                    "antigen",
                    "antigen-related",
                    "antigens",
                    "antimicrobial resistance",
                    "defense"
                ],
                "chem_acts_mibig": []
            },
            {
                "compound": "O-antiserum OMF",
                "chem_acts": [
                    "antigen",
                    "antigen-related",
                    "antigens",
                    "antimicrobial resistance",
                    "defense"
                ],
                "chem_acts_mibig": []
            },
            {
                "compound": "O-glycan",
                "chem_acts": [
                    "antigen",
                    "antigen-related",
                    "antigens",
                    "antimicrobial resistance",
                    "defense"
                ],
                "chem_acts_mibig": []
            },
            {
                "compound": "O:48 antigen",
                "chem_acts": [
                    "antigen",
                    "antigen-related",
                    "antigens",
                    "antimicrobial resistance",
                    "defense"
                ],
                "chem_acts_mibig": []
            },
            {
                "compound": "Oag.v1",
                "chem_acts": [
                    "antigen",
                    "antigen-related",
                    "antigens",
                    "antimicrobial resistance",
                    "defense"
                ],
                "chem_acts_mibig": []
            }
        ],
        "loci": {
            "accession": "GU299793.1",
            "completeness": "Unknown",
            "title": "Escherichia coli strain G1630 O antigen gene cluster, complete sequence"
        },
        "mibig_accession": "",
        "minimal": "true",
        "ncbi_tax_id": 562,
        "organism_name": "Escherichia coli",
        "publications": [
            "PMC6712391"
        ]
    }
}