{
    "changelog": [
        {
            "comments": [
                "Submitted"
            ],
            "contributors": [
                "EMERALD"
            ],
            "version": "3.0"
        }
    ],
    "cluster": {
        "biosyn_class": {
            "NRP": 1,
            "Polyketide": 1,
            "Terpene": 1,
            "RiPP": 2
        },
        "compounds": [
            {
                "compound": "Aerucyclamides/Cyanobactins",
                "chem_acts": [
                    "cyanotoxin",
                    "cyanotoxins",
                    "toxic",
                    "toxicity"
                ],
                "chem_acts_mibig": []
            },
            {
                "compound": "Aeruginosins Aeruginosins",
                "chem_acts": [
                    "cyanotoxin",
                    "cyanotoxins",
                    "toxic",
                    "toxicity"
                ],
                "chem_acts_mibig": []
            },
            {
                "compound": "Anabaenopeptins Anabaenopeptins",
                "chem_acts": [
                    "cyanotoxin",
                    "cyanotoxins",
                    "toxic",
                    "toxicity"
                ],
                "chem_acts_mibig": []
            },
            {
                "compound": "Cyanopeptolins Cyanopeptolins",
                "chem_acts": [
                    "cyanotoxin",
                    "cyanotoxins",
                    "toxic",
                    "toxicity"
                ],
                "chem_acts_mibig": []
            },
            {
                "compound": "Dmet(Asp3)-MC-LR",
                "chem_acts": [
                    "cyanotoxin",
                    "cyanotoxins",
                    "toxic",
                    "toxicity"
                ],
                "chem_acts_mibig": []
            },
            {
                "compound": "FR1",
                "chem_acts": [
                    "cyanotoxin",
                    "cyanotoxins",
                    "toxic",
                    "toxicity"
                ],
                "chem_acts_mibig": [],
                "chem_struct": "CCCCCCCC(C(C(=O)NC(C)C(=O)N(C)C(CC(C)C)C(=O)NC(CC1=CC=C(C=C1)O)C(=O)NC(CC2=CC=C(C=C2)O)C(=O)O)O)N",
                "database_id": {
                    "pubchem": "73005967"
                },
                "mol_mass": "727.900",
                "molecular_formula": "C38H57N5O9",
                "synonym": "Microginin FR1"
            },
            {
                "compound": "MC-HtyR",
                "chem_acts": [
                    "cyanotoxin",
                    "cyanotoxins",
                    "toxic",
                    "toxicity"
                ],
                "chem_acts_mibig": [],
                "chem_struct": "C[C@H]1[C@@H](NC(=O)[C@@H](NC(=O)[C@H]([C@@H](NC(=O)[C@@H](NC(=O)[C@H](NC(=O)C(=C)N(C(=O)CC[C@@H](NC1=O)C(=O)O)C)C)CCC2=CC=C(C=C2)O)C(=O)O)C)CCCN=C(N)N)/C=C/C(=C/[C@H](C)[C@H](CC3=CC=CC=C3)OC)/C",
                "database_id": {
                    "pubchem": "15160480"
                },
                "mol_mass": "1059.200",
                "molecular_formula": "C53H74N10O13",
                "synonym": "MC-HtyR"
            },
            {
                "compound": "MC-LA",
                "chem_acts": [
                    "cyanotoxin",
                    "cyanotoxins",
                    "toxic",
                    "toxicity"
                ],
                "chem_acts_mibig": [],
                "chem_struct": "C[C@H]1[C@@H](NC(=O)[C@@H](NC(=O)[C@H]([C@@H](NC(=O)[C@@H](NC(=O)[C@H](NC(=O)C(=C)N(C(=O)CC[C@@H](NC1=O)C(=O)O)C)C)CC(C)C)C(=O)O)C)C)/C=C/C(=C/[C@H](C)[C@H](CC2=CC=CC=C2)OC)/C",
                "database_id": {
                    "pubchem": "6437382"
                },
                "mol_mass": "910.100",
                "molecular_formula": "C46H67N7O12",
                "synonym": "MC-LA"
            },
            {
                "compound": "MC-LF",
                "chem_acts": [
                    "cyanotoxin",
                    "cyanotoxins",
                    "toxic",
                    "toxicity"
                ],
                "chem_acts_mibig": [],
                "chem_struct": "C[C@H]1[C@@H](NC(=O)[C@@H](NC(=O)[C@H]([C@@H](NC(=O)[C@@H](NC(=O)[C@H](NC(=O)C(=C)N(C(=O)CC[C@@H](NC1=O)C(=O)O)C)C)CC(C)C)C(=O)O)C)CC2=CC=CC=C2)/C=C/C(=C/[C@H](C)[C@H](CC3=CC=CC=C3)OC)/C",
                "database_id": {
                    "pubchem": "16760563"
                },
                "mol_mass": "986.200",
                "molecular_formula": "C52H71N7O12",
                "synonym": "MC-LF"
            },
            {
                "compound": "MC-YR",
                "chem_acts": [
                    "cyanotoxin",
                    "cyanotoxins",
                    "toxic",
                    "toxicity"
                ],
                "chem_acts_mibig": []
            },
            {
                "compound": "MCs",
                "chem_acts": [
                    "cyanotoxin",
                    "cyanotoxins",
                    "toxic",
                    "toxicity"
                ],
                "chem_acts_mibig": [],
                "chem_struct": "CCCNCCCC[C@@H](C(=O)NCC1=CC=CC=C1)NC(=O)C",
                "database_id": {
                    "pubchem": "460421"
                },
                "mol_mass": "319.400",
                "molecular_formula": "C18H29N3O2",
                "synonym": "MCS-658"
            },
            {
                "compound": "Microcystins Microcystins",
                "chem_acts": [
                    "cyanotoxin",
                    "cyanotoxins",
                    "toxic",
                    "toxicity"
                ],
                "chem_acts_mibig": []
            },
            {
                "compound": "Microginins Microginins",
                "chem_acts": [
                    "cyanotoxin",
                    "cyanotoxins",
                    "toxic",
                    "toxicity"
                ],
                "chem_acts_mibig": []
            },
            {
                "compound": "Oscillamide Y",
                "chem_acts": [
                    "cyanotoxin",
                    "cyanotoxins",
                    "toxic",
                    "toxicity"
                ],
                "chem_acts_mibig": [],
                "chem_struct": "CC[C@@H](C)[C@H]1C(=O)N[C@H](C(=O)N([C@H](C(=O)N[C@H](C(=O)NCCCC[C@H](C(=O)N1)NC(=O)N[C@@H](CC2=CC=C(C=C2)O)C(=O)O)CC3=CC=CC=C3)C)C)CCC4=CC=C(C=C4)O",
                "database_id": {
                    "pubchem": "15342746"
                },
                "mol_mass": "858.000",
                "molecular_formula": "C45H59N7O10",
                "synonym": "Oscillamide Y"
            },
            {
                "compound": "PMC",
                "chem_acts": [
                    "cyanotoxin",
                    "cyanotoxins",
                    "toxic",
                    "toxicity"
                ],
                "chem_acts_mibig": [],
                "chem_struct": "CCCCOC1=CC=C(C=C1)C[C@H]2C(=O)N[C@H](C(=O)N[C@@H](CSSC3(CCCCC3)[C@H](C(=O)NC(=NCCC[C@@H](C(=O)NCC(=O)N[C@@H](C(=O)N[C@H](C(=O)NCC(=O)N[C@H](C(=O)N2)CC(=O)O)CCCN=C(N)N)CC4=CN=CN4)N)N)N)C(=O)N[C@@H](CCCN=C(N)N)C(=O)O)CCCN=C(N)N",
                "database_id": {
                    "pubchem": "73345565"
                },
                "mol_mass": "1500.800",
                "molecular_formula": "C62H101N25O15S2",
                "synonym": "R(Pmc)-G-H-R-G-D-(Y-O-n-butyl)-R-C-R"
            },
            {
                "compound": "aerucyclamide A, B, and D",
                "chem_acts": [
                    "cyanotoxin",
                    "cyanotoxins",
                    "toxic",
                    "toxicity"
                ],
                "chem_acts_mibig": []
            },
            {
                "compound": "aerucyclamide standard",
                "chem_acts": [
                    "cyanotoxin",
                    "cyanotoxins",
                    "toxic",
                    "toxicity"
                ],
                "chem_acts_mibig": []
            },
            {
                "compound": "aerucyclamides",
                "chem_acts": [
                    "cyanotoxin",
                    "cyanotoxins",
                    "toxic",
                    "toxicity"
                ],
                "chem_acts_mibig": []
            },
            {
                "compound": "aeruginoguanidins",
                "chem_acts": [
                    "cyanotoxin",
                    "cyanotoxins",
                    "toxic",
                    "toxicity"
                ],
                "chem_acts_mibig": []
            },
            {
                "compound": "aeruginopeptins",
                "chem_acts": [
                    "cyanotoxin",
                    "cyanotoxins",
                    "toxic",
                    "toxicity"
                ],
                "chem_acts_mibig": []
            },
            {
                "compound": "aeruginosin 98A and 98B",
                "chem_acts": [
                    "cyanotoxin",
                    "cyanotoxins",
                    "toxic",
                    "toxicity"
                ],
                "chem_acts_mibig": []
            },
            {
                "compound": "aeruginosins",
                "chem_acts": [
                    "cyanotoxin",
                    "cyanotoxins",
                    "toxic",
                    "toxicity"
                ],
                "chem_acts_mibig": []
            },
            {
                "compound": "anabaenopeptin F",
                "chem_acts": [
                    "cyanotoxin",
                    "cyanotoxins",
                    "toxic",
                    "toxicity"
                ],
                "chem_acts_mibig": [],
                "chem_struct": "CCC(C)C1C(=O)NC(C(=O)N([C@H](C(=O)N[C@H](C(=O)NCCCCC(C(=O)N1)NC(=O)N[C@@H](CCCN=C(N)N)C(=O)O)CC2=CC=CC=C2)C)C)CCC3=CC=C(C=C3)O",
                "database_id": {
                    "pubchem": "133562454"
                },
                "mol_mass": "851.000",
                "molecular_formula": "C42H62N10O9",
                "synonym": "anabaenopeptin F"
            },
            {
                "compound": "anabaenopeptins A, B, and F",
                "chem_acts": [
                    "cyanotoxin",
                    "cyanotoxins",
                    "toxic",
                    "toxicity"
                ],
                "chem_acts_mibig": []
            },
            {
                "compound": "cyanobactin",
                "chem_acts": [
                    "cyanotoxin",
                    "cyanotoxins",
                    "toxic",
                    "toxicity"
                ],
                "chem_acts_mibig": []
            },
            {
                "compound": "cyanopeptolin A and B",
                "chem_acts": [
                    "cyanotoxin",
                    "cyanotoxins",
                    "toxic",
                    "toxicity"
                ],
                "chem_acts_mibig": []
            },
            {
                "compound": "cyanopeptolin B",
                "chem_acts": [
                    "cyanotoxin",
                    "cyanotoxins",
                    "toxic",
                    "toxicity"
                ],
                "chem_acts_mibig": [],
                "chem_struct": "CCCCCC(=O)N[C@@H](CC(=O)O)C(=O)N[C@H]1[C@H](OC(=O)[C@@H](NC(=O)[C@@H](N(C(=O)[C@@H](N2[C@@H](CC[C@@H](C2=O)NC(=O)[C@@H](NC1=O)CCCCN)O)CC(C)C)C)CC3=CC=CC=C3)C(C)C)C",
                "database_id": {
                    "pubchem": "139291933"
                },
                "mol_mass": "929.100",
                "molecular_formula": "C46H72N8O12",
                "synonym": "cyanopeptolin B"
            },
            {
                "compound": "cyanopeptolin-specific",
                "chem_acts": [
                    "cyanotoxin",
                    "cyanotoxins",
                    "toxic",
                    "toxicity"
                ],
                "chem_acts_mibig": []
            },
            {
                "compound": "cyanopeptolins",
                "chem_acts": [
                    "cyanotoxin",
                    "cyanotoxins",
                    "toxic",
                    "toxicity"
                ],
                "chem_acts_mibig": []
            },
            {
                "compound": "microcystin-YR (E), -LR (F), -LF (G), -LA (H) and -HtyR",
                "chem_acts": [
                    "cyanotoxin",
                    "cyanotoxins",
                    "toxic",
                    "toxicity"
                ],
                "chem_acts_mibig": []
            },
            {
                "compound": "microcystins",
                "chem_acts": [
                    "cyanotoxin",
                    "cyanotoxins",
                    "toxic",
                    "toxicity"
                ],
                "chem_acts_mibig": []
            },
            {
                "compound": "microginin 757",
                "chem_acts": [
                    "cyanotoxin",
                    "cyanotoxins",
                    "toxic",
                    "toxicity"
                ],
                "chem_acts_mibig": []
            },
            {
                "compound": "microginin BN578",
                "chem_acts": [
                    "cyanotoxin",
                    "cyanotoxins",
                    "toxic",
                    "toxicity"
                ],
                "chem_acts_mibig": []
            },
            {
                "compound": "microginin FR2",
                "chem_acts": [
                    "cyanotoxin",
                    "cyanotoxins",
                    "toxic",
                    "toxicity"
                ],
                "chem_acts_mibig": [],
                "chem_struct": "CCCCCCC[C@H]([C@@H](C(=O)N[C@@H](C)C(=O)N(C)[C@@H](CC(C)C)C(=O)N[C@@H](CC1=CC=C(C=C1)O)C(=O)N[C@@H](CC2=CC=C(C=C2)O)C(=O)O)O)NC",
                "database_id": {
                    "pubchem": "133613149"
                },
                "mol_mass": "741.900",
                "molecular_formula": "C39H59N5O9",
                "synonym": "microginin FR2"
            },
            {
                "compound": "microginins",
                "chem_acts": [
                    "cyanotoxin",
                    "cyanotoxins",
                    "toxic",
                    "toxicity"
                ],
                "chem_acts_mibig": []
            },
            {
                "compound": "micropeptins",
                "chem_acts": [
                    "cyanotoxin",
                    "cyanotoxins",
                    "toxic",
                    "toxicity"
                ],
                "chem_acts_mibig": []
            },
            {
                "compound": "microviridins",
                "chem_acts": [
                    "cyanotoxin",
                    "cyanotoxins",
                    "toxic",
                    "toxicity"
                ],
                "chem_acts_mibig": []
            },
            {
                "compound": "oscyllamide Y",
                "chem_acts": [
                    "cyanotoxin",
                    "cyanotoxins",
                    "toxic",
                    "toxicity"
                ],
                "chem_acts_mibig": []
            },
            {
                "compound": "shown for (Asp3)-microcystin-LR",
                "chem_acts": [
                    "cyanotoxin",
                    "cyanotoxins",
                    "toxic",
                    "toxicity"
                ],
                "chem_acts_mibig": []
            }
        ],
        "loci": {
            "accession": "HM104631.1",
            "completeness": "Unknown",
            "title": "Anabaena sp. BIR257 microcystin biosynthesis gene cluster, partial sequence"
        },
        "mibig_accession": "",
        "minimal": "true",
        "ncbi_tax_id": 460381,
        "organism_name": "Anabaena sp. BIR257",
        "publications": [
            "PMC6477967"
        ]
    }
}