{
    "changelog": [
        {
            "comments": [
                "Submitted"
            ],
            "contributors": [
                "EMERALD"
            ],
            "version": "3.0"
        }
    ],
    "cluster": {
        "biosyn_class": {
            "Saccharide": 1
        },
        "compounds": [
            {
                "compound": "Capsule",
                "chem_acts": [
                    "host-adaptation",
                    "lymphadenopathy",
                    "virulence"
                ],
                "chem_acts_mibig": [],
                "chem_struct": "CC(C)OC1=C(C(=CC=C1)OC(C)C)C2=CC=CC=C2[PH+](C3CCCCC3)C4CCCCC4.CS(=O)(=O)O.C1=CC=C([C-]=C1)C2=CC=CC=C2N.[Pd]",
                "database_id": {
                    "pubchem": "92131450"
                },
                "mol_mass": "838.400",
                "molecular_formula": "C43H58NO5PPdS",
                "synonym": "RuPhos-Pd-G3 GT capsule"
            }
        ],
        "loci": {
            "accession": "HM171375.1",
            "completeness": "Unknown",
            "title": "Francisella noatunensis strain 3 16S ribosomal RNA gene, partial sequence; pathogenicity island, complete sequence; AnmK (anmK) gene, complete cds; TreA (treA) pseudogene, complete sequence; FbaA (fbaA) gene, complete cds; and Pyk (pyk) gene, partial cds"
        },
        "mibig_accession": "",
        "minimal": "true",
        "ncbi_tax_id": 657445,
        "organism_name": "Francisella noatunensis",
        "publications": [
            "PMC5857240"
        ]
    }
}