{
    "changelog": [
        {
            "comments": [
                "Submitted"
            ],
            "contributors": [
                "EMERALD"
            ],
            "version": "3.0"
        }
    ],
    "cluster": {
        "biosyn_class": {
            "NRP": 2
        },
        "compounds": [
            {
                "compound": "rhizoxin",
                "chem_acts": [
                    "antimitotic",
                    "virulence-related"
                ],
                "chem_acts_mibig": [],
                "chem_struct": "C[C@@H]1/C=C/[C@@H]2[C@](O2)([C@H](C[C@H](OC(=O)[C@H]3[C@@H](O3)C[C@@H]4C[C@H]1OC(=O)C4)[C@H](C)[C@H](/C(=C/C=C/C(=C/C5=COC(=N5)C)/C)/C)OC)O)C",
                "database_id": {
                    "pubchem": "6437358"
                },
                "mol_mass": "625.700",
                "molecular_formula": "C35H47NO9",
                "synonym": "rhizoxin"
            }
        ],
        "loci": {
            "accession": "HQ130394.1",
            "completeness": "Unknown",
            "title": "Burkholderia rhizoxinica strain H3620 NADH-ubiquinone oxidoreductase chain E (ndhE) gene, complete cds; and NADH-ubiquinone oxidoreductase chain F (ndhF) gene, partial cds"
        },
        "mibig_accession": "",
        "minimal": "true",
        "ncbi_tax_id": 412963,
        "organism_name": "Mycetohabitans rhizoxinica",
        "publications": [
            "PMC3102044"
        ]
    }
}