{
    "changelog": [
        {
            "comments": [
                "Submitted"
            ],
            "contributors": [
                "EMERALD"
            ],
            "version": "3.0"
        }
    ],
    "cluster": {
        "biosyn_class": {},
        "compounds": [
            {
                "compound": "ferritin",
                "chem_acts": [],
                "chem_acts_mibig": [],
                "chem_struct": "CCC(C)C(C(=O)O)NC(=O)C(C)NC(=O)C(CCCCN)NC(=O)C(C(C)C)NC(=O)C(CCC(=O)N)NC(=O)C(CCC(=O)O)NC(=O)C(CC(=O)N)NC(=O)C(CC(C)C)NC(=O)C(CC1=CC=C(C=C1)O)N",
                "database_id": {
                    "pubchem": "71464425"
                },
                "mol_mass": "1077.200",
                "molecular_formula": "C49H80N12O15",
                "synonym": "ferritin heavy chain fragment [Multiple species]"
            }
        ],
        "loci": {
            "accession": "HQ291134.1",
            "completeness": "Unknown",
            "title": "Nostoc flagelliforme str. Sunitezuoqi clone 62 ferritin Dps family protein (Nfla_6201), pirin domain protein (Nfla_6202), transposase (Nfla_6203), transposase (Nfla_6204), and methyltransferase (Nfla_6205) genes, complete cds"
        },
        "mibig_accession": "",
        "minimal": "true",
        "ncbi_tax_id": 676037,
        "organism_name": "Nostoc flagelliforme str. Sunitezuoqi",
        "publications": [
            "PMC3289904"
        ]
    }
}