{
    "changelog": [
        {
            "comments": [
                "Submitted"
            ],
            "contributors": [
                "EMERALD"
            ],
            "version": "3.0"
        }
    ],
    "cluster": {
        "biosyn_class": {
            "Alkaloid": 2
        },
        "compounds": [
            {
                "compound": "1-aminopyrrolizidine",
                "chem_acts": [
                    "insecticidal"
                ],
                "chem_acts_mibig": [],
                "chem_struct": "C1CC2C(CCN2C1)N",
                "database_id": {
                    "pubchem": "21088081"
                },
                "mol_mass": "126.200",
                "molecular_formula": "C7H14N2",
                "synonym": "aminopyrrolizidine"
            },
            {
                "compound": "5, N-acetylloline",
                "chem_acts": [
                    "insecticidal"
                ],
                "chem_acts_mibig": []
            },
            {
                "compound": "Lolines",
                "chem_acts": [
                    "insecticidal"
                ],
                "chem_acts_mibig": []
            },
            {
                "compound": "exo-1-acetamidopyrrolizidine",
                "chem_acts": [
                    "insecticidal"
                ],
                "chem_acts_mibig": []
            },
            {
                "compound": "loline-related",
                "chem_acts": [
                    "insecticidal"
                ],
                "chem_acts_mibig": []
            },
            {
                "compound": "lolines",
                "chem_acts": [
                    "insecticidal"
                ],
                "chem_acts_mibig": []
            }
        ],
        "loci": {
            "accession": "JF830813.1",
            "completeness": "Unknown",
            "title": "Epichloe amarillans LolE (lolE), LolT (lolT), LolU (lolU), LolA (lolA), LolO (lolO), and LolD (lolD) genes, complete cds"
        },
        "mibig_accession": "",
        "minimal": "true",
        "ncbi_tax_id": 42805,
        "organism_name": "Epichloe amarillans",
        "publications": [
            "PMC3929955"
        ]
    }
}