{
    "changelog": [
        {
            "comments": [
                "Submitted"
            ],
            "contributors": [
                "EMERALD"
            ],
            "version": "3.0"
        }
    ],
    "cluster": {
        "biosyn_class": {},
        "compounds": [
            {
                "compound": "secretin",
                "chem_acts": [
                    "antibacterial"
                ],
                "chem_acts_mibig": [
                    "Antibacterial"
                ],
                "chem_struct": "C[C@H]([C@@H](C(=O)N[C@@H](CC1=CC=CC=C1)C(=O)N[C@@H]([C@@H](C)O)C(=O)N[C@@H](CO)C(=O)N[C@@H](CCC(=O)O)C(=O)N[C@@H](CC(C)C)C(=O)N[C@@H](CO)C(=O)N[C@@H](CCCNC(=N)N)C(=O)N[C@@H](CC(C)C)C(=O)N[C@@H](CCCNC(=N)N)C(=O)N[C@@H](CCC(=O)O)C(=O)NCC(=O)N[C@@H](C)C(=O)N[C@@H](CCCNC(=N)N)C(=O)N[C@@H](CC(C)C)C(=O)N[C@@H](CCC(=O)N)C(=O)N[C@@H](CCCNC(=N)N)C(=O)N[C@@H](CC(C)C)C(=O)N[C@@H](CC(C)C)C(=O)N[C@@H](CCC(=O)O)C(=O)NCC(=O)N[C@@H](CC(C)C)C(=O)N[C@@H](C(C)C)C(=O)N)NC(=O)CNC(=O)[C@H](CCC(=O)O)NC(=O)[C@H](CO)NC(=O)[C@H](CC2=CN=CN2)N)O.C(C(=O)O)C(CC(=O)O)(C(=O)O)O",
                "database_id": {
                    "pubchem": "90684483"
                },
                "mol_mass": "3246.500",
                "molecular_formula": "C137H229N43O48",
                "synonym": "Secretin (pig), 2-hydroxy-1,2,3-propanetricarboxylate (salt)"
            }
        ],
        "loci": {
            "accession": "JQ066447.1",
            "completeness": "Unknown",
            "title": "Chlamydia trachomatis strain UW36 S/T protein kinase (pkn5) gene, partial cds; Yop protein translocation protein C (yscC) gene, complete cds; and tRNA-Thr (tRNAThr_3) gene, complete sequence"
        },
        "mibig_accession": "",
        "minimal": "true",
        "ncbi_tax_id": 813,
        "organism_name": "Chlamydia trachomatis",
        "publications": [
            "PMC6069116"
        ]
    }
}