{
    "changelog": [
        {
            "comments": [
                "Submitted"
            ],
            "contributors": [
                "EMERALD"
            ],
            "version": "3.0"
        }
    ],
    "cluster": {
        "biosyn_class": {},
        "compounds": [
            {
                "compound": "CdiA-CTs",
                "chem_acts": [
                    "cell growth",
                    "cytotoxic",
                    "growth inhibition",
                    "growth inhibitory",
                    "immunity",
                    "inhibit cell growth",
                    "inhibit growth",
                    "inhibited",
                    "inhibiting cell growth",
                    "inhibition",
                    "inhibitor",
                    "inhibitory",
                    "toxic",
                    "toxicity",
                    "toxin",
                    "toxin-immunity",
                    "toxin/immunity",
                    "toxins"
                ],
                "chem_acts_mibig": [
                    "Cytotoxic",
                    "Inhibitor"
                ],
                "chem_struct": "C1CN2C[C@@H]([C@H]([C@@H]([C@H]2[C@H]1O)O)O)O",
                "database_id": {
                    "pubchem": "54445"
                },
                "mol_mass": "189.210",
                "molecular_formula": "C8H15NO4",
                "synonym": "CTS"
            },
            {
                "compound": "Colicin E5",
                "chem_acts": [
                    "cell growth",
                    "cytotoxic",
                    "growth inhibition",
                    "growth inhibitory",
                    "immunity",
                    "inhibit cell growth",
                    "inhibit growth",
                    "inhibited",
                    "inhibiting cell growth",
                    "inhibition",
                    "inhibitor",
                    "inhibitory",
                    "toxic",
                    "toxicity",
                    "toxin",
                    "toxin-immunity",
                    "toxin/immunity",
                    "toxins"
                ],
                "chem_acts_mibig": [
                    "Cytotoxic",
                    "Inhibitor"
                ]
            },
            {
                "compound": "colicin E5",
                "chem_acts": [
                    "cell growth",
                    "cytotoxic",
                    "growth inhibition",
                    "growth inhibitory",
                    "immunity",
                    "inhibit cell growth",
                    "inhibit growth",
                    "inhibited",
                    "inhibiting cell growth",
                    "inhibition",
                    "inhibitor",
                    "inhibitory",
                    "toxic",
                    "toxicity",
                    "toxin",
                    "toxin-immunity",
                    "toxin/immunity",
                    "toxins"
                ],
                "chem_acts_mibig": [
                    "Cytotoxic",
                    "Inhibitor"
                ]
            }
        ],
        "loci": {
            "accession": "JQ423919.1",
            "completeness": "Unknown",
            "title": "Burkholderia pseudomallei strain E655 CdiA (cdiA) gene, partial cds; and CdiI (cdiI) gene, complete cds"
        },
        "mibig_accession": "",
        "minimal": "true",
        "ncbi_tax_id": 28450,
        "organism_name": "Burkholderia pseudomallei",
        "publications": [
            "PMC3331888"
        ]
    }
}