{
    "changelog": [
        {
            "comments": [
                "Submitted"
            ],
            "contributors": [
                "EMERALD"
            ],
            "version": "3.0"
        }
    ],
    "cluster": {
        "biosyn_class": {},
        "compounds": [
            {
                "compound": "KCN",
                "chem_acts": [
                    "antimicrobial resistance",
                    "resistance"
                ],
                "chem_acts_mibig": [],
                "chem_struct": "[C-]#N.[K+]",
                "database_id": {
                    "pubchem": "9032"
                },
                "mol_mass": "65.116",
                "molecular_formula": "CKN",
                "synonym": "KCN"
            },
            {
                "compound": "fosfomycin-resistance",
                "chem_acts": [
                    "antimicrobial resistance",
                    "resistance"
                ],
                "chem_acts_mibig": []
            }
        ],
        "loci": {
            "accession": "JX442753.1",
            "completeness": "Unknown",
            "title": "Escherichia coli plasmid pC0121T insertion sequence IS26 transposase (tnpA) gene, partial cds; insertion sequence ISEcp1 truncated transposase (tnpA) gene, complete cds; insertion sequence IS10 transposase (tnpA) gene, complete cds; extended-spectrum beta-lactamase CTX-M-14 (blaCTX-M-14) gene, complete cds; insertion sequence IS903, complete sequence; truncated transposase (tnpA), fosfomycin resistance protein FosA3 (fosA3), hypothetical protein (pC0121T_007), CadC-like protein (pC0121T_008), and putative transcriptional regulator, TetR family (pC0121T_009) genes, complete cds; and insertion sequence IS26 transposase (tnpA) gene, partial cds"
        },
        "mibig_accession": "",
        "minimal": "true",
        "ncbi_tax_id": 562,
        "organism_name": "Escherichia coli",
        "publications": [
            "PMC7524892"
        ]
    }
}