{
    "changelog": [
        {
            "comments": [
                "Submitted"
            ],
            "contributors": [
                "EMERALD"
            ],
            "version": "3.0"
        }
    ],
    "cluster": {
        "biosyn_class": {},
        "compounds": [
            {
                "compound": "Hcp",
                "chem_acts": [
                    "antibiotics",
                    "bacteremia"
                ],
                "chem_acts_mibig": [
                    "Antibacterial"
                ],
                "chem_struct": "C1CCC(C1)CC2=C3N=C(CN3C=C(N2)C4=CC=C(C=C4)O)CC5=CC=CC=C5",
                "database_id": {
                    "pubchem": "3465233"
                },
                "mol_mass": "385.500",
                "molecular_formula": "C25H27N3O",
                "synonym": "coelenterazine-hcp"
            }
        ],
        "loci": {
            "accession": "KC432605.1",
            "completeness": "Unknown",
            "title": "Acinetobacter baumannii strain M2 transcriptional regulator LysR family, hypothetical protein (asaA), hypothetical protein (tssB), hypothetical protein (tssC), hypothetical protein (hcp), hypothetical protein (tssE), ImpG (tssF), hypothetical protein (tssG), hypothetical protein (asaB), hypothetical protein (tssM), hypothetical protein (tagF), outer membrane protein (tagN), hypothetical protein (asaC), ClpB (tssH), hypothetical protein (tssA), hypothetical protein (tssK), putative transmembrane protein (tssL), hypothetical protein (asaD), putative transmembrane protein (asaE), and transcriptional regulator LysR Family genes, complete cds"
        },
        "mibig_accession": "",
        "minimal": "true",
        "ncbi_tax_id": 470,
        "organism_name": "Acinetobacter baumannii",
        "publications": [
            "PMC3602014"
        ]
    }
}