{
    "changelog": [
        {
            "comments": [
                "Submitted"
            ],
            "contributors": [
                "EMERALD"
            ],
            "version": "3.0"
        }
    ],
    "cluster": {
        "biosyn_class": {},
        "compounds": [
            {
                "compound": "OXA-48",
                "chem_acts": [
                    "resistant",
                    "virulence"
                ],
                "chem_acts_mibig": []
            }
        ],
        "loci": {
            "accession": "KC902851.1",
            "completeness": "Unknown",
            "title": "Shewanella xiamenensis strain IR33 peptidase C15 gene, partial cds; beta-lactamase OXA-48b (blaOXA-48b) gene, complete cds; and LysR gene, partial cds"
        },
        "mibig_accession": "",
        "minimal": "true",
        "ncbi_tax_id": 332186,
        "organism_name": "Shewanella xiamenensis",
        "publications": [
            "PMC6801428"
        ]
    }
}