{
    "changelog": [
        {
            "comments": [
                "Submitted"
            ],
            "contributors": [
                "EMERALD"
            ],
            "version": "3.0"
        }
    ],
    "cluster": {
        "biosyn_class": {},
        "compounds": [
            {
                "compound": "PAH-biodegradation",
                "chem_acts": [],
                "chem_acts_mibig": [],
                "chem_struct": "C1=CC(=CC=C1C(=O)NCC(=O)O)N",
                "database_id": {
                    "pubchem": "2148"
                },
                "mol_mass": "194.190",
                "molecular_formula": "C9H10N2O3",
                "synonym": "PAH"
            },
            {
                "compound": "PAHs",
                "chem_acts": [],
                "chem_acts_mibig": []
            },
            {
                "compound": "Phenanthrene",
                "chem_acts": [],
                "chem_acts_mibig": [],
                "chem_struct": "C1CC2=CC(=C(C=C2[C@@H]3[C@@H]1NCC4=C3C=CC=N4)O)O",
                "database_id": {
                    "pubchem": "10015860"
                },
                "mol_mass": "268.310",
                "molecular_formula": "C16H16N2O2",
                "synonym": "(6aR)-5,6,6abeta,7,8,12balpha-Hexahydro-4,6-diazabenzo[c]phenanthrene-10,11-diol"
            },
            {
                "compound": "phenanthrene",
                "chem_acts": [],
                "chem_acts_mibig": [],
                "chem_struct": "C1CC2=CC(=C(C=C2[C@@H]3[C@@H]1NCC4=C3C=CC=N4)O)O",
                "database_id": {
                    "pubchem": "10015860"
                },
                "mol_mass": "268.310",
                "molecular_formula": "C16H16N2O2",
                "synonym": "(6aR)-5,6,6abeta,7,8,12balpha-Hexahydro-4,6-diazabenzo[c]phenanthrene-10,11-diol"
            }
        ],
        "loci": {
            "accession": "KF734001.1",
            "completeness": "Unknown",
            "title": "Sphingomonas sp. VKM B-2434 ring-hydroxylating dioxygenase alpha subunit (phnA1) and ring-hydroxylating dioxygenase beta subunit (phnA2) genes, complete cds"
        },
        "mibig_accession": "",
        "minimal": "true",
        "ncbi_tax_id": 1444772,
        "organism_name": "Sphingomonas sp. VKM B-2434",
        "publications": [
            "PMC2364624"
        ]
    }
}