{
    "changelog": [
        {
            "comments": [
                "Submitted"
            ],
            "contributors": [
                "EMERALD"
            ],
            "version": "3.0"
        }
    ],
    "cluster": {
        "biosyn_class": {},
        "compounds": [
            {
                "compound": "SZ",
                "chem_acts": [],
                "chem_acts_mibig": [],
                "chem_struct": "C1=CC2=C(C(=C1)Cl)SC=C2COC(CN3C=CN=C3)C4=C(C=C(C=C4)Cl)Cl",
                "database_id": {
                    "pubchem": "65863"
                },
                "mol_mass": "437.800",
                "molecular_formula": "C20H15Cl3N2OS",
                "synonym": "SZ"
            }
        ],
        "loci": {
            "accession": "KJ590159.1",
            "completeness": "Unknown",
            "title": "Uncultured Dehalobacter sp. clone Tn4 PceA (pceA), PceB (pceB), PceC (pceC), and PceT (pceT) genes, complete cds"
        },
        "mibig_accession": "",
        "minimal": "true",
        "ncbi_tax_id": 402876,
        "organism_name": "uncultured Dehalobacter sp.",
        "publications": [
            "PMC6095959"
        ]
    }
}