{
    "changelog": [
        {
            "comments": [
                "Submitted"
            ],
            "contributors": [
                "EMERALD"
            ],
            "version": "3.0"
        }
    ],
    "cluster": {
        "biosyn_class": {},
        "compounds": [
            {
                "compound": "Karilysin",
                "chem_acts": [
                    "Resistance-Nodulation",
                    "activation",
                    "alveolar bone loss",
                    "defense",
                    "invasion",
                    "pathogenesis",
                    "pathogenicity",
                    "pro-inflammatory",
                    "toxic",
                    "virulence",
                    "virulence determinants",
                    "virulence factor"
                ],
                "chem_acts_mibig": []
            }
        ],
        "loci": {
            "accession": "KP715369.1",
            "completeness": "Unknown",
            "title": "Tannerella forsythia strain ATCC 43037 karilysin, miropsin-2, mirolase, and mirolysin genes, complete cds"
        },
        "mibig_accession": "",
        "minimal": "true",
        "ncbi_tax_id": 28112,
        "organism_name": "Tannerella forsythia",
        "publications": [
            "PMC3925233"
        ]
    }
}