{
    "changelog": [
        {
            "comments": [
                "Submitted"
            ],
            "contributors": [
                "EMERALD"
            ],
            "version": "3.0"
        }
    ],
    "cluster": {
        "biosyn_class": {},
        "compounds": [
            {
                "compound": "SC",
                "chem_acts": [
                    "toxin"
                ],
                "chem_acts_mibig": [],
                "chem_struct": "C(C(C(F)(F)S(=O)(=O)[N-]S(=O)(=O)C(C(C(C(F)(F)F)(F)F)(F)F)(F)F)(F)F)(C(F)(F)F)(F)F.C(C(C(F)(F)S(=O)(=O)[N-]S(=O)(=O)C(C(C(C(F)(F)F)(F)F)(F)F)(F)F)(F)F)(C(F)(F)F)(F)F.C(C(C(F)(F)S(=O)(=O)[N-]S(=O)(=O)C(C(C(C(F)(F)F)(F)F)(F)F)(F)F)(F)F)(C(F)(F)F)(F)F.[Sc+3]",
                "database_id": {
                    "pubchem": "101513789"
                },
                "mol_mass": "1785.500",
                "molecular_formula": "C24F54N3O12S6Sc",
                "synonym": "Tris[bis(nonafluorobutylsulfonyl)amino] scandium"
            }
        ],
        "loci": {
            "accession": "KT897721.1",
            "completeness": "Unknown",
            "title": "Nostoc sp. 'cyanobiont of Peltigera collina' isolate SC/15A ribulose-1,5-bisphosphate carboxylase/oxygenase large subunit (rbcL) gene, partial cds; and chaperonin-like protein (rbcX) gene, complete cds"
        },
        "mibig_accession": "",
        "minimal": "true",
        "ncbi_tax_id": 1811390,
        "organism_name": "Nostoc sp. 'cyanobiont of Peltigera collina'",
        "publications": [
            "PMC7232221"
        ]
    }
}