{
    "changelog": [
        {
            "comments": [
                "Submitted"
            ],
            "contributors": [
                "EMERALD"
            ],
            "version": "3.0"
        }
    ],
    "cluster": {
        "biosyn_class": {},
        "compounds": [
            {
                "compound": "Tetracycline",
                "chem_acts": [
                    "Antimicrobial Resistance",
                    "Resistance",
                    "antibiotics",
                    "antimicrobial",
                    "antimicrobial resistance",
                    "inhibitory",
                    "resistance",
                    "resistant"
                ],
                "chem_acts_mibig": [
                    "Antibacterial",
                    "Inhibitor"
                ],
                "chem_struct": "C[C@@]1([C@H]2C[C@H]3[C@@H](C(=O)C(=C([C@]3(C(=O)C2=C(C4=C1C=CC=C4O)O)O)O)C(=O)N)N(C)C)O",
                "database_id": {
                    "pubchem": "54675776"
                },
                "mol_mass": "444.400",
                "molecular_formula": "C22H24N2O8",
                "synonym": "Tetracycline"
            }
        ],
        "loci": {
            "accession": "KT953380.1",
            "completeness": "Unknown",
            "title": "Campylobacter coli strain ZTA09/02204 antimicrobial resistance gene cluster, complete sequence"
        },
        "mibig_accession": "",
        "minimal": "true",
        "ncbi_tax_id": 195,
        "organism_name": "Campylobacter coli",
        "publications": [
            "PMC7344827"
        ]
    }
}