{
    "changelog": [
        {
            "comments": [
                "Submitted"
            ],
            "contributors": [
                "EMERALD"
            ],
            "version": "3.0"
        }
    ],
    "cluster": {
        "biosyn_class": {},
        "compounds": [
            {
                "compound": "CTX-M",
                "chem_acts": [
                    "Antimicrobial",
                    "Resistance",
                    "antibiotics",
                    "antimicrobial",
                    "antirestriction",
                    "resistance",
                    "resistant"
                ],
                "chem_acts_mibig": [
                    "Antibacterial"
                ],
                "chem_struct": "C[C@H]1C(=O)N2CCC[C@H]2C(=O)N[C@H]3CSSC[C@H]4C(=O)NCC(=O)N[C@H](C(=O)N[C@H](C(=O)NCC(=O)N[C@H](C(=O)N[C@@H](CSSC[C@@H](C(=O)N[C@@H](CSSC[C@@H](C(=O)N[C@H](C(=O)NCC(=O)N[C@H](C(=O)NCC(=O)N1)CCCCN)CCCCN)N)C(=O)N[C@H](C(=O)NCC(=O)N[C@H](C(=O)N4)CO)CO)NC(=O)[C@@H](NC(=O)[C@@H](NC(=O)[C@@H](NC(=O)[C@@H](NC(=O)[C@@H](NC(=O)[C@@H](NC3=O)CCCNC(=N)N)CCCCN)[C@@H](C)O)CCSC)CC5=CC=C(C=C5)O)CC(=O)O)C(=O)N)CCCCN)CCCNC(=N)N)CCCNC(=N)N",
                "database_id": {
                    "pubchem": "56841670"
                },
                "mol_mass": "2749.300",
                "molecular_formula": "C106H178N40O32S7",
                "synonym": "omega-Ctx-mviic"
            }
        ],
        "loci": {
            "accession": "KX889078.1",
            "completeness": "Unknown",
            "title": "Serratia marcescens strain SM554 insertion sequence ISEcp1, partial sequence; extended spectrum beta-lactamase CTX-M-55 (blaCTX-M-55) gene, complete cds; and hypothetical protein (orf477) gene, partial cds"
        },
        "mibig_accession": "",
        "minimal": "true",
        "ncbi_tax_id": 615,
        "organism_name": "Serratia marcescens",
        "publications": [
            "PMC6340961"
        ]
    }
}