{
    "changelog": [
        {
            "comments": [
                "Submitted"
            ],
            "contributors": [
                "EMERALD"
            ],
            "version": "3.0"
        }
    ],
    "cluster": {
        "biosyn_class": {},
        "compounds": [
            {
                "compound": "dioxygen",
                "chem_acts": [
                    "pathogenesis",
                    "pathogenicity"
                ],
                "chem_acts_mibig": [],
                "chem_struct": "O=O",
                "database_id": {
                    "pubchem": "977"
                },
                "mol_mass": "31.999",
                "molecular_formula": "O2",
                "synonym": "dioxygen"
            }
        ],
        "loci": {
            "accession": "L14836.1",
            "completeness": "Unknown",
            "title": "Pseudomonas putida (ATCC 23975) protocatechuate 3,4-dioxygenase beta and alpha subunits (pcaH and pcaG) genes, complete cds"
        },
        "mibig_accession": "",
        "minimal": "true",
        "ncbi_tax_id": 303,
        "organism_name": "Pseudomonas putida",
        "publications": [
            "PMC7589939"
        ]
    }
}