{
    "changelog": [
        {
            "comments": [
                "Submitted"
            ],
            "contributors": [
                "EMERALD"
            ],
            "version": "3.0"
        }
    ],
    "cluster": {
        "biosyn_class": {},
        "compounds": [
            {
                "compound": "EPR-active",
                "chem_acts": [
                    "inhibition"
                ],
                "chem_acts_mibig": [
                    "Inhibitor"
                ]
            },
            {
                "compound": "Syn-CSK",
                "chem_acts": [
                    "inhibition"
                ],
                "chem_acts_mibig": [
                    "Inhibitor"
                ]
            },
            {
                "compound": "decyl-plastoquinol (decyl-PQ",
                "chem_acts": [
                    "inhibition"
                ],
                "chem_acts_mibig": [
                    "Inhibitor"
                ]
            },
            {
                "compound": "decyl-plastoquinone",
                "chem_acts": [
                    "inhibition"
                ],
                "chem_acts_mibig": [
                    "Inhibitor"
                ],
                "chem_struct": "CCCCCCCCCCC1=CC(=O)C(=C(C1=O)C)C",
                "database_id": {
                    "pubchem": "5158539"
                },
                "mol_mass": "276.400",
                "molecular_formula": "C18H28O2",
                "synonym": "decyl-plastoquinone"
            }
        ],
        "loci": {
            "accession": "L36958.2",
            "completeness": "Unknown",
            "title": "Synechocystis sp. PCC 6803 glycinamide ribonucleotide transformylase (purT), hypothetical protein, and DnaA (dnaA) genes, complete cds; and photosystem II reaction center protein D2 (psbD) gene, partial cds"
        },
        "mibig_accession": "",
        "minimal": "true",
        "ncbi_tax_id": 1148,
        "organism_name": "Synechocystis sp. PCC 6803",
        "publications": [
            "PMC6949291"
        ]
    }
}