{
    "changelog": [
        {
            "comments": [
                "Submitted"
            ],
            "contributors": [
                "EMERALD"
            ],
            "version": "3.0"
        }
    ],
    "cluster": {
        "biosyn_class": {},
        "compounds": [
            {
                "compound": "8-hydroxy-5-deazaflavin",
                "chem_acts": [
                    "methanogenesis"
                ],
                "chem_acts_mibig": [],
                "chem_struct": "C1=CC(=O)C=C2C1=CC3=C(N2CC(C(C(CO)O)O)O)NC(=O)NC3=O",
                "database_id": {
                    "pubchem": "122079"
                },
                "mol_mass": "363.320",
                "molecular_formula": "C16H17N3O7",
                "synonym": "8-hydroxy-5-deazaflavin"
            }
        ],
        "loci": {
            "accession": "L42940.1",
            "completeness": "Unknown",
            "title": "Thiobacillus denitrificans ribulose 1,5-carboxylase large subunit (cbbL) and small subunit (cbbS) genes, complete cds"
        },
        "mibig_accession": "",
        "minimal": "true",
        "ncbi_tax_id": 36861,
        "organism_name": "Thiobacillus denitrificans",
        "publications": [
            "PMC3903282"
        ]
    }
}