{
    "changelog": [
        {
            "comments": [
                "Submitted"
            ],
            "contributors": [
                "EMERALD"
            ],
            "version": "3.0"
        }
    ],
    "cluster": {
        "biosyn_class": {
            "Terpene": 1
        },
        "compounds": [
            {
                "compound": "ETC",
                "chem_acts": [
                    "antioxidant",
                    "parasitism",
                    "toxic"
                ],
                "chem_acts_mibig": []
            },
            {
                "compound": "molybdopterin",
                "chem_acts": [
                    "antioxidant",
                    "parasitism",
                    "toxic"
                ],
                "chem_acts_mibig": [],
                "chem_struct": "C([C@@H]1C(=C([C@H]2[C@@H](O1)NC3=C(N2)C(=O)NC(=N3)N)S)[S-])OP(=O)([O-])[O-]",
                "database_id": {
                    "pubchem": "135398580"
                },
                "mol_mass": "392.300",
                "molecular_formula": "C10H11N5O6PS2-3",
                "synonym": "molybdopterin"
            }
        ],
        "loci": {
            "accession": "LC002802.1",
            "completeness": "Unknown",
            "title": "Symbiodinium minutum mitochondrial cox3, cob genes for cytochrome oxidase subunit 3, cytochrome b, complete cds, strain: Mf 1.05b.01"
        },
        "mibig_accession": "",
        "minimal": "true",
        "ncbi_tax_id": 2499525,
        "organism_name": "Breviolum minutum",
        "publications": [
            "PMC7789003"
        ]
    }
}