{
    "changelog": [
        {
            "comments": [
                "Submitted"
            ],
            "contributors": [
                "EMERALD"
            ],
            "version": "3.0"
        }
    ],
    "cluster": {
        "biosyn_class": {
            "NRP": 4,
            "Polyketide": 2
        },
        "compounds": [
            {
                "compound": "mannose",
                "chem_acts": [
                    "Antagonistic",
                    "Antifungal",
                    "Antimicrobial",
                    "Siderophores",
                    "Siderophore‐producing",
                    "antagonism",
                    "antagonistic",
                    "antifungal",
                    "antimicrobial",
                    "anti‐fungal",
                    "bacteriocins",
                    "biocontrol",
                    "growth inhibition",
                    "growth‐promoting",
                    "inhibition",
                    "plant growth",
                    "promoted plant growth",
                    "siderophore",
                    "siderophores"
                ],
                "chem_acts_mibig": [
                    "Inhibitor",
                    "Siderophore"
                ],
                "chem_struct": "CC1(O[C@H]2[C@@H]([C@@H](CNC(=O)CCCCCNC(=O)[C@@H]3[C@H]([C@@H]([C@@H](CNC(=O)CCCCCNC(=O)[C@H]2O1)O)O)OC(O3)(C)C)O)O)C",
                "database_id": {
                    "pubchem": "101272769"
                },
                "mol_mass": "660.800",
                "molecular_formula": "C30H52N4O12",
                "synonym": "1,6-[Imino(1-oxohexane-6,1-diyl)imino(2-O,3-O-isopropylidene-6-deoxy-D-mannose-6,1-diyl)imino(1-oxohexane-6,1-diyl)imino]-2-O,3-O-isopropylidene-6-deoxy-D-mannose"
            }
        ],
        "loci": {
            "accession": "LNFP01000029.1",
            "completeness": "Unknown",
            "title": "Phytophthora nicotianae hypothetical protein (AM588_10011075), Serine/threonine-protein kinase 36 (AM588_10011076), Ankyrin repeat and FYVE domain-containing protein 1 (AM588_10011077), Glyceraldehyde-3-phosphate dehydrogenase (AM588_10011078), Glyceraldehyde-3-phosphate dehydrogenase (AM588_10011079), Glyceraldehyde-3-phosphate dehydrogenase (AM588_10011080), Myb-related protein B (AM588_10011081), hypothetical protein (AM588_10011082), 60S ribosomal protein L23 (AM588_10011083), WW domain-binding protein 4 (AM588_10011084), Gamma carbonic anhydrase 1 (AM588_10011085), hypothetical protein (AM588_10011086), Importin subunit alpha-1b (AM588_10011087), Calcium-transporting ATPase (AM588_10011088), Mannose-1-phosphate guanyltransferase beta (AM588_10011089), Leishmanolysin peptidase (AM588_10011090), hypothetical protein (AM588_10011091), hypothetical protein (AM588_10011092), Monoterpene epsilon-lactone hydrolase (AM588_10011094), OTU domain-containing protein 3 (AM588_10011095), rRNA-processing protein fcf2 (AM588_10011096), Monoterpene epsilon-lactone hydrolase (AM588_10011097), Monoterpene epsilon-lactone hydrolase (AM588_10011098), Methylthioribose-1-phosphate isomerase 2 (AM588_10011099), hypothetical protein (AM588_10011100), Fanconi-associated nuclease 1 (AM588_10011101), hypothetical protein (AM588_10011102), Thiosulfate sulfurtransferase/rhodanese domain-containing protein 2 (AM588_10011103), hypothetical protein (AM588_10011104), hypothetical protein (AM588_10011105), Amino Acid/Auxin Permease (AAAP) Family (AM588_10011106), ADP-ribosylation factor protein 16 (AM588_10011107), Ankyrin repeat and FYVE domain-containing protein 1 (AM588_10011108), Amino Acid/Auxin Permease (AAAP) Family (AM588_10011109), Carboxypeptidase D (AM588_10011110), Mitochondrial Carrier (MC) Family (AM588_10011111), hypothetical protein (AM588_10011112), NADH dehydrogenase iron-sulfur protein 4 (AM588_10011113), hypothetical protein (AM588_10011114), Ca2 :Cation Antiporter (CaCA) Family (AM588_10011115), and hypothetical protein (AM588_10011116) genes, complete cds."
        },
        "mibig_accession": "",
        "minimal": "true",
        "ncbi_tax_id": 4790,
        "organism_name": "Phytophthora nicotianae",
        "publications": [
            "PMC7520995"
        ]
    }
}