{
    "changelog": [
        {
            "comments": [
                "Submitted"
            ],
            "contributors": [
                "EMERALD"
            ],
            "version": "3.0"
        }
    ],
    "cluster": {
        "biosyn_class": {
            "Polyketide": 1,
            "Saccharide": 1
        },
        "compounds": [
            {
                "compound": "PSP",
                "chem_acts": [],
                "chem_acts_mibig": [],
                "chem_struct": "C1=CC=C2C(=C1)C(OS2(=O)=O)(C3=CC=C(C=C3)O)C4=CC=C(C=C4)O",
                "database_id": {
                    "pubchem": "4766"
                },
                "mol_mass": "354.400",
                "molecular_formula": "C19H14O5S",
                "synonym": "PSP"
            }
        ],
        "loci": {
            "accession": "LNFP01001494.1",
            "completeness": "Unknown",
            "title": "Phytophthora nicotianae hypothetical protein (AM588_10001071), hypothetical protein (AM588_10001072), Endoribonuclease L-PSP (AM588_10001073), and Nudix hydrolase 21 (AM588_10001074) genes, complete cds."
        },
        "mibig_accession": "",
        "minimal": "true",
        "ncbi_tax_id": 4790,
        "organism_name": "Phytophthora nicotianae",
        "publications": [
            "PMC5715807"
        ]
    }
}