{
    "changelog": [
        {
            "comments": [
                "Submitted"
            ],
            "contributors": [
                "EMERALD"
            ],
            "version": "3.0"
        }
    ],
    "cluster": {
        "biosyn_class": {
            "NRP": 4,
            "Polyketide": 2
        },
        "compounds": [
            {
                "compound": "mannitol",
                "chem_acts": [
                    "Antagonistic",
                    "Antifungal",
                    "Antimicrobial",
                    "Siderophores",
                    "Siderophore‐producing",
                    "antagonism",
                    "antagonistic",
                    "antifungal",
                    "antimicrobial",
                    "anti‐fungal",
                    "bacteriocins",
                    "biocontrol",
                    "growth inhibition",
                    "growth‐promoting",
                    "inhibition",
                    "plant growth",
                    "promoted plant growth",
                    "siderophore",
                    "siderophores"
                ],
                "chem_acts_mibig": [
                    "Inhibitor",
                    "Siderophore"
                ],
                "chem_struct": "CC1=CC=C(C=C1)S(=O)(=O)N2C[C@H]([C@@H]3[C@@H]([C@H]2CC(C#N)S(=O)(=O)C4=CC=CC=C4)OC(O3)(C)C)OC(=O)C",
                "database_id": {
                    "pubchem": "101021661"
                },
                "mol_mass": "562.700",
                "molecular_formula": "C26H30N2O8S2",
                "synonym": "1-(Cyanophenylsulfonylmethyl)-2,6-(tosylimino)-3-O,4-O-isopropylidene-1,2,6-trideoxy-D-mannitol 5-acetate"
            }
        ],
        "loci": {
            "accession": "LNFP01000693.1",
            "completeness": "Unknown",
            "title": "Phytophthora nicotianae mannitol dehydrogenase (AM588_10002729), hypothetical protein (AM588_10002730), hypothetical protein (AM588_10002731), hypothetical protein (AM588_10002732), hypothetical protein (AM588_10002733), hypothetical protein (AM588_10002734), and C-factor (AM588_10002735) genes, complete cds."
        },
        "mibig_accession": "",
        "minimal": "true",
        "ncbi_tax_id": 4790,
        "organism_name": "Phytophthora nicotianae",
        "publications": [
            "PMC7520995"
        ]
    }
}