{
    "changelog": [
        {
            "comments": [
                "Submitted"
            ],
            "contributors": [
                "EMERALD"
            ],
            "version": "3.0"
        }
    ],
    "cluster": {
        "biosyn_class": {
            "NRP": 1
        },
        "compounds": [
            {
                "compound": "phycocyanin",
                "chem_acts": [
                    "anoxic",
                    "pigment"
                ],
                "chem_acts_mibig": []
            }
        ],
        "loci": {
            "accession": "M16325.1",
            "completeness": "Unknown",
            "title": "Synechococcus sp. PCC 6301 phycocyanin beta-subunit gene, partial cds; and phycocyanin alpha-subunit gene, complete cds"
        },
        "mibig_accession": "",
        "minimal": "true",
        "ncbi_tax_id": 269084,
        "organism_name": "Synechococcus elongatus PCC 6301",
        "publications": [
            "PMC3187577"
        ]
    }
}