{
    "changelog": [
        {
            "comments": [
                "Submitted"
            ],
            "contributors": [
                "EMERALD"
            ],
            "version": "3.0"
        }
    ],
    "cluster": {
        "biosyn_class": {},
        "compounds": [
            {
                "compound": "NE",
                "chem_acts": [
                    "pathogenicity",
                    "toxin-containing"
                ],
                "chem_acts_mibig": [],
                "chem_struct": "CC1(CC2=C(C(C3=C(N2)CC(CC3=O)(C)C)C4=CC=CC=C4Cl)C(=O)C1)C",
                "database_id": {
                    "pubchem": "1002658"
                },
                "mol_mass": "383.900",
                "molecular_formula": "C23H26ClNO2",
                "synonym": "9-(2-chlorophenyl)-3,3,6,6-tetramethyl-2,3,4,5,6,7,9,10-octahydroacridine-1,8- dione"
            }
        ],
        "loci": {
            "accession": "M77169.1",
            "completeness": "Unknown",
            "title": "Cloning vector (C.perfringens,E.coli) replication enzyme (rep) gene, complete cds; chloramphenicol acetyltransferase (catP) gene, complete cds; RNA methylase (ermBP) gene, complete cds; and beta-glactosidase alpha-peptide (lacZ') gene, complete cds"
        },
        "mibig_accession": "",
        "minimal": "true",
        "ncbi_tax_id": 45196,
        "organism_name": "unidentified cloning vector",
        "publications": [
            "PMC3506638"
        ]
    }
}