{
    "changelog": [
        {
            "comments": [
                "Submitted"
            ],
            "contributors": [
                "EMERALD"
            ],
            "version": "3.0"
        }
    ],
    "cluster": {
        "biosyn_class": {},
        "compounds": [
            {
                "compound": "PET",
                "chem_acts": [
                    "inhibition",
                    "inhibitory"
                ],
                "chem_acts_mibig": [
                    "Inhibitor"
                ],
                "chem_struct": "C1=CC(=CC=C1C(=N)N)OCCOCCOC2=CC=C(C=C2)C(=N)N",
                "database_id": {
                    "pubchem": "444075"
                },
                "mol_mass": "342.400",
                "molecular_formula": "C18H22N4O3",
                "synonym": "PET"
            },
            {
                "compound": "d-4-hydroxyphenyllactate",
                "chem_acts": [
                    "inhibition",
                    "inhibitory"
                ],
                "chem_acts_mibig": [
                    "Inhibitor"
                ]
            }
        ],
        "loci": {
            "accession": "MF491474.1",
            "completeness": "Unknown",
            "title": "Synthetic construct PhaC-CrtPA fusion protein, beta-ketothiolase (phaA), and acetoacetyl-CoA-reductase genes, complete cds"
        },
        "mibig_accession": "",
        "minimal": "true",
        "ncbi_tax_id": 32630,
        "organism_name": "synthetic construct",
        "publications": [
            "PMC5758686"
        ]
    }
}