{
    "changelog": [
        {
            "comments": [
                "Submitted"
            ],
            "contributors": [
                "EMERALD"
            ],
            "version": "3.0"
        }
    ],
    "cluster": {
        "biosyn_class": {},
        "compounds": [
            {
                "compound": "KCN",
                "chem_acts": [
                    "antimicrobial resistance",
                    "resistance"
                ],
                "chem_acts_mibig": [],
                "chem_struct": "[C-]#N.[K+]",
                "database_id": {
                    "pubchem": "9032"
                },
                "mol_mass": "65.116",
                "molecular_formula": "CKN",
                "synonym": "KCN"
            },
            {
                "compound": "fosfomycin-resistance",
                "chem_acts": [
                    "antimicrobial resistance",
                    "resistance"
                ],
                "chem_acts_mibig": []
            }
        ],
        "loci": {
            "accession": "MK948099.1",
            "completeness": "Unknown",
            "title": "Klebsiella pneumoniae strain XY184 plasmid pKPCXY184 FosA3 (fosA3) gene, partial cds; hypothetical protein gene, complete cds; and insertion sequence IS6-like element, partial sequence"
        },
        "mibig_accession": "",
        "minimal": "true",
        "ncbi_tax_id": 573,
        "organism_name": "Klebsiella pneumoniae",
        "publications": [
            "PMC7524892"
        ]
    }
}