{
    "changelog": [
        {
            "comments": [
                "Submitted"
            ],
            "contributors": [
                "EMERALD"
            ],
            "version": "3.0"
        }
    ],
    "cluster": {
        "biosyn_class": {
            "NRP": 1
        },
        "compounds": [
            {
                "compound": "phycocyanin",
                "chem_acts": [
                    "anoxic",
                    "pigment"
                ],
                "chem_acts_mibig": []
            }
        ],
        "loci": {
            "accession": "MN400964.1",
            "completeness": "Unknown",
            "title": "Synechococcus elongatus AARL T012 phycocyanin beta subunit (cpcB) and phycocyanin Alpha subunit (cpcA) genes, complete cds"
        },
        "mibig_accession": "",
        "minimal": "true",
        "ncbi_tax_id": 2729336,
        "organism_name": "Synechococcus elongatus AARL T012",
        "publications": [
            "PMC3187577"
        ]
    }
}