{
    "changelog": [
        {
            "comments": [
                "Submitted"
            ],
            "contributors": [
                "EMERALD"
            ],
            "version": "3.0"
        }
    ],
    "cluster": {
        "biosyn_class": {},
        "compounds": [
            {
                "compound": "Endolysin",
                "chem_acts": [
                    "Lytic",
                    "bacteriophage",
                    "lysis",
                    "lytic"
                ],
                "chem_acts_mibig": [],
                "chem_struct": "C(CCN)CC(C(=O)O)N",
                "database_id": {
                    "pubchem": "866"
                },
                "mol_mass": "146.190",
                "molecular_formula": "C6H14N2O2",
                "synonym": "Endolysin"
            }
        ],
        "loci": {
            "accession": "NC_048629.1",
            "completeness": "Unknown",
            "title": "Clostridium phage CpV1 hypothetical proteins, DNA polymerase, hypothetical protein, putative transcriptional regulator, hypothetical proteins, DNA encapsidation protein, collar protein, connector protein, hypothetical protein, endolysin, tail protein, lysozyme-peptidase, hypothetical protein, head protein, hypothetical proteins, and putative DNA binding protein genes, complete cds"
        },
        "mibig_accession": "",
        "minimal": "true",
        "ncbi_tax_id": 926066,
        "organism_name": "Clostridium phage CpV1",
        "publications": [
            "PMC3936119"
        ]
    }
}