{
    "changelog": [
        {
            "comments": [
                "Submitted"
            ],
            "contributors": [
                "EMERALD"
            ],
            "version": "3.0"
        }
    ],
    "cluster": {
        "biosyn_class": {
            "Saccharide": 1
        },
        "compounds": [
            {
                "compound": "subtilisin-like",
                "chem_acts": [],
                "chem_acts_mibig": []
            }
        ],
        "loci": {
            "accession": "QCYX01000311.1",
            "completeness": "Unknown",
            "title": "ANME-2 cluster archaeon isolate CONS3730F09p3b1 Ga0123308_1006, whole genome shotgun sequence"
        },
        "mibig_accession": "",
        "minimal": "true",
        "ncbi_tax_id": 2056317,
        "organism_name": "ANME-2 cluster archaeon",
        "publications": [
            "PMC6258724"
        ]
    }
}