{
    "changelog": [
        {
            "comments": [
                "Submitted"
            ],
            "contributors": [
                "EMERALD"
            ],
            "version": "3.0"
        }
    ],
    "cluster": {
        "biosyn_class": {},
        "compounds": [
            {
                "compound": "porin",
                "chem_acts": [],
                "chem_acts_mibig": []
            }
        ],
        "loci": {
            "accession": "RQOR01000095.1",
            "completeness": "Unknown",
            "title": "SAR202 cluster bacterium isolate OSU_BB07 BB07_138, whole genome shotgun sequence"
        },
        "mibig_accession": "",
        "minimal": "true",
        "ncbi_tax_id": 2030829,
        "organism_name": "SAR202 cluster bacterium",
        "publications": [
            "PMC7399161"
        ]
    }
}