{
    "changelog": [
        {
            "comments": [
                "Submitted"
            ],
            "contributors": [
                "EMERALD"
            ],
            "version": "3.0"
        }
    ],
    "cluster": {
        "biosyn_class": {
            "Saccharide": 6
        },
        "compounds": [
            {
                "compound": "Xylan",
                "chem_acts": [
                    "antibiotic",
                    "cellulolytic",
                    "defense",
                    "defenses",
                    "hemicellulolytic",
                    "hydrolytic",
                    "inhibition",
                    "resistance"
                ],
                "chem_acts_mibig": [
                    "Antibacterial",
                    "Cytotoxic",
                    "Inhibitor"
                ],
                "chem_struct": "CC[N+](CC)(CCCNC1=CC(=O)C(=CC1=O)NCCC[N+](CC)(CC)CC2=CC=CC=C2)CC3=CC=CC=C3",
                "database_id": {
                    "pubchem": "9394"
                },
                "mol_mass": "546.800",
                "molecular_formula": "C34H50N4O2+2",
                "synonym": "1,4-b-D-Xylan xylanohydrolase"
            }
        ],
        "loci": {
            "accession": "U01037.1",
            "completeness": "Unknown",
            "title": "Fibrobacter succinogenes endo-1,4-beta-xylanase precursor (xynC) gene, complete cds and DNA gyrase subunit A (gyrA) gene, partial cds"
        },
        "mibig_accession": "",
        "minimal": "true",
        "ncbi_tax_id": 59374,
        "organism_name": "Fibrobacter succinogenes subsp. succinogenes S85",
        "publications": [
            "PMC3079729"
        ]
    }
}