{
    "changelog": [
        {
            "comments": [
                "Submitted"
            ],
            "contributors": [
                "EMERALD"
            ],
            "version": "3.0"
        }
    ],
    "cluster": {
        "biosyn_class": {
            "Saccharide": 4
        },
        "compounds": [
            {
                "compound": "O antigen",
                "chem_acts": [
                    "Bacterial",
                    "antibiotics",
                    "antigen",
                    "toxin",
                    "virulent",
                    "whooping cough"
                ],
                "chem_acts_mibig": [
                    "Antibacterial"
                ]
            },
            {
                "compound": "SCFM",
                "chem_acts": [
                    "Bacterial",
                    "antibiotics",
                    "antigen",
                    "toxin",
                    "virulent",
                    "whooping cough"
                ],
                "chem_acts_mibig": [
                    "Antibacterial"
                ]
            },
            {
                "compound": "SSM",
                "chem_acts": [
                    "Bacterial",
                    "antibiotics",
                    "antigen",
                    "toxin",
                    "virulent",
                    "whooping cough"
                ],
                "chem_acts_mibig": [
                    "Antibacterial"
                ],
                "chem_struct": "C(CSCCCl)SCCCl",
                "database_id": {
                    "pubchem": "19092"
                },
                "mol_mass": "219.200",
                "molecular_formula": "C6H12Cl2S2",
                "synonym": "SSM"
            },
            {
                "compound": "pertactin",
                "chem_acts": [
                    "Bacterial",
                    "antibiotics",
                    "antigen",
                    "toxin",
                    "virulent",
                    "whooping cough"
                ],
                "chem_acts_mibig": [
                    "Antibacterial"
                ]
            }
        ],
        "loci": {
            "accession": "U12276.1",
            "completeness": "Unknown",
            "title": "Bordetella pertussis BrkA (brkA) gene and BrkB (brkB) genes, complete cds"
        },
        "mibig_accession": "",
        "minimal": "true",
        "ncbi_tax_id": 520,
        "organism_name": "Bordetella pertussis",
        "publications": [
            "PMC6531889"
        ]
    }
}