{
    "changelog": [
        {
            "comments": [
                "Submitted"
            ],
            "contributors": [
                "EMERALD"
            ],
            "version": "3.0"
        }
    ],
    "cluster": {
        "biosyn_class": {
            "Saccharide": 1
        },
        "compounds": [
            {
                "compound": "Ferredoxins",
                "chem_acts": [
                    "antimicrobial",
                    "virulence"
                ],
                "chem_acts_mibig": []
            }
        ],
        "loci": {
            "accession": "U45327.1",
            "completeness": "Unknown",
            "title": "Chromatium vinosum (kdtB) and ferredoxin (fdx) genes, complete cds"
        },
        "mibig_accession": "",
        "minimal": "true",
        "ncbi_tax_id": 572477,
        "organism_name": "Allochromatium vinosum DSM 180",
        "publications": [
            "PMC2984482"
        ]
    }
}