{
    "changelog": [
        {
            "comments": [
                "Submitted"
            ],
            "contributors": [
                "EMERALD"
            ],
            "version": "3.0"
        }
    ],
    "cluster": {
        "biosyn_class": {
            "Saccharide": 2
        },
        "compounds": [
            {
                "compound": "LP",
                "chem_acts": [
                    "Endotoxin",
                    "antagonistic",
                    "antagonists",
                    "anti-LTA",
                    "anti-inflammatory",
                    "endotoxin",
                    "immunostimulatory",
                    "inhibitor",
                    "inhibitors",
                    "pro-inflammatory"
                ],
                "chem_acts_mibig": [
                    "Inhibitor"
                ],
                "chem_struct": "CC(C)CC(C(=O)N1CCCC1C(=O)O)N",
                "database_id": {
                    "pubchem": "3977067"
                },
                "mol_mass": "228.290",
                "molecular_formula": "C11H20N2O3",
                "synonym": "LP"
            }
        ],
        "loci": {
            "accession": "U45421.2",
            "completeness": "Unknown",
            "title": "Borrelia burgdorferi 297 hypothetical protein and lipoprotein (LP) genes, complete cds"
        },
        "mibig_accession": "",
        "minimal": "true",
        "ncbi_tax_id": 521009,
        "organism_name": "Borreliella burgdorferi 297",
        "publications": [
            "PMC3328207"
        ]
    }
}