{
    "changelog": [
        {
            "comments": [
                "Submitted"
            ],
            "contributors": [
                "EMERALD"
            ],
            "version": "3.0"
        }
    ],
    "cluster": {
        "biosyn_class": {},
        "compounds": [
            {
                "compound": "acetogens",
                "chem_acts": [],
                "chem_acts_mibig": []
            }
        ],
        "loci": {
            "accession": "U73807.1",
            "completeness": "Unknown",
            "title": "Moorella thermoacetica formate dehydrogenase beta subunit (fdhb) and alpha subunit (fdha) genes, complete cds"
        },
        "mibig_accession": "",
        "minimal": "true",
        "ncbi_tax_id": 1525,
        "organism_name": "Moorella thermoacetica",
        "publications": [
            "PMC7911925"
        ]
    }
}