{
    "changelog": [
        {
            "comments": [
                "Submitted"
            ],
            "contributors": [
                "EMERALD"
            ],
            "version": "3.0"
        }
    ],
    "cluster": {
        "biosyn_class": {},
        "compounds": [
            {
                "compound": "2-aminophenol",
                "chem_acts": [],
                "chem_acts_mibig": [],
                "chem_struct": "C1=CC=C(C(=C1)N)O",
                "database_id": {
                    "pubchem": "5801"
                },
                "mol_mass": "109.130",
                "molecular_formula": "C6H7NO",
                "synonym": "2-aminophenol"
            }
        ],
        "loci": {
            "accession": "U93363.2",
            "completeness": "Unknown",
            "title": "Pseudomonas pseudoalcaligenes YjgF-like protein, 2-aminophenol-1,6-dioxygenase beta subunit (amnB), 2-aminophenol-1,6-dioxygenase alpha subunit (amnA), and 2-aminomuconic acid semialdehyde dehydrogenase (amnC) genes, complete cds"
        },
        "mibig_accession": "",
        "minimal": "true",
        "ncbi_tax_id": 301,
        "organism_name": "Pseudomonas oleovorans",
        "publications": [
            "PMC6742747"
        ]
    }
}