{
    "changelog": [
        {
            "comments": [
                "Submitted"
            ],
            "contributors": [
                "EMERALD"
            ],
            "version": "3.0"
        }
    ],
    "cluster": {
        "biosyn_class": {},
        "compounds": [
            {
                "compound": "allantoin",
                "chem_acts": [
                    "Growth-Promoting",
                    "anti-tumoral",
                    "antimicrobial",
                    "inhibition",
                    "pigments",
                    "plant growth promoting",
                    "resistance",
                    "resistant",
                    "siderophores",
                    "wound healing"
                ],
                "chem_acts_mibig": [
                    "Inhibitor",
                    "Siderophore"
                ],
                "chem_struct": "C1(C(=O)NC(=O)N1)NC(=O)N",
                "database_id": {
                    "pubchem": "204"
                },
                "mol_mass": "158.120",
                "molecular_formula": "C4H6N4O3",
                "synonym": "allantoin"
            }
        ],
        "loci": {
            "accession": "WNDZ01000007.1",
            "completeness": "Unknown",
            "title": "Variovorax sp. isolate cluster_DBSCAN_round5_3 GAK39_7, whole genome shotgun sequence"
        },
        "mibig_accession": "",
        "minimal": "true",
        "ncbi_tax_id": 1871043,
        "organism_name": "Variovorax sp.",
        "publications": [
            "PMC7901983"
        ]
    }
}