{
    "changelog": [
        {
            "comments": [
                "Submitted"
            ],
            "contributors": [
                "EMERALD"
            ],
            "version": "3.0"
        }
    ],
    "cluster": {
        "biosyn_class": {},
        "compounds": [
            {
                "compound": "ethacrynic acid",
                "chem_acts": [],
                "chem_acts_mibig": [],
                "chem_struct": "CCC(=C)C(=O)C1=C(C(=C(C=C1)OCC(=O)O)Cl)Cl",
                "database_id": {
                    "pubchem": "3278"
                },
                "mol_mass": "303.130",
                "molecular_formula": "C13H12Cl2O4",
                "synonym": "ethacrynic acid"
            }
        ],
        "loci": {
            "accession": "WNDZ01000058.1",
            "completeness": "Unknown",
            "title": "Variovorax sp. isolate cluster_DBSCAN_round5_3 GAK39_58, whole genome shotgun sequence"
        },
        "mibig_accession": "",
        "minimal": "true",
        "ncbi_tax_id": 1871043,
        "organism_name": "Variovorax sp.",
        "publications": [
            "PMC2997670"
        ]
    }
}