{
    "changelog": [
        {
            "comments": [
                "Submitted"
            ],
            "contributors": [
                "EMERALD"
            ],
            "version": "3.0"
        }
    ],
    "cluster": {
        "biosyn_class": {},
        "compounds": [
            {
                "compound": "MDC",
                "chem_acts": [
                    "anti-parallel"
                ],
                "chem_acts_mibig": [],
                "chem_struct": "C1=CC(=C(C=C1Cl)N)Cl",
                "database_id": {
                    "pubchem": "7262"
                },
                "mol_mass": "162.010",
                "molecular_formula": "C6H5Cl2N",
                "synonym": "Fast Scarlet MDC Base"
            }
        ],
        "loci": {
            "accession": "AB017138.1",
            "completeness": "Unknown",
            "title": "Pseudomonas putida malonate decarboxylase gene cluster (mdcA, mdcB, mdcC, mdcD, mdcE, mdcG, mdcH, mdcL and mdcM genes), complete cds"
        },
        "mibig_accession": "",
        "minimal": "true",
        "ncbi_tax_id": 303,
        "organism_name": "Pseudomonas putida",
        "publications": [
            "PMC5534430"
        ]
    }
}