{
    "changelog": [
        {
            "comments": [
                "Submitted"
            ],
            "contributors": [
                "EMERALD"
            ],
            "version": "3.0"
        }
    ],
    "cluster": {
        "biosyn_class": {
            "Saccharide": 4
        },
        "compounds": [
            {
                "compound": "perosamine",
                "chem_acts": [
                    "Antigenic",
                    "anti-Acetyl",
                    "anti-Formyl",
                    "anti-Formyl-Acetyl",
                    "antibiotic",
                    "antibody",
                    "antigen",
                    "antigenic",
                    "antigenically",
                    "bactericidal",
                    "immunogenic",
                    "inhibitory",
                    "resistance",
                    "resistant",
                    "virulence",
                    "virulence factor"
                ],
                "chem_acts_mibig": [
                    "Antibacterial",
                    "Inhibitor"
                ],
                "chem_struct": "C[C@H]([C@H]([C@@H]([C@@H](C=O)O)O)N)O",
                "database_id": {
                    "pubchem": "161706"
                },
                "mol_mass": "163.170",
                "molecular_formula": "C6H13NO4",
                "synonym": "perosamine"
            }
        ],
        "loci": {
            "accession": "AB602249.1",
            "completeness": "Unknown",
            "title": "Escherichia coli O157:H45 DNA, O-antigen biosynthesis gene cluster, strain: EC95-42"
        },
        "mibig_accession": "",
        "minimal": "true",
        "ncbi_tax_id": 244314,
        "organism_name": "Escherichia coli O157:H45",
        "publications": [
            "PMC5981137"
        ]
    }
}