{
    "changelog": [
        {
            "comments": [
                "Submitted"
            ],
            "contributors": [
                "EMERALD"
            ],
            "version": "3.0"
        }
    ],
    "cluster": {
        "biosyn_class": {},
        "compounds": [
            {
                "compound": "2,4,6-trichlorophenol",
                "chem_acts": [],
                "chem_acts_mibig": [],
                "chem_struct": "C1=C(C=C(C(=C1Cl)O)Cl)Cl.C1=C(C=C(C(=C1Cl)O)Cl)Cl.C1=C(C=C(C(=C1Cl)O)Cl)Cl.OP(=O)(O)O",
                "database_id": {
                    "pubchem": "71446546"
                },
                "mol_mass": "690.300",
                "molecular_formula": "C18H12Cl9O7P",
                "synonym": "Phosphoric acid--2,4,6-trichlorophenol (1/3)"
            }
        ],
        "loci": {
            "accession": "AB601011.1",
            "completeness": "Unknown",
            "title": "Ralstonia pickettii DNA, 2,4,6-trichlorophenol degradation gene cluster, strain: DTP0602"
        },
        "mibig_accession": "",
        "minimal": "true",
        "ncbi_tax_id": 329,
        "organism_name": "Ralstonia pickettii",
        "publications": [
            "PMC3814637"
        ]
    }
}