{
    "changelog": [
        {
            "comments": [
                "Submitted"
            ],
            "contributors": [
                "EMERALD"
            ],
            "version": "3.0"
        }
    ],
    "cluster": {
        "biosyn_class": {
            "Saccharide": 3
        },
        "compounds": [
            {
                "compound": "CPS",
                "chem_acts": [],
                "chem_acts_mibig": [],
                "chem_struct": "CC(C)[C@H]1CC[C@H]2[C@@]1([C@H](CC3=C2[C@@H](C[C@H]4[C@@]3(CC[C@H](C4)O)C)O)O)C",
                "database_id": {
                    "pubchem": "445452"
                },
                "mol_mass": "348.500",
                "molecular_formula": "C22H36O3",
                "synonym": "CPS"
            },
            {
                "compound": "GDP-D-mannose",
                "chem_acts": [],
                "chem_acts_mibig": [],
                "chem_struct": "C1=NC2=C(N1[C@H]3[C@@H]([C@@H]([C@H](O3)COP(=O)(O)OP(=O)(O)O[C@@H]4[C@H]([C@H]([C@@H]([C@H](O4)CO)O)O)O)O)O)N=C(NC2=O)N",
                "database_id": {
                    "pubchem": "135398627"
                },
                "mol_mass": "605.300",
                "molecular_formula": "C16H25N5O16P2",
                "synonym": "GDP-D-mannose"
            },
            {
                "compound": "K2 capsule",
                "chem_acts": [],
                "chem_acts_mibig": []
            },
            {
                "compound": "K29, K42, K65, KN1 and KN2",
                "chem_acts": [],
                "chem_acts_mibig": []
            },
            {
                "compound": "capsular types K1, K16, K54, K58 and K63",
                "chem_acts": [],
                "chem_acts_mibig": []
            },
            {
                "compound": "capsular types K11 and K34",
                "chem_acts": [],
                "chem_acts_mibig": []
            },
            {
                "compound": "capsular types K29 and K50",
                "chem_acts": [],
                "chem_acts_mibig": []
            },
            {
                "compound": "capsules",
                "chem_acts": [],
                "chem_acts_mibig": [],
                "chem_struct": "CCCC1=NN(C2=C1NC(=NC2=S)C3=C(C=CC(=C3)S(=O)(=O)N4CCN(CC4)CCO)OCC)C",
                "database_id": {
                    "pubchem": "9936526"
                },
                "mol_mass": "520.700",
                "molecular_formula": "C23H32N6O4S2",
                "synonym": "ROCK-It MAN Male Enhancement Capsules"
            },
            {
                "compound": "dTDP-L-rhamnose",
                "chem_acts": [],
                "chem_acts_mibig": [],
                "chem_struct": "C[C@H]1[C@@H]([C@H]([C@H]([C@H](O1)OP(=O)(O)OP(=O)(O)OC[C@@H]2[C@H](C[C@@H](O2)N3C=C(C(=O)NC3=O)C)O)O)O)O",
                "database_id": {
                    "pubchem": "121966"
                },
                "mol_mass": "548.330",
                "molecular_formula": "C16H26N2O15P2",
                "synonym": "dTDP-L-rhamnose"
            }
        ],
        "loci": {
            "accession": "AB924564.1",
            "completeness": "Unknown",
            "title": "Klebsiella sp. 5884 DNA, capsular polysaccharide synthesis gene cluster, serotype: K26"
        },
        "mibig_accession": "",
        "minimal": "true",
        "ncbi_tax_id": 1497804,
        "organism_name": "Klebsiella sp. 5884",
        "publications": [
            "PMC4616057"
        ]
    }
}