{
    "changelog": [
        {
            "comments": [
                "Submitted"
            ],
            "contributors": [
                "EMERALD"
            ],
            "version": "3.0"
        }
    ],
    "cluster": {
        "biosyn_class": {
            "NRP": 5,
            "Polyketide": 19
        },
        "compounds": [
            {
                "compound": "AAL-toxin",
                "chem_acts": [
                    "hemibiotrophic",
                    "pathogenesis",
                    "pathogenicity",
                    "toxic",
                    "toxin",
                    "toxin-producing",
                    "toxin-type"
                ],
                "chem_acts_mibig": [],
                "chem_struct": "CCC(C)C(C(CC(C)CCCCC[C@H]([C@H](C[C@@H](CN)O)O)O)O)OC(=O)CC(CC(=O)O)C(=O)O",
                "database_id": {
                    "pubchem": "139583962"
                },
                "mol_mass": "521.600",
                "molecular_formula": "C25H47NO10",
                "synonym": "AAL-toxin"
            }
        ],
        "loci": {
            "accession": "AB969680.1",
            "completeness": "Unknown",
            "title": "Alternaria alternata DNA, AAL-toxin biosynthetic genes cluster, complete sequence, strain: As-27"
        },
        "mibig_accession": "",
        "minimal": "true",
        "ncbi_tax_id": 5599,
        "organism_name": "Alternaria alternata",
        "publications": [
            "PMC4936691"
        ]
    }
}