{
    "changelog": [
        {
            "comments": [
                "Submitted"
            ],
            "contributors": [
                "EMERALD"
            ],
            "version": "3.0"
        }
    ],
    "cluster": {
        "biosyn_class": {
            "Polyketide": 1,
            "Terpene": 1
        },
        "compounds": [
            {
                "compound": "thaxtomin",
                "chem_acts": [
                    "antibiotic",
                    "antibiotics",
                    "phytotoxin",
                    "resistant"
                ],
                "chem_acts_mibig": [
                    "Antibacterial"
                ],
                "chem_struct": "CN1[C@H](C(=O)N([C@](C1=O)(CC2=CC=CC=C2O)O)C)CC3=CNC4=C3C(=CC=C4)[N+](=O)[O-]",
                "database_id": {
                    "pubchem": "76326879"
                },
                "mol_mass": "438.400",
                "molecular_formula": "C22H22N4O6",
                "synonym": "O-thaxtomin A"
            }
        ],
        "loci": {
            "accession": "AF255732.1",
            "completeness": "Unknown",
            "title": "Streptomyces acidiscabies thaxtomin synthetase A (txtA) and thaxtomin synthetase B (txtB) genes, complete cds"
        },
        "mibig_accession": "",
        "minimal": "true",
        "ncbi_tax_id": 42234,
        "organism_name": "Streptomyces acidiscabies",
        "publications": [
            "PMC6359780"
        ]
    }
}