{
    "changelog": [
        {
            "comments": [
                "Submitted"
            ],
            "contributors": [
                "EMERALD"
            ],
            "version": "3.0"
        }
    ],
    "cluster": {
        "biosyn_class": {},
        "compounds": [
            {
                "compound": "Sakacin P",
                "chem_acts": [
                    "antihypertensive",
                    "antimicrobial",
                    "biocontrol agents",
                    "counteracting",
                    "nutraceutical supplements",
                    "opioid"
                ],
                "chem_acts_mibig": [],
                "chem_struct": "CC(C(=O)C(=O)N)NC(=O)OC(C)(C)C",
                "database_id": {
                    "pubchem": "383827"
                },
                "mol_mass": "216.230",
                "molecular_formula": "C9H16N2O4",
                "synonym": "Sakacin P"
            }
        ],
        "loci": {
            "accession": "AY875983.1",
            "completeness": "Unknown",
            "title": "Lactobacillus sakei strain I151 sakacin P gene cluster, complete sequence"
        },
        "mibig_accession": "",
        "minimal": "true",
        "ncbi_tax_id": 1599,
        "organism_name": "Latilactobacillus sakei",
        "publications": [
            "PMC7824078"
        ]
    }
}