{
    "changelog": [
        {
            "comments": [
                "Submitted"
            ],
            "contributors": [
                "EMERALD"
            ],
            "version": "3.0"
        }
    ],
    "cluster": {
        "biosyn_class": {
            "Saccharide": 1
        },
        "compounds": [
            {
                "compound": "CPS types Ia, Ib, III, and V",
                "chem_acts": [
                    "antimicrobial",
                    "antitoxin",
                    "pathogenic",
                    "resistance",
                    "resistant",
                    "toxin",
                    "toxin-antitoxin"
                ],
                "chem_acts_mibig": []
            },
            {
                "compound": "capsule",
                "chem_acts": [
                    "antimicrobial",
                    "antitoxin",
                    "pathogenic",
                    "resistance",
                    "resistant",
                    "toxin",
                    "toxin-antitoxin"
                ],
                "chem_acts_mibig": [],
                "chem_struct": "CC(C)OC1=C(C(=CC=C1)OC(C)C)C2=CC=CC=C2[PH+](C3CCCCC3)C4CCCCC4.CS(=O)(=O)O.C1=CC=C([C-]=C1)C2=CC=CC=C2N.[Pd]",
                "database_id": {
                    "pubchem": "92131450"
                },
                "mol_mass": "838.400",
                "molecular_formula": "C43H58NO5PPdS",
                "synonym": "RuPhos-Pd-G3 GT capsule"
            }
        ],
        "loci": {
            "accession": "DQ359712.1",
            "completeness": "Unknown",
            "title": "Streptococcus agalactiae strain B3 CpsA (cpsA), CpsB (cpsB), CpsC (cpsC), CpsD (cpsD), CpsE (cpsE), and CpsF (cpsF) genes, complete cds; cpsG gene, complete sequence; CpsH (cpsH), CpsM (cpsM), CpsN (cpsN), CpsO (cpsO), CpsJ (cpsJ), CpsK (cpsK), CpsL (cpsL), NeuB (neuB), NeuC (neuC), and NeuD (neuD) genes, complete cds; and NeuA (neuA) gene, partial cds"
        },
        "mibig_accession": "",
        "minimal": "true",
        "ncbi_tax_id": 1311,
        "organism_name": "Streptococcus agalactiae",
        "publications": [
            "PMC6242859"
        ]
    }
}