{
    "changelog": [
        {
            "comments": [
                "Submitted"
            ],
            "contributors": [
                "EMERALD"
            ],
            "version": "3.0"
        }
    ],
    "cluster": {
        "biosyn_class": {
            "Saccharide": 4
        },
        "compounds": [
            {
                "compound": "Kinema",
                "chem_acts": [
                    "bacteriophage",
                    "bacteriophages",
                    "cytotoxicus",
                    "health-beneficial",
                    "inhibitors"
                ],
                "chem_acts_mibig": [
                    "Cytotoxic",
                    "Inhibitor"
                ]
            }
        ],
        "loci": {
            "accession": "FN868642.1",
            "completeness": "Unknown",
            "title": "Pseudomonas stutzeri hydroxyectoine biosynthesis gene cluster, strain DSM 5190T"
        },
        "mibig_accession": "",
        "minimal": "true",
        "ncbi_tax_id": 316,
        "organism_name": "Pseudomonas stutzeri",
        "publications": [
            "PMC6688588"
        ]
    }
}