{
    "changelog": [
        {
            "comments": [
                "Submitted"
            ],
            "contributors": [
                "EMERALD"
            ],
            "version": "3.0"
        }
    ],
    "cluster": {
        "biosyn_class": {
            "Terpene": 4,
            "Saccharide": 3
        },
        "compounds": [
            {
                "compound": "RTX",
                "chem_acts": [
                    "Siderophore",
                    "Toxins",
                    "activation",
                    "antigen",
                    "antigenic",
                    "pathogenicity",
                    "protection",
                    "protective",
                    "resistance",
                    "siderophore",
                    "toxin",
                    "toxins",
                    "virulence",
                    "virulent"
                ],
                "chem_acts_mibig": [
                    "Siderophore"
                ],
                "chem_struct": "C[C@@H]1C[C@]2([C@H]3[C@H]4[C@]1([C@@H]5C=C(C(=O)[C@]5(CC(=C4)COC(=O)CC6=CC(=C(C=C6)O)OC)O)C)O[C@](O3)(O2)CC7=CC=CC=C7)C(=C)C",
                "database_id": {
                    "pubchem": "5702546"
                },
                "mol_mass": "628.700",
                "molecular_formula": "C37H40O9",
                "synonym": "RTX"
            }
        ],
        "loci": {
            "accession": "JF928377.1",
            "completeness": "Unknown",
            "title": "Candidatus Hamiltonella defensa strain 5ATAC putative ABC RTX toxin transporter (rtxB2), putative ABC associated RTX toxin transporter (rtxD), and putative ABC RTX toxin transporter (rtxB1) genes, complete cds"
        },
        "mibig_accession": "",
        "minimal": "true",
        "ncbi_tax_id": 138072,
        "organism_name": "Candidatus Hamiltonella defensa",
        "publications": [
            "PMC5322557"
        ]
    }
}