{
    "changelog": [
        {
            "comments": [
                "Submitted"
            ],
            "contributors": [
                "EMERALD"
            ],
            "version": "3.0"
        }
    ],
    "cluster": {
        "biosyn_class": {
            "Saccharide": 2
        },
        "compounds": [
            {
                "compound": "O1",
                "chem_acts": [
                    "Protective",
                    "antibody",
                    "antigen",
                    "anti–B",
                    "anti–C",
                    "anti–LPS",
                    "anti–LPS antibody",
                    "immunogenic",
                    "immunogenicity",
                    "inhibition",
                    "protective",
                    "vibriocidal",
                    "vibriocidal antibody"
                ],
                "chem_acts_mibig": [
                    "Inhibitor"
                ],
                "chem_struct": "COC(=O)NC(=S)OC",
                "database_id": {
                    "pubchem": "11344100"
                },
                "mol_mass": "149.170",
                "molecular_formula": "C4H7NO3S",
                "synonym": "Thioimidodicarbonic acid ((HO)C(O)NHC(S)(OH)), O1,O3-dimethyl ester"
            }
        ],
        "loci": {
            "accession": "KC152957.1",
            "completeness": "Unknown",
            "title": "Vibrio cholerae O1 biovar El Tor strain 95001 wbe gene cluster, complete sequence"
        },
        "mibig_accession": "",
        "minimal": "true",
        "ncbi_tax_id": 686,
        "organism_name": "Vibrio cholerae O1 biovar El Tor",
        "publications": [
            "PMC4232259"
        ]
    }
}