{
    "changelog": [
        {
            "comments": [
                "Submitted"
            ],
            "contributors": [
                "EMERALD"
            ],
            "version": "3.0"
        }
    ],
    "cluster": {
        "biosyn_class": {},
        "compounds": [
            {
                "compound": "30-84Enh",
                "chem_acts": [
                    "antagonistic",
                    "fungal growth inhibition",
                    "fungal inhibition",
                    "inhibit fungal growth",
                    "inhibition",
                    "suppression",
                    "take-all suppression"
                ],
                "chem_acts_mibig": [
                    "Inhibitor"
                ]
            },
            {
                "compound": "30-84ZN-Enh",
                "chem_acts": [
                    "antagonistic",
                    "fungal growth inhibition",
                    "fungal inhibition",
                    "inhibit fungal growth",
                    "inhibition",
                    "suppression",
                    "take-all suppression"
                ],
                "chem_acts_mibig": [
                    "Inhibitor"
                ]
            },
            {
                "compound": "AHLs",
                "chem_acts": [
                    "antagonistic",
                    "fungal growth inhibition",
                    "fungal inhibition",
                    "inhibit fungal growth",
                    "inhibition",
                    "suppression",
                    "take-all suppression"
                ],
                "chem_acts_mibig": [
                    "Inhibitor"
                ]
            },
            {
                "compound": "Phenazines",
                "chem_acts": [
                    "antagonistic",
                    "fungal growth inhibition",
                    "fungal inhibition",
                    "inhibit fungal growth",
                    "inhibition",
                    "suppression",
                    "take-all suppression"
                ],
                "chem_acts_mibig": [
                    "Inhibitor"
                ]
            },
            {
                "compound": "phenazine-1-carboxamide",
                "chem_acts": [
                    "antagonistic",
                    "fungal growth inhibition",
                    "fungal inhibition",
                    "inhibit fungal growth",
                    "inhibition",
                    "suppression",
                    "take-all suppression"
                ],
                "chem_acts_mibig": [
                    "Inhibitor"
                ],
                "chem_struct": "C1=CC=C2C(=C1)N=C3C=CC=C(C3=N2)C(=O)N",
                "database_id": {
                    "pubchem": "120282"
                },
                "mol_mass": "223.230",
                "molecular_formula": "C13H9N3O",
                "synonym": "phenazine-1-carboxamide"
            },
            {
                "compound": "phenazines",
                "chem_acts": [
                    "antagonistic",
                    "fungal growth inhibition",
                    "fungal inhibition",
                    "inhibit fungal growth",
                    "inhibition",
                    "suppression",
                    "take-all suppression"
                ],
                "chem_acts_mibig": [
                    "Inhibitor"
                ]
            }
        ],
        "loci": {
            "accession": "L48339.1",
            "completeness": "Unknown",
            "title": "Pseudomonas chlororaphis strain 30-84 PhzF (phzF), PhzA (phzA), PhzB (phzB), PhzC (phzC), and PhzD (phzD) genes, complete cds"
        },
        "mibig_accession": "",
        "minimal": "true",
        "ncbi_tax_id": 587851,
        "organism_name": "Pseudomonas chlororaphis subsp. aureofaciens",
        "publications": [
            "PMC5815613"
        ]
    }
}