{
    "changelog": [
        {
            "comments": [
                "Submitted"
            ],
            "contributors": [
                "EMERALD"
            ],
            "version": "3.0"
        }
    ],
    "cluster": {
        "biosyn_class": {},
        "compounds": [
            {
                "compound": "PCN",
                "chem_acts": [
                    "antifungal",
                    "growth-promoting"
                ],
                "chem_acts_mibig": [],
                "chem_struct": "CC(=O)[C@H]1[C@@H](C[C@@H]2[C@@]1(CC[C@H]3[C@H]2CC=C4[C@@]3(CC[C@@H](C4)O)C)C)C#N",
                "database_id": {
                    "pubchem": "15032"
                },
                "mol_mass": "341.500",
                "molecular_formula": "C22H31NO2",
                "synonym": "PCN"
            },
            {
                "compound": "Phenazine",
                "chem_acts": [
                    "antifungal",
                    "growth-promoting"
                ],
                "chem_acts_mibig": [],
                "chem_struct": "C1COCC[O+]=C2C=CC(=CC2=[O+]CCOCCO1)CN3C=CC(=C4C=CN(C=C4)CC5=CC6=NC7=CC=CC=C7N=C6C=C5)C=C3",
                "database_id": {
                    "pubchem": "101115699"
                },
                "mol_mass": "630.700",
                "molecular_formula": "C38H38N4O5+2",
                "synonym": "15-[1'-(Phenazine-2-ylmethyl)-4,4'-bipyridinium-1-ylmethyl]-2,3,5,6,8,9,11,12-octahydro-1,4,7,10,13-benzopentaoxacyclopentadecin"
            },
            {
                "compound": "alkanoyl-HSLs",
                "chem_acts": [
                    "antifungal",
                    "growth-promoting"
                ],
                "chem_acts_mibig": [],
                "chem_struct": "C1COC(=O)C1N",
                "database_id": {
                    "pubchem": "73509"
                },
                "mol_mass": "101.100",
                "molecular_formula": "C4H7NO2",
                "synonym": "HSL"
            },
            {
                "compound": "alkanoyl-homoserine",
                "chem_acts": [
                    "antifungal",
                    "growth-promoting"
                ],
                "chem_acts_mibig": []
            },
            {
                "compound": "phenazine-1-carboxamide",
                "chem_acts": [
                    "antifungal",
                    "growth-promoting"
                ],
                "chem_acts_mibig": [],
                "chem_struct": "C1=CC=C2C(=C1)N=C3C=CC=C(C3=N2)C(=O)N",
                "database_id": {
                    "pubchem": "120282"
                },
                "mol_mass": "223.230",
                "molecular_formula": "C13H9N3O",
                "synonym": "phenazine-1-carboxamide"
            },
            {
                "compound": "phenazines",
                "chem_acts": [
                    "antifungal",
                    "growth-promoting"
                ],
                "chem_acts_mibig": []
            }
        ],
        "loci": {
            "accession": "L48616.1",
            "completeness": "Unknown",
            "title": "Pseudomonas fluorescens autoinducer synthase (phzI) gene, positive regulator protein (phzR), phzABCDEFG genes, complete cds"
        },
        "mibig_accession": "",
        "minimal": "true",
        "ncbi_tax_id": 294,
        "organism_name": "Pseudomonas fluorescens",
        "publications": [
            "PMC5776774"
        ]
    }
}