{
    "changelog": [
        {
            "comments": [
                "Submitted"
            ],
            "contributors": [
                "EMERALD"
            ],
            "version": "3.0"
        }
    ],
    "cluster": {
        "biosyn_class": {},
        "compounds": [
            {
                "compound": "gramicidin S",
                "chem_acts": [
                    "Antimicrobial",
                    "Attenuated Virulence",
                    "antimicrobial",
                    "arthritis",
                    "attenuated virulence",
                    "bacterial defense",
                    "defense",
                    "killing",
                    "phagocytosis",
                    "resistance",
                    "resistant",
                    "toxic",
                    "virulence factor",
                    "virulent"
                ],
                "chem_acts_mibig": [],
                "chem_struct": "CC(C)C[C@H]1C(=O)N[C@@H](C(=O)N2CCC[C@H]2C(=O)N[C@H](C(=O)N[C@H](C(=O)N[C@H](C(=O)N[C@@H](C(=O)N3CCC[C@H]3C(=O)N[C@H](C(=O)N[C@H](C(=O)N1)CCCN)C(C)C)CC4=CC=CC=C4)CC(C)C)CCCN)C(C)C)CC5=CC=CC=C5",
                "database_id": {
                    "pubchem": "73357"
                },
                "mol_mass": "1141.400",
                "molecular_formula": "C60H92N12O10",
                "synonym": "gramicidin S"
            }
        ],
        "loci": {
            "accession": "M29703.1",
            "completeness": "Unknown",
            "title": "B.brevis gramicidin S biosynthesis operon grsT, grsA (complete cds) and grsB (5' end) genes"
        },
        "mibig_accession": "",
        "minimal": "true",
        "ncbi_tax_id": 1393,
        "organism_name": "Brevibacillus brevis",
        "publications": [
            "PMC2193429"
        ]
    }
}