{
    "changelog": [
        {
            "comments": [
                "Submitted"
            ],
            "contributors": [
                "EMERALD"
            ],
            "version": "3.0"
        }
    ],
    "cluster": {
        "biosyn_class": {
            "Saccharide": 3
        },
        "compounds": [
            {
                "compound": "capsule",
                "chem_acts": [
                    "antibiotic",
                    "pathogenesis"
                ],
                "chem_acts_mibig": [
                    "Antibacterial"
                ],
                "chem_struct": "CC(C)OC1=C(C(=CC=C1)OC(C)C)C2=CC=CC=C2[PH+](C3CCCCC3)C4CCCCC4.CS(=O)(=O)O.C1=CC=C([C-]=C1)C2=CC=CC=C2N.[Pd]",
                "database_id": {
                    "pubchem": "92131450"
                },
                "mol_mass": "838.400",
                "molecular_formula": "C43H58NO5PPdS",
                "synonym": "RuPhos-Pd-G3 GT capsule"
            }
        ],
        "loci": {
            "accession": "MF522810.1",
            "completeness": "Unknown",
            "title": "Acinetobacter baumannii strain Ab689 FkpA (fkpA) gene, complete cds; KL13 capsule biosynthesis gene cluster, complete sequence; and LldP (lldP) gene, complete cds"
        },
        "mibig_accession": "",
        "minimal": "true",
        "ncbi_tax_id": 470,
        "organism_name": "Acinetobacter baumannii",
        "publications": [
            "PMC5595891"
        ]
    }
}