{
    "changelog": [
        {
            "comments": [
                "Submitted"
            ],
            "contributors": [
                "EMERALD"
            ],
            "version": "3.0"
        }
    ],
    "cluster": {
        "biosyn_class": {
            "Saccharide": 6
        },
        "compounds": [
            {
                "compound": "O16",
                "chem_acts": [
                    "antigen",
                    "antigens",
                    "virulent"
                ],
                "chem_acts_mibig": [],
                "chem_struct": "C1=CC=C(C=C1)/C=C/C2=NN([N+](=N2)C3=NC4=CC=CC=C4S3)C5=CC6=C(C=C5)C(=O)NNC6=O",
                "database_id": {
                    "pubchem": "448998"
                },
                "mol_mass": "466.500",
                "molecular_formula": "C24H16N7O2S+",
                "synonym": "O16"
            }
        ],
        "loci": {
            "accession": "MH449677.1",
            "completeness": "Unknown",
            "title": "Aeromonas hydrophila O16 antigen biosynthesis gene cluster, complete sequence"
        },
        "mibig_accession": "",
        "minimal": "true",
        "ncbi_tax_id": 644,
        "organism_name": "Aeromonas hydrophila",
        "publications": [
            "PMC6124807"
        ]
    }
}