{
    "changelog": [
        {
            "comments": [
                "Submitted"
            ],
            "contributors": [
                "EMERALD"
            ],
            "version": "3.0"
        }
    ],
    "cluster": {
        "biosyn_class": {
            "Saccharide": 6
        },
        "compounds": [
            {
                "compound": "O30",
                "chem_acts": [
                    "antigen",
                    "antigens",
                    "virulent"
                ],
                "chem_acts_mibig": [],
                "chem_struct": "C1CCC2=C(C1)C(=NN2CC(=O)NC3=C(C4=C(S3)CC=CC4)C(=O)NCCCN)C(F)(F)F",
                "database_id": {
                    "pubchem": "46870036"
                },
                "mol_mass": "481.500",
                "molecular_formula": "C22H26F3N5O2S",
                "synonym": "O30"
            }
        ],
        "loci": {
            "accession": "MH449683.1",
            "completeness": "Unknown",
            "title": "Aeromonas hydrophila O30 antigen biosynthesis gene cluster, complete sequence"
        },
        "mibig_accession": "",
        "minimal": "true",
        "ncbi_tax_id": 644,
        "organism_name": "Aeromonas hydrophila",
        "publications": [
            "PMC6124807"
        ]
    }
}