{
    "changelog": [
        {
            "comments": [
                "Submitted"
            ],
            "contributors": [
                "EMERALD"
            ],
            "version": "3.0"
        }
    ],
    "cluster": {
        "biosyn_class": {
            "NRP": 3,
            "Polyketide": 2
        },
        "compounds": [
            {
                "compound": "Pyoverdine",
                "chem_acts": [
                    "Antagonistic",
                    "Antimicrobial",
                    "antagonism",
                    "antagonistic",
                    "anti-sigma",
                    "anti-tumor",
                    "antibiotic",
                    "antimicrobial",
                    "antitumor",
                    "bacteriocins",
                    "growth inhibitory",
                    "immunity",
                    "inhibitory",
                    "siderophore",
                    "siderophores"
                ],
                "chem_acts_mibig": [
                    "Antibacterial",
                    "Inhibitor",
                    "Siderophore"
                ],
                "chem_struct": "CC(C1C(=O)NC(C(=O)NCCCCC(C(=O)NC(C(=O)N1)CCCN(C=O)O)NC(=O)C(CCCN(C=O)O)NC(=O)C(CO)NC(=O)C(CCCN=C(N)N)NC(=O)C(CO)NC(=O)C2CCNC3N2C4=CC(=C(C=C4C=C3NC(=O)CCC(C(=O)O)N)O)O)C(C)O)O",
                "database_id": {
                    "pubchem": "57012495"
                },
                "mol_mass": "1365.400",
                "molecular_formula": "C56H88N18O22",
                "synonym": "Pyoverdine"
            },
            {
                "compound": "ferripyoverdine",
                "chem_acts": [
                    "Antagonistic",
                    "Antimicrobial",
                    "antagonism",
                    "antagonistic",
                    "anti-sigma",
                    "anti-tumor",
                    "antibiotic",
                    "antimicrobial",
                    "antitumor",
                    "bacteriocins",
                    "growth inhibitory",
                    "immunity",
                    "inhibitory",
                    "siderophore",
                    "siderophores"
                ],
                "chem_acts_mibig": [
                    "Antibacterial",
                    "Inhibitor",
                    "Siderophore"
                ]
            }
        ],
        "loci": {
            "accession": "U07359.1",
            "completeness": "Unknown",
            "title": "Pseudomonas aeruginosa pyoverdine synthetase D (pvdD), ferripyoverdine receptor (fpvA), pyoverdine synthetase E (pvdE), and pyoverdine synthetase F (pvdF) genes, complete cds; and unknown genes"
        },
        "mibig_accession": "",
        "minimal": "true",
        "ncbi_tax_id": 287,
        "organism_name": "Pseudomonas aeruginosa",
        "publications": [
            "PMC4219678"
        ]
    }
}