{
    "changelog": [
        {
            "comments": [
                "Submitted"
            ],
            "contributors": [
                "EMERALD"
            ],
            "version": "3.0"
        }
    ],
    "cluster": {
        "biosyn_class": {
            "Terpene": 2
        },
        "compounds": [
            {
                "compound": "cyp115",
                "chem_acts": [
                    "phytohormone"
                ],
                "chem_acts_mibig": []
            }
        ],
        "loci": {
            "accession": "U12678.1",
            "completeness": "Unknown",
            "title": "Bradyrhizobium japonicum USDA 110 cytochrome P-450 BJ-2 (CYP115P) pseudogene, cytochrome P-450 BJ-1 (CYP112) gene, cytochrome P-450 BJ-3 (CYP114) gene, putative ferredoxin gene, putative sterol dehydrogenase-like enzyme gene, cytochrome P-450 BJ-4 (CYP117) gene, and putative dimethylallyltranstransferase gene, complete cds"
        },
        "mibig_accession": "",
        "minimal": "true",
        "ncbi_tax_id": 224911,
        "organism_name": "Bradyrhizobium diazoefficiens USDA 110",
        "publications": [
            "PMC7273348"
        ]
    }
}