{
    "changelog": [
        {
            "comments": [
                "Submitted"
            ],
            "contributors": [
                "EMERALD"
            ],
            "version": "3.0"
        }
    ],
    "cluster": {
        "biosyn_class": {},
        "compounds": [
            {
                "compound": "Sβ",
                "chem_acts": [],
                "chem_acts_mibig": []
            },
            {
                "compound": "vanillin",
                "chem_acts": [],
                "chem_acts_mibig": [],
                "chem_struct": "COC1=C(C=CC(=C1)C=O)O",
                "database_id": {
                    "pubchem": "1183"
                },
                "mol_mass": "152.150",
                "molecular_formula": "C8H8O3",
                "synonym": "vanillin"
            }
        ],
        "loci": {
            "accession": "AB571799.1",
            "completeness": "Unknown",
            "title": "Sphingobium sp. SYK-6 genes for putative mannose-6-phosphate isomerase, beta-etherase, putative TetR family transcriptional regulator, complete cds"
        },
        "mibig_accession": "",
        "minimal": "true",
        "ncbi_tax_id": 627192,
        "organism_name": "Sphingobium sp. SYK-6",
        "publications": [
            "PMC4207535"
        ]
    }
}