{
    "changelog": [
        {
            "comments": [
                "Submitted"
            ],
            "contributors": [
                "EMERALD"
            ],
            "version": "3.0"
        }
    ],
    "cluster": {
        "biosyn_class": {
            "Terpene": 2
        },
        "compounds": [
            {
                "compound": "NTNH",
                "chem_acts": [
                    "Apoptosis",
                    "apoptosis",
                    "apoptotic",
                    "cell death",
                    "necrotic",
                    "neurotoxin",
                    "neurotoxin-associated",
                    "neurotoxins",
                    "toxicity",
                    "toxin",
                    "toxin-like",
                    "toxins"
                ],
                "chem_acts_mibig": [
                    "Cytotoxic"
                ]
            }
        ],
        "loci": {
            "accession": "AB745669.1",
            "completeness": "Unknown",
            "title": "Clostridium botulinum orf22, ha70, ha17, ha33, ntnh, bont/DC genes for probable neurotoxin regulator protein, hemagglutinin component HA70, hemagglutinin component HA17, hemagglutinin component HA33, D/C mosaic neurotoxin nontoxic nonhemagglutinin component, D/C mosaic neurotoxin, complete cds, strain: OFD16"
        },
        "mibig_accession": "",
        "minimal": "true",
        "ncbi_tax_id": 1491,
        "organism_name": "Clostridium botulinum",
        "publications": [
            "PMC6367388"
        ]
    }
}