{
    "changelog": [
        {
            "comments": [
                "Submitted"
            ],
            "contributors": [
                "EMERALD"
            ],
            "version": "3.0"
        }
    ],
    "cluster": {
        "biosyn_class": {},
        "compounds": [
            {
                "compound": "QS",
                "chem_acts": [
                    "virulence"
                ],
                "chem_acts_mibig": [],
                "chem_struct": "C(CC(=O)N)C(C(=O)NC(CO)C(=O)O)N",
                "database_id": {
                    "pubchem": "18218211"
                },
                "mol_mass": "233.220",
                "molecular_formula": "C8H15N3O5",
                "synonym": "QS"
            }
        ],
        "loci": {
            "accession": "AF019654.1",
            "completeness": "Unknown",
            "title": "Burkholderia cepacia acyl homoserine lactone synthase (cepI) and transcriptional activator (cepR) genes, complete cds"
        },
        "mibig_accession": "",
        "minimal": "true",
        "ncbi_tax_id": 292,
        "organism_name": "Burkholderia cepacia",
        "publications": [
            "PMC4169324"
        ]
    }
}