{
    "changelog": [
        {
            "comments": [
                "Submitted"
            ],
            "contributors": [
                "EMERALD"
            ],
            "version": "3.0"
        }
    ],
    "cluster": {
        "biosyn_class": {},
        "compounds": [
            {
                "compound": "30-84Enh",
                "chem_acts": [
                    "antagonistic",
                    "fungal growth inhibition",
                    "fungal inhibition",
                    "inhibit fungal growth",
                    "inhibition",
                    "suppression",
                    "take-all suppression"
                ],
                "chem_acts_mibig": [
                    "Inhibitor"
                ]
            },
            {
                "compound": "30-84ZN-Enh",
                "chem_acts": [
                    "antagonistic",
                    "fungal growth inhibition",
                    "fungal inhibition",
                    "inhibit fungal growth",
                    "inhibition",
                    "suppression",
                    "take-all suppression"
                ],
                "chem_acts_mibig": [
                    "Inhibitor"
                ]
            },
            {
                "compound": "AHLs",
                "chem_acts": [
                    "antagonistic",
                    "fungal growth inhibition",
                    "fungal inhibition",
                    "inhibit fungal growth",
                    "inhibition",
                    "suppression",
                    "take-all suppression"
                ],
                "chem_acts_mibig": [
                    "Inhibitor"
                ]
            },
            {
                "compound": "Phenazines",
                "chem_acts": [
                    "antagonistic",
                    "fungal growth inhibition",
                    "fungal inhibition",
                    "inhibit fungal growth",
                    "inhibition",
                    "suppression",
                    "take-all suppression"
                ],
                "chem_acts_mibig": [
                    "Inhibitor"
                ]
            },
            {
                "compound": "phenazine-1-carboxamide",
                "chem_acts": [
                    "antagonistic",
                    "fungal growth inhibition",
                    "fungal inhibition",
                    "inhibit fungal growth",
                    "inhibition",
                    "suppression",
                    "take-all suppression"
                ],
                "chem_acts_mibig": [
                    "Inhibitor"
                ],
                "chem_struct": "C1=CC=C2C(=C1)N=C3C=CC=C(C3=N2)C(=O)N",
                "database_id": {
                    "pubchem": "120282"
                },
                "mol_mass": "223.230",
                "molecular_formula": "C13H9N3O",
                "synonym": "phenazine-1-carboxamide"
            },
            {
                "compound": "phenazines",
                "chem_acts": [
                    "antagonistic",
                    "fungal growth inhibition",
                    "fungal inhibition",
                    "inhibit fungal growth",
                    "inhibition",
                    "suppression",
                    "take-all suppression"
                ],
                "chem_acts_mibig": [
                    "Inhibitor"
                ]
            }
        ],
        "loci": {
            "accession": "AF092442.1",
            "completeness": "Unknown",
            "title": "Pseudomonas aeruginosa phenazine biosynthesis proteins PhzA (phzA) and PhzB (phzB) genes, complete cds; and PhzC (phzC) gene, partial cds"
        },
        "mibig_accession": "",
        "minimal": "true",
        "ncbi_tax_id": 287,
        "organism_name": "Pseudomonas aeruginosa",
        "publications": [
            "PMC5815613"
        ]
    }
}