{
    "changelog": [
        {
            "comments": [
                "Submitted"
            ],
            "contributors": [
                "EMERALD"
            ],
            "version": "3.0"
        }
    ],
    "cluster": {
        "biosyn_class": {},
        "compounds": [
            {
                "compound": "O1",
                "chem_acts": [
                    "Hemolysis",
                    "Hemolytic",
                    "diarrheal",
                    "enterotoxin",
                    "hemolysis",
                    "hemolytic",
                    "lytic",
                    "toxin",
                    "toxin toxin",
                    "toxin-coregulated",
                    "toxins",
                    "virulence",
                    "virulence-associated"
                ],
                "chem_acts_mibig": [],
                "chem_struct": "COC(=O)NC(=S)OC",
                "database_id": {
                    "pubchem": "11344100"
                },
                "mol_mass": "149.170",
                "molecular_formula": "C4H7NO3S",
                "synonym": "Thioimidodicarbonic acid ((HO)C(O)NHC(S)(OH)), O1,O3-dimethyl ester"
            },
            {
                "compound": "RTX",
                "chem_acts": [
                    "Hemolysis",
                    "Hemolytic",
                    "diarrheal",
                    "enterotoxin",
                    "hemolysis",
                    "hemolytic",
                    "lytic",
                    "toxin",
                    "toxin toxin",
                    "toxin-coregulated",
                    "toxins",
                    "virulence",
                    "virulence-associated"
                ],
                "chem_acts_mibig": [],
                "chem_struct": "C[C@@H]1C[C@]2([C@H]3[C@H]4[C@]1([C@@H]5C=C(C(=O)[C@]5(CC(=C4)COC(=O)CC6=CC(=C(C=C6)O)OC)O)C)O[C@](O3)(O2)CC7=CC=CC=C7)C(=C)C",
                "database_id": {
                    "pubchem": "5702546"
                },
                "mol_mass": "628.700",
                "molecular_formula": "C37H40O9",
                "synonym": "RTX"
            },
            {
                "compound": "SLV",
                "chem_acts": [
                    "Hemolysis",
                    "Hemolytic",
                    "diarrheal",
                    "enterotoxin",
                    "hemolysis",
                    "hemolytic",
                    "lytic",
                    "toxin",
                    "toxin toxin",
                    "toxin-coregulated",
                    "toxins",
                    "virulence",
                    "virulence-associated"
                ],
                "chem_acts_mibig": [],
                "chem_struct": "CCCC1=C(C=C(C=C1)NC(=O)C)O",
                "database_id": {
                    "pubchem": "2775145"
                },
                "mol_mass": "193.240",
                "molecular_formula": "C11H15NO2",
                "synonym": "SLV"
            },
            {
                "compound": "VN-00168",
                "chem_acts": [
                    "Hemolysis",
                    "Hemolytic",
                    "diarrheal",
                    "enterotoxin",
                    "hemolysis",
                    "hemolytic",
                    "lytic",
                    "toxin",
                    "toxin toxin",
                    "toxin-coregulated",
                    "toxins",
                    "virulence",
                    "virulence-associated"
                ],
                "chem_acts_mibig": []
            },
            {
                "compound": "VN-00300",
                "chem_acts": [
                    "Hemolysis",
                    "Hemolytic",
                    "diarrheal",
                    "enterotoxin",
                    "hemolysis",
                    "hemolytic",
                    "lytic",
                    "toxin",
                    "toxin toxin",
                    "toxin-coregulated",
                    "toxins",
                    "virulence",
                    "virulence-associated"
                ],
                "chem_acts_mibig": []
            },
            {
                "compound": "VN-00459",
                "chem_acts": [
                    "Hemolysis",
                    "Hemolytic",
                    "diarrheal",
                    "enterotoxin",
                    "hemolysis",
                    "hemolytic",
                    "lytic",
                    "toxin",
                    "toxin toxin",
                    "toxin-coregulated",
                    "toxins",
                    "virulence",
                    "virulence-associated"
                ],
                "chem_acts_mibig": []
            },
            {
                "compound": "VN-00470",
                "chem_acts": [
                    "Hemolysis",
                    "Hemolytic",
                    "diarrheal",
                    "enterotoxin",
                    "hemolysis",
                    "hemolytic",
                    "lytic",
                    "toxin",
                    "toxin toxin",
                    "toxin-coregulated",
                    "toxins",
                    "virulence",
                    "virulence-associated"
                ],
                "chem_acts_mibig": []
            },
            {
                "compound": "VN-10012",
                "chem_acts": [
                    "Hemolysis",
                    "Hemolytic",
                    "diarrheal",
                    "enterotoxin",
                    "hemolysis",
                    "hemolytic",
                    "lytic",
                    "toxin",
                    "toxin toxin",
                    "toxin-coregulated",
                    "toxins",
                    "virulence",
                    "virulence-associated"
                ],
                "chem_acts_mibig": []
            },
            {
                "compound": "VN-10143",
                "chem_acts": [
                    "Hemolysis",
                    "Hemolytic",
                    "diarrheal",
                    "enterotoxin",
                    "hemolysis",
                    "hemolytic",
                    "lytic",
                    "toxin",
                    "toxin toxin",
                    "toxin-coregulated",
                    "toxins",
                    "virulence",
                    "virulence-associated"
                ],
                "chem_acts_mibig": []
            },
            {
                "compound": "VN-10191",
                "chem_acts": [
                    "Hemolysis",
                    "Hemolytic",
                    "diarrheal",
                    "enterotoxin",
                    "hemolysis",
                    "hemolytic",
                    "lytic",
                    "toxin",
                    "toxin toxin",
                    "toxin-coregulated",
                    "toxins",
                    "virulence",
                    "virulence-associated"
                ],
                "chem_acts_mibig": []
            },
            {
                "compound": "hemolysins",
                "chem_acts": [
                    "Hemolysis",
                    "Hemolytic",
                    "diarrheal",
                    "enterotoxin",
                    "hemolysis",
                    "hemolytic",
                    "lytic",
                    "toxin",
                    "toxin toxin",
                    "toxin-coregulated",
                    "toxins",
                    "virulence",
                    "virulence-associated"
                ],
                "chem_acts_mibig": []
            }
        ],
        "loci": {
            "accession": "AF414368.2",
            "completeness": "Unknown",
            "title": "Vibrio phage CTX RstA2 (rstA2) gene, partial cds; RstB2 (rstB2), Cep (cep), OrfU (orfU), and Ace (ace) genes, complete cds; and Zot (zot) gene, partial cds"
        },
        "mibig_accession": "",
        "minimal": "true",
        "ncbi_tax_id": 141904,
        "organism_name": "Vibrio virus CTXphi",
        "publications": [
            "PMC6474259"
        ]
    }
}