{
    "changelog": [
        {
            "comments": [
                "Submitted"
            ],
            "contributors": [
                "EMERALD"
            ],
            "version": "3.0"
        }
    ],
    "cluster": {
        "biosyn_class": {},
        "compounds": [
            {
                "compound": "Pse",
                "chem_acts": [
                    "activation"
                ],
                "chem_acts_mibig": [],
                "chem_struct": "C[C@@H]([C@@H]([C@H]1[C@H]([C@H](C[C@](O1)(C(=O)O)O)O)N)N)O",
                "database_id": {
                    "pubchem": "101137651"
                },
                "mol_mass": "250.250",
                "molecular_formula": "C9H18N2O6",
                "synonym": "Pse"
            }
        ],
        "loci": {
            "accession": "AY102622.2",
            "completeness": "Unknown",
            "title": "Campylobacter jejuni subsp. jejuni 81-176 putative biotin decarboxylase (accC) gene, partial cds; and putative biotin decarboxylase (accB), unknown (Cj1292), putative UDP GlcNAc dehydratase/reductase (pseB), PseC (pseC), unknown (Cj1300c), unknown (Cj1298), AccP (accP), unknown (CjB1301), unknown (Cj1302), FabH2 (fabH2), AccP (accP), unknown (Cj1305c), PseF (pseF), PseG (pseG), PseH (pseH), unknown (CJ1314c), unknown (CJ1315c), PseA (pseA), PseI (pseI), unknown (Cj1334), PseD (pseD), PseE (pseE), FlaB (flaB), FlaA (flaA), unknown (Cj1341c), and unknown (Cj1342c) genes, complete cds"
        },
        "mibig_accession": "",
        "minimal": "true",
        "ncbi_tax_id": 354242,
        "organism_name": "Campylobacter jejuni subsp. jejuni 81-176",
        "publications": [
            "PMC3735588"
        ]
    }
}