{
    "changelog": [
        {
            "comments": [
                "Submitted"
            ],
            "contributors": [
                "EMERALD"
            ],
            "version": "3.0"
        }
    ],
    "cluster": {
        "biosyn_class": {},
        "compounds": [
            {
                "compound": "prepilin",
                "chem_acts": [
                    "bacterial virulence factors"
                ],
                "chem_acts_mibig": []
            }
        ],
        "loci": {
            "accession": "AY249242.1",
            "completeness": "Unknown",
            "title": "Salmonella enterica subsp. enterica serovar Paratyphi C strain CN13/87 topoisomerase B (topB), single-strand DNA-binding protein (ssb), and Ytl2 (ytl2) genes, complete cds; pil operon, complete sequence; and Rci site-specific recombinase (rci) gene, complete cds"
        },
        "mibig_accession": "",
        "minimal": "true",
        "ncbi_tax_id": 57046,
        "organism_name": "Salmonella enterica subsp. enterica serovar Paratyphi C",
        "publications": [
            "PMC3984277"
        ]
    }
}