{
    "changelog": [
        {
            "comments": [
                "Submitted"
            ],
            "contributors": [
                "EMERALD"
            ],
            "version": "3.0"
        }
    ],
    "cluster": {
        "biosyn_class": {},
        "compounds": [
            {
                "compound": "m-xylene",
                "chem_acts": [
                    "inducing"
                ],
                "chem_acts_mibig": [],
                "chem_struct": "CC1=CC(=CC=C1)C",
                "database_id": {
                    "pubchem": "7929"
                },
                "mol_mass": "106.160",
                "molecular_formula": "C8H10",
                "synonym": "m-xylene"
            }
        ],
        "loci": {
            "accession": "DQ988527.1",
            "completeness": "Unknown",
            "title": "Azoarcus sp. CIB toluene and m-xylene anaerobic degradation gene cluster, partial sequence"
        },
        "mibig_accession": "",
        "minimal": "true",
        "ncbi_tax_id": 198107,
        "organism_name": "Azoarcus sp. CIB",
        "publications": [
            "PMC4424350"
        ]
    }
}