{
    "changelog": [
        {
            "comments": [
                "Submitted"
            ],
            "contributors": [
                "EMERALD"
            ],
            "version": "3.0"
        }
    ],
    "cluster": {
        "biosyn_class": {},
        "compounds": [
            {
                "compound": "MV",
                "chem_acts": [
                    "biocatalyst",
                    "bioremediation",
                    "photocatalytic",
                    "protection",
                    "self-aggregation",
                    "self-assembly",
                    "self-photosynthesis"
                ],
                "chem_acts_mibig": [],
                "chem_struct": "CC(C)[C@@H](C(=O)N[C@@H](C(C)C)C(=O)N(C)[C@@H](C(C)C)C(=O)N(C)[C@@H](C(C)C)C(=O)N(C)[C@@H](C(C)C)C(=O)N[C@@H](C(C)C)C(=O)N(C)[C@@H](C(C)C)C(=O)NCC(C1=CC=CC=C1)O)NC",
                "database_id": {
                    "pubchem": "122201473"
                },
                "mol_mass": "901.200",
                "molecular_formula": "C48H84N8O8",
                "synonym": "mV-V-mV-mV-mV-V-mV-137"
            }
        ],
        "loci": {
            "accession": "EF032163.1",
            "completeness": "Unknown",
            "title": "Enterobacteria phage MV SS tail tube glycoprotein 18 (gp18) gene, partial cds; tail tube glycoprotein 19 (gp19) gene, complete cds; and tail tube glycoprotein 20 (gp20) gene, partial cds"
        },
        "mibig_accession": "",
        "minimal": "true",
        "ncbi_tax_id": 382653,
        "organism_name": "Enterobacteria phage MV SS",
        "publications": [
            "PMC5821488"
        ]
    }
}