{
    "changelog": [
        {
            "comments": [
                "Submitted"
            ],
            "contributors": [
                "EMERALD"
            ],
            "version": "3.0"
        }
    ],
    "cluster": {
        "biosyn_class": {},
        "compounds": [
            {
                "compound": "VIM",
                "chem_acts": [
                    "Antibiotic",
                    "Antibiotics resistance",
                    "Antimicrobial",
                    "Hematology",
                    "antibiotic",
                    "antibiotics",
                    "drug-resistant",
                    "resistance",
                    "resistant"
                ],
                "chem_acts_mibig": [
                    "Antibacterial"
                ],
                "chem_struct": "CCCCCCCCCCCCC/C=C/[C@H]([C@H](CO[C@H]1C([C@H]([C@@H](C(O1)CO)O[C@H]2C([C@H]([C@H](C(O2)CO)O)O[C@H]3C([C@H]([C@@H](C(O3)CO)O[C@H]4C([C@H]([C@H](C(O4)CO)O)O[C@H]5C([C@H]([C@@H](C(O5)CO)O[C@H]6C([C@H]([C@H](C(O6)CO)O)O[C@@]7(CC([C@H](C(O7)[C@@H]([C@@H](CO)O)O)NC(=O)C)O)C(=O)O)O)O)NC(=O)C)O)O[C@@H]8[C@H](C([C@@H](C(O8)C)O)O)O)NC(=O)C)O)O)O)NC(=O)CCCCCCCCCCCCCCC/C=C\\CCCCCCCC)O",
                "database_id": {
                    "pubchem": "44263019"
                },
                "mol_mass": "2168.500",
                "molecular_formula": "C101H178N4O45",
                "synonym": "VIM-II(d18:1/26:1(17Z))"
            }
        ],
        "loci": {
            "accession": "EF690695.1",
            "completeness": "Unknown",
            "title": "Acinetobacter baumannii class I integron In-Ab10a integrase (intI) gene, partial cds, ORF11 (orf11), ACC (6')-Ib (aac (6')-Ib), and VIM-1 (blaVIM-1) genes, complete cds, and QacEdelta1 (qacEdelta1) gene, partial cds"
        },
        "mibig_accession": "",
        "minimal": "true",
        "ncbi_tax_id": 470,
        "organism_name": "Acinetobacter baumannii",
        "publications": [
            "PMC4328433"
        ]
    }
}