{
    "changelog": [
        {
            "comments": [
                "Submitted"
            ],
            "contributors": [
                "EMERALD"
            ],
            "version": "3.0"
        }
    ],
    "cluster": {
        "biosyn_class": {},
        "compounds": [
            {
                "compound": "nitriloacetic acid",
                "chem_acts": [
                    "cancers"
                ],
                "chem_acts_mibig": [],
                "chem_struct": "C(#N)C(=O)O",
                "database_id": {
                    "pubchem": "9812747"
                },
                "mol_mass": "71.030",
                "molecular_formula": "C2HNO2",
                "synonym": "nitriloacetic acid"
            }
        ],
        "loci": {
            "accession": "EU675332.1",
            "completeness": "Unknown",
            "title": "Clostridium hylemonae strain TN271 BaiB (baiB), BaiCD (baiCD), BaiE (baiE), BaiF (baiF), BaiG (baiG), BaiH (baiH), and BaiI (baiI) genes, complete cds"
        },
        "mibig_accession": "",
        "minimal": "true",
        "ncbi_tax_id": 553973,
        "organism_name": "[Clostridium] hylemonae DSM 15053",
        "publications": [
            "PMC2275164"
        ]
    }
}