{
    "changelog": [
        {
            "comments": [
                "Submitted"
            ],
            "contributors": [
                "EMERALD"
            ],
            "version": "3.0"
        }
    ],
    "cluster": {
        "biosyn_class": {},
        "compounds": [
            {
                "compound": "phenazine",
                "chem_acts": [
                    "antibiotic",
                    "pathogenesis",
                    "pigments"
                ],
                "chem_acts_mibig": [
                    "Antibacterial"
                ],
                "chem_struct": "C1COCC[O+]=C2C=CC(=CC2=[O+]CCOCCO1)CN3C=CC(=C4C=CN(C=C4)CC5=CC6=NC7=CC=CC=C7N=C6C=C5)C=C3",
                "database_id": {
                    "pubchem": "101115699"
                },
                "mol_mass": "630.700",
                "molecular_formula": "C38H38N4O5+2",
                "synonym": "15-[1'-(Phenazine-2-ylmethyl)-4,4'-bipyridinium-1-ylmethyl]-2,3,5,6,8,9,11,12-octahydro-1,4,7,10,13-benzopentaoxacyclopentadecin"
            }
        ],
        "loci": {
            "accession": "EU864034.1",
            "completeness": "Unknown",
            "title": "Azospirillum brasilense histone acetyltransferase HPA2 (hpa2), phenazine biosynthesis PhzC/PhzF protein, dehydratase (maoC), molecular chaperone (dnaK), glutamine synthetase (glnA), nitrogen regulatory protein P-II (glnB), hypothetical protein, malonyl-CoA decarboxylase (matA), trigger factor (tig), ATP-dependent Clp protease proteolytic subunit (clpP), ATP-dependent Clp protease ATP-binding subunit (clpX), ATP-dependent protease La (lon), and bacterial nucleoid DNA-binding protein (hupB) genes, complete cds; nuoAB operon, complete sequence; and NADH dehydrogenase subunit B (nuoB) gene, complete cds"
        },
        "mibig_accession": "",
        "minimal": "true",
        "ncbi_tax_id": 192,
        "organism_name": "Azospirillum brasilense",
        "publications": [
            "PMC471576"
        ]
    }
}