{
    "changelog": [
        {
            "comments": [
                "Submitted"
            ],
            "contributors": [
                "EMERALD"
            ],
            "version": "3.0"
        }
    ],
    "cluster": {
        "biosyn_class": {},
        "compounds": [
            {
                "compound": "HM21",
                "chem_acts": [
                    "Siderophore",
                    "antibiotic",
                    "growth inhibition",
                    "pathogenic",
                    "siderophore",
                    "siderophore-heme",
                    "siderophore-independent",
                    "siderophores",
                    "virulence factor"
                ],
                "chem_acts_mibig": [
                    "Antibacterial",
                    "Inhibitor",
                    "Siderophore"
                ]
            }
        ],
        "loci": {
            "accession": "HM569268.1",
            "completeness": "Unknown",
            "title": "Aeromonas veronii strain Hm21 isochorismatase family protein gene, partial cds; and hypothetical protein, outer-membrane heme receptor (hemA), transcriptional activator, and heme iron utilization protein (hemZ) genes, complete cds"
        },
        "mibig_accession": "",
        "minimal": "true",
        "ncbi_tax_id": 654,
        "organism_name": "Aeromonas veronii",
        "publications": [
            "PMC4516982"
        ]
    }
}