{
    "changelog": [
        {
            "comments": [
                "Submitted"
            ],
            "contributors": [
                "EMERALD"
            ],
            "version": "3.0"
        }
    ],
    "cluster": {
        "biosyn_class": {},
        "compounds": [
            {
                "compound": "15-diacetoxyscirpenol-neosolaniol-T-2",
                "chem_acts": [
                    "Mycotoxin",
                    "mycotoxins",
                    "toxin"
                ],
                "chem_acts_mibig": []
            },
            {
                "compound": "8-acetylneosolaniol",
                "chem_acts": [
                    "Mycotoxin",
                    "mycotoxins",
                    "toxin"
                ],
                "chem_acts_mibig": [],
                "chem_struct": "CC1=C[C@@H]2[C@](C[C@@H]1OC(=O)C)([C@]3([C@@H]([C@H]([C@H]([C@@]34CO4)O2)O)OC(=O)C)C)COC(=O)C",
                "database_id": {
                    "pubchem": "13879996"
                },
                "mol_mass": "424.400",
                "molecular_formula": "C21H28O9",
                "synonym": "8-acetylneosolaniol"
            },
            {
                "compound": "8-acylneosolaniol",
                "chem_acts": [
                    "Mycotoxin",
                    "mycotoxins",
                    "toxin"
                ],
                "chem_acts_mibig": []
            },
            {
                "compound": "8-butyrylneosolaniol",
                "chem_acts": [
                    "Mycotoxin",
                    "mycotoxins",
                    "toxin"
                ],
                "chem_acts_mibig": []
            },
            {
                "compound": "8-propionylneosolaniol",
                "chem_acts": [
                    "Mycotoxin",
                    "mycotoxins",
                    "toxin"
                ],
                "chem_acts_mibig": [],
                "chem_struct": "CCC(=O)O[C@H]1C[C@]2(C(C=C1C)OC3[C@@H]([C@H](C2(C34CO4)C)OC(=O)C)O)COC(=O)C",
                "database_id": {
                    "pubchem": "102515220"
                },
                "mol_mass": "438.500",
                "molecular_formula": "C22H30O9",
                "synonym": "8-propionylneosolaniol"
            },
            {
                "compound": "toxin (= 8-isovalerylneosolaniol",
                "chem_acts": [
                    "Mycotoxin",
                    "mycotoxins",
                    "toxin"
                ],
                "chem_acts_mibig": []
            },
            {
                "compound": "trichothecenes",
                "chem_acts": [
                    "Mycotoxin",
                    "mycotoxins",
                    "toxin"
                ],
                "chem_acts_mibig": []
            }
        ],
        "loci": {
            "accession": "HQ594542.1",
            "completeness": "Unknown",
            "title": "Fusarium sporotrichioides culture-collection NRRL:53434 trichothecene C-8 hydroxylase cytochrome P450 monooxygenase (TRI1) gene, complete cds; and trichothecene C-8 acyl transferase (TRI16) gene, partial cds"
        },
        "mibig_accession": "",
        "minimal": "true",
        "ncbi_tax_id": 5514,
        "organism_name": "Fusarium sporotrichioides",
        "publications": [
            "PMC4663521"
        ]
    }
}