{
    "changelog": [
        {
            "comments": [
                "Submitted"
            ],
            "contributors": [
                "EMERALD"
            ],
            "version": "3.0"
        }
    ],
    "cluster": {
        "biosyn_class": {},
        "compounds": [
            {
                "compound": "IMP-8",
                "chem_acts": [
                    "AntibioticsMinimal Inhibitory",
                    "Antimicrobial resistance",
                    "antibiotics",
                    "antimicrobial",
                    "inhibitor",
                    "multidrug resistance",
                    "resistance",
                    "resistant"
                ],
                "chem_acts_mibig": [
                    "Antibacterial",
                    "Inhibitor"
                ]
            }
        ],
        "loci": {
            "accession": "HQ651093.1",
            "completeness": "Unknown",
            "title": "Klebsiella oxytoca plasmid pFP10-2 hypothetical protein gene, partial cds; insertion sequence IS26 TnpA transposase (tnpA) gene, complete cds; class 1 integrase (intI1) gene, complete sequence; and metallo-beta-lactamase IMP-8 (blaIMP-8), aminoglycoside 6'-N-acetyltransferase (aacA4), and TniC (tniC) genes, complete cds"
        },
        "mibig_accession": "",
        "minimal": "true",
        "ncbi_tax_id": 571,
        "organism_name": "Klebsiella oxytoca",
        "publications": [
            "PMC6629617"
        ]
    }
}