{
    "changelog": [
        {
            "comments": [
                "Submitted"
            ],
            "contributors": [
                "EMERALD"
            ],
            "version": "3.0"
        }
    ],
    "cluster": {
        "biosyn_class": {
            "NRP": 2,
            "RiPP": 5,
            "Saccharide": 1
        },
        "compounds": [
            {
                "compound": "tetracycline",
                "chem_acts": [
                    "Antibiotic resistance",
                    "AntibioticsProtein",
                    "Resistance",
                    "antibiotic",
                    "antibiotic resistance",
                    "antibiotics",
                    "antibiotics20",
                    "antifungal",
                    "defense",
                    "growth-promoting",
                    "immunity",
                    "inhibit the growth",
                    "pathogenesis",
                    "resistance",
                    "resistant"
                ],
                "chem_acts_mibig": [
                    "Antibacterial",
                    "Inhibitor"
                ],
                "chem_struct": "C[C@@]1([C@H]2C[C@H]3[C@@H](C(=O)C(=C([C@]3(C(=O)C2=C(C4=C1C=CC=C4O)O)O)O)C(=O)N)N(C)C)O",
                "database_id": {
                    "pubchem": "54675776"
                },
                "mol_mass": "444.400",
                "molecular_formula": "C22H24N2O8",
                "synonym": "tetracycline"
            }
        ],
        "loci": {
            "accession": "JQ280443.2",
            "completeness": "Unknown",
            "title": "Streptococcus suis strain A18 tetracycline resistance protein TetO (tetO), tetracycline resistance protein Tet40 (tet40), and sigma-70 region 4 domain protein genes, complete cds; and hypothetical protein gene, partial cds"
        },
        "mibig_accession": "",
        "minimal": "true",
        "ncbi_tax_id": 1307,
        "organism_name": "Streptococcus suis",
        "publications": [
            "PMC6465253"
        ]
    }
}