{
    "changelog": [
        {
            "comments": [
                "Submitted"
            ],
            "contributors": [
                "EMERALD"
            ],
            "version": "3.0"
        }
    ],
    "cluster": {
        "biosyn_class": {},
        "compounds": [
            {
                "compound": "CTECL/CdiIECL",
                "chem_acts": [
                    "Toxins",
                    "antiparallel",
                    "bacteriocin",
                    "growth inhibition",
                    "immunity",
                    "inhibit bacterial growth",
                    "inhibition",
                    "inhibitor",
                    "inhibitors",
                    "inhibitory",
                    "inhibitory toxin",
                    "protection",
                    "toxicity",
                    "toxin",
                    "toxin-binding",
                    "toxin-damaged",
                    "toxin-delivery",
                    "toxin-producing",
                    "toxin/immunity",
                    "toxins"
                ],
                "chem_acts_mibig": [
                    "Inhibitor"
                ]
            },
            {
                "compound": "CdiA-CTECL",
                "chem_acts": [
                    "Toxins",
                    "antiparallel",
                    "bacteriocin",
                    "growth inhibition",
                    "immunity",
                    "inhibit bacterial growth",
                    "inhibition",
                    "inhibitor",
                    "inhibitors",
                    "inhibitory",
                    "inhibitory toxin",
                    "protection",
                    "toxicity",
                    "toxin",
                    "toxin-binding",
                    "toxin-damaged",
                    "toxin-delivery",
                    "toxin-producing",
                    "toxin/immunity",
                    "toxins"
                ],
                "chem_acts_mibig": [
                    "Inhibitor"
                ]
            },
            {
                "compound": "Colicin E3",
                "chem_acts": [
                    "Toxins",
                    "antiparallel",
                    "bacteriocin",
                    "growth inhibition",
                    "immunity",
                    "inhibit bacterial growth",
                    "inhibition",
                    "inhibitor",
                    "inhibitors",
                    "inhibitory",
                    "inhibitory toxin",
                    "protection",
                    "toxicity",
                    "toxin",
                    "toxin-binding",
                    "toxin-damaged",
                    "toxin-delivery",
                    "toxin-producing",
                    "toxin/immunity",
                    "toxins"
                ],
                "chem_acts_mibig": [
                    "Inhibitor"
                ]
            },
            {
                "compound": "colicin E3",
                "chem_acts": [
                    "Toxins",
                    "antiparallel",
                    "bacteriocin",
                    "growth inhibition",
                    "immunity",
                    "inhibit bacterial growth",
                    "inhibition",
                    "inhibitor",
                    "inhibitors",
                    "inhibitory",
                    "inhibitory toxin",
                    "protection",
                    "toxicity",
                    "toxin",
                    "toxin-binding",
                    "toxin-damaged",
                    "toxin-delivery",
                    "toxin-producing",
                    "toxin/immunity",
                    "toxins"
                ],
                "chem_acts_mibig": [
                    "Inhibitor"
                ]
            }
        ],
        "loci": {
            "accession": "KY319184.1",
            "completeness": "Unknown",
            "title": "Vibrio fluvialis strain 85003 type VI secretion system 1 gene cluster, partial sequence"
        },
        "mibig_accession": "",
        "minimal": "true",
        "ncbi_tax_id": 676,
        "organism_name": "Vibrio fluvialis",
        "publications": [
            "PMC4016183"
        ]
    }
}