{
    "changelog": [
        {
            "comments": [
                "Submitted"
            ],
            "contributors": [
                "EMERALD"
            ],
            "version": "3.0"
        }
    ],
    "cluster": {
        "biosyn_class": {},
        "compounds": [
            {
                "compound": "mercuric",
                "chem_acts": [
                    "Hg resistance",
                    "bioremediation",
                    "resistance",
                    "resistant",
                    "toxic"
                ],
                "chem_acts_mibig": [],
                "chem_struct": "C1=CC=C(C=C1)[Hg]OS(=O)(=O)C2=CC3=CC=CC=C3C=C2CC4=CC5=CC=CC=C5C=C4S(=O)(=O)O[Hg]C6=CC=CC=C6",
                "database_id": {
                    "pubchem": "16683105"
                },
                "mol_mass": "981.900",
                "molecular_formula": "C33H24Hg2O6S2",
                "synonym": "Phenyl mercuric fixtan"
            },
            {
                "compound": "mercury",
                "chem_acts": [
                    "Hg resistance",
                    "bioremediation",
                    "resistance",
                    "resistant",
                    "toxic"
                ],
                "chem_acts_mibig": [],
                "chem_struct": "C1=CC=C([C]=C1)OCCCCCO.C1=CC=C([C]=C1)OCCCCCO.[Hg]",
                "database_id": {
                    "pubchem": "100939071"
                },
                "mol_mass": "559.100",
                "molecular_formula": "C22H30HgO4",
                "synonym": "Bis[2-[(5-hydroxypentyl)oxy]phenyl] mercury(II)"
            }
        ],
        "loci": {
            "accession": "KY623658.1",
            "completeness": "Unknown",
            "title": "Alcaligenes faecalis strain GZAF3 prolyl aminopeptidase and tRNA (guanosine(46)-N7)-methyltransferase TrmB genes, complete cds; tRNA-Gly gene, complete sequence; genomic island GZAF3_GI genomic sequence; and hypothetical protein genes, complete cds"
        },
        "mibig_accession": "",
        "minimal": "true",
        "ncbi_tax_id": 511,
        "organism_name": "Alcaligenes faecalis",
        "publications": [
            "PMC2663772"
        ]
    }
}