{
    "changelog": [
        {
            "comments": [
                "Submitted"
            ],
            "contributors": [
                "EMERALD"
            ],
            "version": "3.0"
        }
    ],
    "cluster": {
        "biosyn_class": {},
        "compounds": [
            {
                "compound": "LAC",
                "chem_acts": [
                    "Antimicrobial resistance",
                    "antibiotic",
                    "antibiotics",
                    "bacterial survival",
                    "inhibiting",
                    "inhibition12",
                    "inhibitor",
                    "inhibitors",
                    "inhibitory",
                    "resistance",
                    "survival of MRSA",
                    "treatment of MRSA",
                    "treatment of plaque and gingivitis17"
                ],
                "chem_acts_mibig": [
                    "Antibacterial",
                    "Inhibitor"
                ],
                "chem_struct": "CC[C@H](C)[C@@H](C(=O)O[C@H](CC1=CC=CC=C1)C(=O)N(C)[C@@H](C)C(=O)O[C@H](C)C(=O)N(C)[C@@H](CC(C)C)C(=O)O[C@H](CC2=CC=CC=C2)C(=O)N3CCCC[C@H]3C(=O)O[C@H](C)C(=O)O)NC",
                "database_id": {
                    "pubchem": "101160024"
                },
                "mol_mass": "909.100",
                "molecular_formula": "C48H68N4O13",
                "synonym": "N-Methyl-L-Ile-3-phenyl-D-Lac-N-methyl-L-Ala-D-Lac-N-methyl-L-Leu-3-phenyl-D-Lac-L-Pip-D-Lac-OH"
            }
        ],
        "loci": {
            "accession": "L03213.1",
            "completeness": "Unknown",
            "title": "Streptomyces coelicolor transcription factor (glnR) gene, complete cds; lac repressor-like protein, 5' end"
        },
        "mibig_accession": "",
        "minimal": "true",
        "ncbi_tax_id": 100226,
        "organism_name": "Streptomyces coelicolor A3(2)",
        "publications": [
            "PMC6952399"
        ]
    }
}