{
    "changelog": [
        {
            "comments": [
                "Submitted"
            ],
            "contributors": [
                "EMERALD"
            ],
            "version": "3.0"
        }
    ],
    "cluster": {
        "biosyn_class": {},
        "compounds": [
            {
                "compound": "Brevicin 174A",
                "chem_acts": [
                    "Antibacterial",
                    "antimicrobial",
                    "bacteriocin",
                    "bacteriocins"
                ],
                "chem_acts_mibig": [
                    "Antibacterial"
                ]
            }
        ],
        "loci": {
            "accession": "LC062087.1",
            "completeness": "Unknown",
            "title": "Lactobacillus brevis plasmid pLB174A04 DNA, brevicin 174A biosynthetic gene cluster, complete sequence, strain: 174A"
        },
        "mibig_accession": "",
        "minimal": "true",
        "ncbi_tax_id": 1580,
        "organism_name": "Levilactobacillus brevis",
        "publications": [
            "PMC5603468"
        ]
    }
}