{
    "changelog": [
        {
            "comments": [
                "Submitted"
            ],
            "contributors": [
                "EMERALD"
            ],
            "version": "3.0"
        }
    ],
    "cluster": {
        "biosyn_class": {},
        "compounds": [
            {
                "compound": "CHMS",
                "chem_acts": [],
                "chem_acts_mibig": [],
                "chem_struct": "CO[Si](C)(C1CCCCC1)OC",
                "database_id": {
                    "pubchem": "569301"
                },
                "mol_mass": "188.340",
                "molecular_formula": "C9H20O2Si",
                "synonym": "CHMS 112"
            }
        ],
        "loci": {
            "accession": "LC314585.1",
            "completeness": "Unknown",
            "title": "Pseudomonas sp. DNA, gene cluster for catabolic pathway of o-Phthalate via 2,3-Dihydroxybenzoategene, complete sequence, strain: PTH10"
        },
        "mibig_accession": "",
        "minimal": "true",
        "ncbi_tax_id": 306,
        "organism_name": "Pseudomonas sp.",
        "publications": [
            "PMC6362003"
        ]
    }
}