{
    "changelog": [
        {
            "comments": [
                "Submitted"
            ],
            "contributors": [
                "EMERALD"
            ],
            "version": "3.0"
        }
    ],
    "cluster": {
        "biosyn_class": {},
        "compounds": [
            {
                "compound": "tetracycline",
                "chem_acts": [
                    "bacteriophage",
                    "chemotaxis inhibitory",
                    "enterotoxins",
                    "growth inhibitor",
                    "hemolysins",
                    "inhibitor",
                    "multidrug resistance",
                    "pathogenicity",
                    "resistance",
                    "toxic",
                    "toxin"
                ],
                "chem_acts_mibig": [
                    "Inhibitor"
                ],
                "chem_struct": "C[C@@]1([C@H]2C[C@H]3[C@@H](C(=O)C(=C([C@]3(C(=O)C2=C(C4=C1C=CC=C4O)O)O)O)C(=O)N)N(C)C)O",
                "database_id": {
                    "pubchem": "54675776"
                },
                "mol_mass": "444.400",
                "molecular_formula": "C22H24N2O8",
                "synonym": "tetracycline"
            }
        ],
        "loci": {
            "accession": "MF616023.1",
            "completeness": "Unknown",
            "title": "Streptococcus suis strain BSB6 putative hydrolase (hdy) gene, complete cds; ICESsuBSB6 mobile element, complete sequence; and LSU ribosomal protein L7/L12 (rplL) gene, complete cds"
        },
        "mibig_accession": "",
        "minimal": "true",
        "ncbi_tax_id": 1307,
        "organism_name": "Streptococcus suis",
        "publications": [
            "PMC3804489"
        ]
    }
}