{
    "changelog": [
        {
            "comments": [
                "Submitted"
            ],
            "contributors": [
                "EMERALD"
            ],
            "version": "3.0"
        }
    ],
    "cluster": {
        "biosyn_class": {},
        "compounds": [
            {
                "compound": "MC-degrading",
                "chem_acts": [
                    "attenuation"
                ],
                "chem_acts_mibig": []
            },
            {
                "compound": "MCs",
                "chem_acts": [
                    "attenuation"
                ],
                "chem_acts_mibig": [],
                "chem_struct": "CCCNCCCC[C@@H](C(=O)NCC1=CC=CC=C1)NC(=O)C",
                "database_id": {
                    "pubchem": "460421"
                },
                "mol_mass": "319.400",
                "molecular_formula": "C18H29N3O2",
                "synonym": "MCS-658"
            },
            {
                "compound": "microcystins",
                "chem_acts": [
                    "attenuation"
                ],
                "chem_acts_mibig": []
            }
        ],
        "loci": {
            "accession": "MK758111.1",
            "completeness": "Unknown",
            "title": "Sphingopyxis sp. X20 mlr gene cluster, complete sequence"
        },
        "mibig_accession": "",
        "minimal": "true",
        "ncbi_tax_id": 1572319,
        "organism_name": "Sphingopyxis sp. X20",
        "publications": [
            "PMC6563193"
        ]
    }
}