{
    "changelog": [
        {
            "comments": [
                "Submitted"
            ],
            "contributors": [
                "EMERALD"
            ],
            "version": "3.0"
        }
    ],
    "cluster": {
        "biosyn_class": {},
        "compounds": [
            {
                "compound": "fibrinogen-binding",
                "chem_acts": [
                    "Antibacterial",
                    "Antibiotic",
                    "antibiotic",
                    "antibiotic resistance",
                    "antibiotics",
                    "hemolysis",
                    "inhibition",
                    "inhibitory",
                    "resistance",
                    "resistant",
                    "toxic",
                    "toxin",
                    "virulence",
                    "virulence factors",
                    "β- blood"
                ],
                "chem_acts_mibig": [
                    "Antibacterial",
                    "Inhibitor"
                ],
                "chem_struct": "C[C@@H](C(=O)N[C@@H](CCCCN)C(=O)N[C@@H](CCC(=O)N)C(=O)N[C@@H](C)C(=O)NCC(=O)N[C@@H](CC(=O)O)C(=O)N[C@@H](C(C)C)C(=O)O)NC(=O)CNC(=O)CNC(=O)[C@H](CC(C)C)NC(=O)[C@H](CC1=CN=CN1)NC(=O)[C@H](CC2=CN=CN2)N",
                "database_id": {
                    "pubchem": "9941719"
                },
                "mol_mass": "1189.300",
                "molecular_formula": "C50H80N18O16",
                "synonym": "Fibrinogen-binding Inhibitor Peptide"
            },
            {
                "compound": "ofloxacin",
                "chem_acts": [
                    "Antibacterial",
                    "Antibiotic",
                    "antibiotic",
                    "antibiotic resistance",
                    "antibiotics",
                    "hemolysis",
                    "inhibition",
                    "inhibitory",
                    "resistance",
                    "resistant",
                    "toxic",
                    "toxin",
                    "virulence",
                    "virulence factors",
                    "β- blood"
                ],
                "chem_acts_mibig": [
                    "Antibacterial",
                    "Inhibitor"
                ],
                "chem_struct": "CC1COC2=C3N1C=C(C(=O)C3=CC(=C2N4CCN(CC4)C)F)C(=O)O",
                "database_id": {
                    "pubchem": "4583"
                },
                "mol_mass": "361.400",
                "molecular_formula": "C18H20FN3O4",
                "synonym": "ofloxacin"
            },
            {
                "compound": "tetracycline",
                "chem_acts": [
                    "Antibacterial",
                    "Antibiotic",
                    "antibiotic",
                    "antibiotic resistance",
                    "antibiotics",
                    "hemolysis",
                    "inhibition",
                    "inhibitory",
                    "resistance",
                    "resistant",
                    "toxic",
                    "toxin",
                    "virulence",
                    "virulence factors",
                    "β- blood"
                ],
                "chem_acts_mibig": [
                    "Antibacterial",
                    "Inhibitor"
                ],
                "chem_struct": "C[C@@]1([C@H]2C[C@H]3[C@@H](C(=O)C(=C([C@]3(C(=O)C2=C(C4=C1C=CC=C4O)O)O)O)C(=O)N)N(C)C)O",
                "database_id": {
                    "pubchem": "54675776"
                },
                "mol_mass": "444.400",
                "molecular_formula": "C22H24N2O8",
                "synonym": "tetracycline"
            }
        ],
        "loci": {
            "accession": "MN220716.1",
            "completeness": "Unknown",
            "title": "Staphylococcus aureus strain SHP6P021P 23S rRNA (pseudouridine(1915)-N(3))-methyltransferase gene, complete cds; SCCmec mobile element, complete sequence; and hypothetical protein gene, complete cds"
        },
        "mibig_accession": "",
        "minimal": "true",
        "ncbi_tax_id": 1280,
        "organism_name": "Staphylococcus aureus",
        "publications": [
            "PMC7582841"
        ]
    }
}