{
    "changelog": [
        {
            "comments": [
                "Submitted"
            ],
            "contributors": [
                "EMERALD"
            ],
            "version": "3.0"
        }
    ],
    "cluster": {
        "biosyn_class": {},
        "compounds": [
            {
                "compound": "KF",
                "chem_acts": [
                    "activator",
                    "repressor",
                    "resistance",
                    "resistant"
                ],
                "chem_acts_mibig": [],
                "chem_struct": "CCN(CC)CCN1C2=CC=CC=C2C(=O)C3=CC=CC=C31",
                "database_id": {
                    "pubchem": "148883"
                },
                "mol_mass": "294.400",
                "molecular_formula": "C19H22N2O",
                "synonym": "KF-A2"
            },
            {
                "compound": "chlorocatechols",
                "chem_acts": [
                    "activator",
                    "repressor",
                    "resistance",
                    "resistant"
                ],
                "chem_acts_mibig": []
            }
        ],
        "loci": {
            "accession": "X97840.1",
            "completeness": "Unknown",
            "title": "A.eutrophus bph gene cluster"
        },
        "mibig_accession": "",
        "minimal": "true",
        "ncbi_tax_id": 106590,
        "organism_name": "Cupriavidus necator",
        "publications": [
            "PMC6563109"
        ]
    }
}